LOSCx_Diag_Smooth...
1	1.536997e-01
2	8.202882e-02
3	6.916591e-02
4	6.880841e-02
5	6.819293e-02
6	4.872782e-02
7	3.996981e-02
8	3.221779e-02
9	2.272205e-02
10	2.250245e-02
11	1.744324e-02
12	1.744324e-02
13	1.597322e-02
14	1.508957e-02
15	1.503983e-02
16	1.432025e-02
17	1.432025e-02
18	1.424979e-02
19	1.335237e-02
20	1.182791e-02
21	1.174937e-02
22	8.403310e-03
23	7.769183e-03
24	7.028948e-03
25	6.990868e-03
26	6.792117e-03
27	6.772785e-03
28	6.541250e-03
29	6.541250e-03
30	6.541250e-03
31	6.273671e-03
32	6.020575e-03
33	6.020575e-03
34	6.020575e-03
35	5.630167e-03
36	5.458103e-03
37	5.281985e-03
38	5.281985e-03
39	4.807010e-03
40	4.709409e-03
41	4.694600e-03
42	4.694600e-03
43	4.694600e-03
44	4.694600e-03
45	4.603235e-03
46	4.326290e-03
47	4.319022e-03
48	4.124173e-03
49	4.067968e-03
50	4.056624e-03
51	4.056624e-03
52	4.056624e-03
53	4.056624e-03
54	4.056624e-03
55	4.056624e-03
56	4.056624e-03
57	4.056624e-03
58	4.029610e-03
59	3.991172e-03
60	3.991172e-03
61	3.991172e-03
62	3.991172e-03
63	3.991172e-03
64	3.991172e-03
65	3.951016e-03
66	3.951016e-03
67	3.951016e-03
68	3.823102e-03
69	3.794092e-03
70	3.614314e-03
71	3.599131e-03
72	3.580546e-03
73	3.493227e-03
74	3.493227e-03
75	3.492809e-03
76	3.492809e-03
77	3.492809e-03
78	3.492115e-03
79	3.492115e-03
80	3.492115e-03
81	3.479594e-03
82	3.424130e-03
83	3.401295e-03
84	3.400760e-03
85	3.364139e-03
86	3.185714e-03
87	3.185673e-03
88	3.183507e-03
89	3.106501e-03
90	3.106501e-03
91	2.864955e-03
92	2.616457e-03
93	2.573037e-03
94	2.113423e-03
95	1.930801e-03
96	1.914314e-03
97	1.767155e-03
98	1.747367e-03
99	1.726631e-03
100	1.707030e-03
101	1.707030e-03
102	1.706341e-03
103	1.705198e-03
104	1.705142e-03
105	1.703957e-03
106	1.652546e-03
107	1.652546e-03
108	1.644885e-03
109	1.644885e-03
110	1.611389e-03
111	1.611389e-03
112	1.545045e-03
113	1.545045e-03
114	1.413153e-03
115	1.397986e-03
116	1.396792e-03
117	1.396640e-03
118	1.197407e-03
119	1.105642e-03
120	1.089767e-03
121	1.089767e-03
122	1.088027e-03
123	1.088027e-03
124	1.058389e-03
125	1.053919e-03
126	9.734640e-04
127	9.734640e-04
128	9.734640e-04
129	9.650069e-04
130	9.650069e-04
131	9.494861e-04
132	9.494861e-04
133	9.302935e-04
134	9.252548e-04
135	9.252548e-04
136	8.696286e-04
137	8.662635e-04
138	8.613878e-04
139	8.613878e-04
140	8.613878e-04
141	8.502395e-04
142	8.337274e-04
143	8.091732e-04
144	8.091732e-04
145	8.091732e-04
146	8.091732e-04
147	8.091732e-04
148	8.091732e-04
149	8.091732e-04
150	8.091732e-04
151	8.075095e-04
152	8.075095e-04
153	8.075095e-04
154	8.067186e-04
155	8.056082e-04
156	8.026081e-04
157	8.025826e-04
158	7.972974e-04
159	7.972974e-04
160	7.972974e-04
161	7.972974e-04
162	7.972974e-04
163	7.761021e-04
164	7.754409e-04
165	7.572052e-04
166	7.570167e-04
167	7.570167e-04
168	7.570167e-04
169	7.570167e-04
170	7.486988e-04
171	7.305820e-04
172	7.211849e-04
173	7.209672e-04
174	7.149263e-04
175	7.116369e-04
176	7.079464e-04
177	6.849116e-04
178	6.832946e-04
179	6.832652e-04
180	6.832652e-04
181	6.832652e-04
182	6.832652e-04
183	6.832652e-04
184	6.832652e-04
185	6.832652e-04
186	6.832652e-04
187	6.832652e-04
188	6.813520e-04
189	6.813520e-04
190	6.813520e-04
191	6.813520e-04
192	6.776594e-04
193	6.283925e-04
194	6.228333e-04
195	6.189196e-04
196	6.184861e-04
197	6.183884e-04
198	6.183884e-04
199	6.165839e-04
200	6.078128e-04
201	6.077786e-04
202	6.077786e-04
203	6.077786e-04
204	6.077786e-04
205	5.986962e-04
206	5.860649e-04
207	5.647800e-04
208	5.635547e-04
209	5.554486e-04
210	5.537274e-04
211	5.532496e-04
212	5.532496e-04
213	5.532496e-04
214	5.396285e-04
215	5.374154e-04
216	5.368393e-04
217	5.363323e-04
218	5.363323e-04
219	5.363323e-04
220	5.363323e-04
221	5.183254e-04
222	5.110321e-04
223	5.016564e-04
224	4.993389e-04
225	4.951690e-04
226	4.840096e-04
227	4.840096e-04
228	4.840096e-04
229	4.826782e-04
230	4.797825e-04
231	4.780326e-04
232	4.780326e-04
233	4.761554e-04
234	4.759774e-04
235	4.759774e-04
236	4.756518e-04
237	4.675953e-04
238	4.655546e-04
239	4.655546e-04
240	4.655546e-04
241	4.655546e-04
242	4.655546e-04
243	4.655546e-04
244	4.655546e-04
245	4.635045e-04
246	4.615274e-04
247	4.520670e-04
248	4.383766e-04
249	3.634830e-04
250	3.497345e-04
251	3.482676e-04
252	3.291518e-04
253	3.252985e-04
254	3.162864e-04
255	3.162864e-04
256	3.160735e-04
257	3.049569e-04
258	3.049569e-04
259	3.047286e-04
260	2.994454e-04
261	2.994454e-04
262	2.994297e-04
263	2.896465e-04
264	2.892422e-04
265	2.877945e-04
266	2.872581e-04
267	2.843281e-04
268	2.842390e-04
269	2.836479e-04
270	2.836391e-04
271	2.803086e-04
272	2.713914e-04
273	2.709396e-04
274	2.688621e-04
275	2.665839e-04
276	2.665839e-04
277	2.665839e-04
278	2.655867e-04
279	2.655867e-04
280	2.629940e-04
281	2.537230e-04
282	2.497490e-04
283	2.497490e-04
284	2.497490e-04
285	2.497490e-04
286	2.497490e-04
287	2.497490e-04
288	2.487855e-04
289	2.470886e-04
290	2.463265e-04
291	2.451197e-04
292	2.437581e-04
293	2.437581e-04
294	2.339929e-04
295	2.295156e-04
296	2.265157e-04
297	2.265157e-04
298	2.229113e-04
299	2.227815e-04
300	2.207936e-04
301	2.207387e-04
302	2.173528e-04
303	2.160344e-04
304	2.157200e-04
305	2.157200e-04
306	2.157200e-04
307	2.157200e-04
308	2.157200e-04
309	2.157200e-04
310	2.157200e-04
311	2.157200e-04
312	2.157200e-04
313	2.157200e-04
314	2.157200e-04
315	2.157200e-04
316	2.157200e-04
317	2.156160e-04
318	2.156160e-04
319	2.156160e-04
320	2.156160e-04
321	2.156160e-04
322	2.152778e-04
323	2.132862e-04
324	2.131890e-04
325	2.128795e-04
326	2.127037e-04
327	2.124846e-04
328	2.124346e-04
329	2.124346e-04
330	2.124346e-04
331	2.124346e-04
332	2.099102e-04
333	2.089514e-04
334	2.086835e-04
335	2.086835e-04
336	2.086835e-04
337	2.086712e-04
338	2.086712e-04
339	2.085212e-04
340	2.083538e-04
341	2.083538e-04
342	2.083538e-04
343	2.083538e-04
344	2.083538e-04
345	2.083538e-04
346	2.083538e-04
347	2.083538e-04
348	2.083538e-04
349	2.063718e-04
350	2.063718e-04
351	2.063718e-04
352	2.063718e-04
353	2.063554e-04
354	2.050242e-04
355	2.050242e-04
356	2.050242e-04
357	2.050242e-04
358	2.050242e-04
359	2.050242e-04
360	2.049946e-04
361	2.037932e-04
362	1.992253e-04
363	1.992009e-04
364	1.992009e-04
365	1.992009e-04
366	1.992009e-04
367	1.992009e-04
368	1.992009e-04
369	1.992009e-04
370	1.992009e-04
371	1.992009e-04
372	1.992009e-04
373	1.990193e-04
374	1.984712e-04
375	1.984712e-04
376	1.984712e-04
377	1.984575e-04
378	1.982568e-04
379	1.982568e-04
380	1.982543e-04
381	1.982543e-04
382	1.982278e-04
383	1.982278e-04
384	1.982278e-04
385	1.982278e-04
386	1.982278e-04
387	1.982278e-04
388	1.982188e-04
389	1.981824e-04
390	1.981577e-04
391	1.981577e-04
392	1.977642e-04
393	1.977642e-04
394	1.977642e-04
395	1.977642e-04
396	1.977642e-04
397	1.977642e-04
398	1.977642e-04
399	1.977642e-04
400	1.977642e-04
401	1.977642e-04
402	1.977642e-04
403	1.977642e-04
404	1.977642e-04
405	1.977642e-04
406	1.977642e-04
407	1.977642e-04
408	1.977642e-04
409	1.977642e-04
410	1.977642e-04
411	1.977642e-04
412	1.977642e-04
413	1.977642e-04
414	1.977642e-04
415	1.977642e-04
416	1.977642e-04
417	1.977642e-04
418	1.971113e-04
419	1.971091e-04
420	1.971091e-04
421	1.971091e-04
422	1.971091e-04
423	1.971091e-04
424	1.971091e-04
425	1.971091e-04
426	1.952338e-04
427	1.952255e-04
428	1.952255e-04
429	1.952255e-04
430	1.944357e-04
431	1.930160e-04
432	1.874813e-04
433	1.843514e-04
434	1.830999e-04
435	1.825853e-04
436	1.819436e-04
437	1.810612e-04
438	1.810612e-04
439	1.809058e-04
440	1.809058e-04
441	1.803812e-04
442	1.766632e-04
443	1.766631e-04
444	1.766033e-04
445	1.765661e-04
446	1.764096e-04
447	1.763967e-04
448	1.763967e-04
449	1.763967e-04
450	1.763967e-04
451	1.732552e-04
452	1.731416e-04
453	1.731416e-04
454	1.731416e-04
455	1.729038e-04
456	1.728560e-04
457	1.728560e-04
458	1.728554e-04
459	1.715863e-04
460	1.715863e-04
461	1.715863e-04
462	1.715863e-04
463	1.715863e-04
464	1.715863e-04
465	1.715863e-04
466	1.713193e-04
467	1.711005e-04
468	1.709880e-04
469	1.706045e-04
470	1.705994e-04
471	1.703860e-04
472	1.703597e-04
473	1.703597e-04
474	1.677154e-04
475	1.677138e-04
476	1.669373e-04
477	1.668812e-04
478	1.668812e-04
479	1.668812e-04
480	1.668794e-04
481	1.668794e-04
482	1.668695e-04
483	1.668651e-04
484	1.668649e-04
485	1.668649e-04
486	1.595117e-04
487	1.528494e-04
488	1.528102e-04
489	1.528102e-04
490	1.511460e-04
491	1.511460e-04
492	1.511460e-04
493	1.511460e-04
494	1.511460e-04
495	1.511460e-04
496	1.511460e-04
497	1.511460e-04
498	1.511460e-04
499	1.511460e-04
500	1.511460e-04
501	1.511460e-04
502	1.511460e-04
503	1.511460e-04
504	1.511460e-04
505	1.511460e-04
506	1.511460e-04
507	1.511460e-04
508	1.511460e-04
509	1.511460e-04
510	1.509252e-04
511	1.501756e-04
512	1.501631e-04
513	1.501631e-04
514	1.501631e-04
515	1.501631e-04
516	1.501631e-04
517	1.501631e-04
518	1.501631e-04
519	1.501631e-04
520	1.501631e-04
521	1.501631e-04
522	1.501631e-04
523	1.501631e-04
524	1.501631e-04
525	1.501631e-04
526	1.501631e-04
527	1.501631e-04
528	1.501631e-04
529	1.501631e-04
530	1.501631e-04
531	1.501631e-04
532	1.501631e-04
533	1.501631e-04
534	1.501631e-04
535	1.501631e-04
536	1.501631e-04
537	1.501631e-04
538	1.501631e-04
539	1.501631e-04
540	1.501631e-04
541	1.501631e-04
542	1.501631e-04
543	1.501631e-04
544	1.501631e-04
545	1.501564e-04
546	1.501564e-04
547	1.501564e-04
548	1.501564e-04
549	1.501564e-04
550	1.501564e-04
551	1.501564e-04
552	1.501564e-04
553	1.501564e-04
554	1.501564e-04
555	1.501564e-04
556	1.501564e-04
557	1.501564e-04
558	1.501564e-04
559	1.500874e-04
560	1.434183e-04
561	1.434183e-04
562	1.434183e-04
563	1.434183e-04
564	1.434183e-04
565	1.434183e-04
566	1.434183e-04
567	1.434183e-04
568	1.434183e-04
569	1.434183e-04
570	1.434183e-04
571	1.433171e-04
572	1.423542e-04
573	1.423542e-04
574	1.421193e-04
575	1.355644e-04
576	1.355644e-04
577	1.313579e-04
578	1.279617e-04
579	1.275391e-04
580	1.229474e-04
581	1.218654e-04
582	1.218654e-04
583	1.218654e-04
584	1.218654e-04
585	1.218654e-04
586	1.184908e-04
587	1.170619e-04
588	1.170619e-04
589	1.170619e-04
590	1.092724e-04
591	1.091919e-04
592	1.058778e-04
593	1.058778e-04
594	1.055382e-04
595	1.053912e-04
596	1.046627e-04
597	1.041787e-04
598	1.035369e-04
599	1.031476e-04
600	1.031472e-04
601	1.024566e-04
602	1.023512e-04
603	9.810689e-05
Solution time:	5.309400e+01
