LOSCx_LDLT_Smooth...
1	9.976973e-01
2	9.934045e-01
3	9.766349e-01
4	9.405190e-01
5	6.848314e-01
6	6.633443e-01
7	6.633443e-01
8	6.633443e-01
9	9.727437e-02
10	7.566787e-02
11	7.566447e-02
12	7.510794e-02
13	7.278600e-02
14	7.240976e-02
15	7.128824e-02
16	7.127678e-02
17	7.127678e-02
18	6.450375e-02
19	6.440042e-02
20	5.830946e-02
21	5.830946e-02
22	5.560789e-02
23	5.531154e-02
24	5.172221e-02
25	5.129235e-02
26	5.125859e-02
27	4.386374e-02
28	4.386374e-02
29	3.363198e-02
30	2.370634e-02
31	1.822640e-02
32	1.656158e-02
33	1.652204e-02
34	1.652117e-02
35	1.650873e-02
36	1.650859e-02
37	1.650849e-02
38	1.648696e-02
39	1.648070e-02
40	1.648070e-02
41	1.648070e-02
42	1.647552e-02
43	1.647552e-02
44	1.647552e-02
45	1.647552e-02
46	1.647552e-02
47	1.647552e-02
48	1.647552e-02
49	1.647552e-02
50	1.646121e-02
51	1.646121e-02
52	1.646121e-02
53	1.646121e-02
54	1.646121e-02
55	1.646121e-02
56	1.645623e-02
57	1.606277e-02
58	1.502766e-02
59	1.502766e-02
60	1.502766e-02
61	1.502766e-02
62	1.502766e-02
63	1.502766e-02
64	1.502766e-02
65	1.502766e-02
66	1.502766e-02
67	1.319237e-02
68	1.308716e-02
69	1.308716e-02
70	1.308716e-02
71	1.308716e-02
72	1.308716e-02
73	1.308716e-02
74	6.756421e-03
75	6.756421e-03
76	6.756421e-03
77	6.756421e-03
78	6.756421e-03
79	6.756190e-03
80	6.756169e-03
81	6.539983e-03
82	6.274501e-03
83	6.159338e-03
84	6.135374e-03
85	6.135374e-03
86	6.135374e-03
87	6.135374e-03
88	6.135374e-03
89	5.638931e-03
90	5.638085e-03
91	5.638085e-03
92	5.636898e-03
93	5.636898e-03
94	5.636898e-03
95	5.636898e-03
96	5.621320e-03
97	5.621320e-03
98	5.477159e-03
99	5.477159e-03
100	5.477159e-03
101	5.477159e-03
102	5.477159e-03
103	5.477159e-03
104	4.584488e-03
105	4.584488e-03
106	4.584488e-03
107	4.579045e-03
108	4.579041e-03
109	4.543942e-03
110	4.247594e-03
111	3.324880e-03
112	3.318778e-03
113	3.318778e-03
114	3.318770e-03
115	3.318770e-03
116	3.304164e-03
117	3.304164e-03
118	3.304164e-03
119	3.304164e-03
120	3.304164e-03
121	3.304164e-03
122	3.304164e-03
123	3.195444e-03
124	3.195444e-03
125	3.195444e-03
126	3.195444e-03
127	3.163708e-03
128	3.163708e-03
129	3.162797e-03
130	3.102945e-03
131	3.102945e-03
132	3.102945e-03
133	3.102945e-03
134	3.102945e-03
135	3.102945e-03
136	3.102945e-03
137	3.102945e-03
138	3.102945e-03
139	3.102945e-03
140	3.102945e-03
141	3.102945e-03
142	2.818882e-03
143	2.818882e-03
144	2.818882e-03
145	2.818882e-03
146	2.818882e-03
147	2.818882e-03
148	2.818882e-03
149	2.818882e-03
150	2.818882e-03
151	2.818441e-03
152	2.742919e-03
153	2.742919e-03
154	2.742919e-03
155	2.742919e-03
156	2.742919e-03
157	2.742919e-03
158	2.742690e-03
159	2.742690e-03
160	2.742690e-03
161	2.742690e-03
162	2.742690e-03
163	2.742690e-03
164	2.742690e-03
165	2.742690e-03
166	2.742690e-03
167	2.742690e-03
168	2.709796e-03
169	2.708178e-03
170	2.708178e-03
171	2.708178e-03
172	2.708178e-03
173	2.708178e-03
174	2.708178e-03
175	2.708178e-03
176	2.677864e-03
177	2.637433e-03
178	2.637433e-03
179	2.636473e-03
180	2.075423e-03
181	2.074253e-03
182	2.074253e-03
183	2.074253e-03
184	2.074253e-03
185	2.074253e-03
186	2.074253e-03
187	1.996949e-03
188	1.933948e-03
189	1.933948e-03
190	1.730712e-03
191	1.727717e-03
192	1.727717e-03
193	1.727717e-03
194	1.727717e-03
195	1.727717e-03
196	1.727717e-03
197	1.727356e-03
198	1.725693e-03
199	1.724772e-03
200	1.724714e-03
201	1.724714e-03
202	1.724714e-03
203	1.724714e-03
204	1.724714e-03
205	1.724714e-03
206	1.724714e-03
207	1.724714e-03
208	1.724714e-03
209	1.724714e-03
210	1.724714e-03
211	1.724552e-03
212	1.724286e-03
213	1.723684e-03
214	1.723684e-03
215	1.723684e-03
216	1.723684e-03
217	1.723684e-03
218	1.345970e-03
219	1.330428e-03
220	1.330428e-03
221	1.314085e-03
222	1.308927e-03
223	1.218613e-03
224	1.006916e-03
225	9.598422e-04
226	9.598422e-04
227	9.598422e-04
228	9.598422e-04
229	9.598422e-04
230	9.598422e-04
231	9.598422e-04
232	9.598422e-04
233	9.590898e-04
234	9.590885e-04
235	9.590885e-04
236	9.590885e-04
237	9.590885e-04
238	9.590885e-04
239	9.590885e-04
240	9.590885e-04
241	9.590885e-04
242	9.530346e-04
243	9.530345e-04
244	9.469912e-04
245	9.469020e-04
246	9.467735e-04
247	9.467735e-04
248	9.467735e-04
249	9.467735e-04
250	9.467735e-04
251	9.467735e-04
252	9.467735e-04
253	9.457451e-04
254	9.452792e-04
255	9.452792e-04
256	9.452785e-04
257	9.452785e-04
258	9.452785e-04
259	9.452785e-04
260	9.452785e-04
261	9.452785e-04
262	9.452785e-04
263	9.452785e-04
264	9.452785e-04
265	9.452785e-04
266	9.452785e-04
267	9.452785e-04
268	9.452785e-04
269	9.394841e-04
270	9.363141e-04
271	8.057001e-04
272	7.588831e-04
273	7.588051e-04
274	7.588051e-04
275	7.588051e-04
276	7.473596e-04
277	7.473596e-04
278	7.473596e-04
279	7.473596e-04
280	7.473596e-04
281	7.473596e-04
282	7.473596e-04
283	7.473596e-04
284	7.473066e-04
285	7.473066e-04
286	7.336347e-04
287	7.335875e-04
288	7.335688e-04
289	7.125907e-04
290	7.124138e-04
291	7.115991e-04
292	6.650152e-04
293	6.474987e-04
294	6.474987e-04
295	6.474987e-04
296	6.474987e-04
297	6.474987e-04
298	5.945942e-04
299	5.904469e-04
300	5.903129e-04
301	5.903129e-04
302	5.903129e-04
303	5.891844e-04
304	5.399014e-04
305	5.399014e-04
306	5.399014e-04
307	5.399014e-04
308	5.394877e-04
309	5.394877e-04
310	5.394877e-04
311	5.389066e-04
312	5.371291e-04
313	5.371291e-04
314	5.371291e-04
315	5.371291e-04
316	5.371291e-04
317	5.264524e-04
318	5.264524e-04
319	5.247799e-04
320	5.197688e-04
321	5.197688e-04
322	5.197688e-04
323	5.197688e-04
324	5.197688e-04
325	5.184829e-04
326	5.184829e-04
327	5.184829e-04
328	5.184829e-04
329	5.106421e-04
330	5.106421e-04
331	5.106421e-04
332	5.106421e-04
333	5.106421e-04
334	5.106421e-04
335	5.106421e-04
336	5.106421e-04
337	5.106421e-04
338	5.106421e-04
339	5.106421e-04
340	5.106421e-04
341	5.106421e-04
342	5.106421e-04
343	5.106421e-04
344	5.106421e-04
345	5.106421e-04
346	5.103722e-04
347	5.103722e-04
348	5.103722e-04
349	5.103722e-04
350	5.103722e-04
351	5.103722e-04
352	5.103722e-04
353	5.103722e-04
354	5.103722e-04
355	5.103722e-04
356	5.103722e-04
357	5.103722e-04
358	5.103722e-04
359	5.099816e-04
360	5.099816e-04
361	5.099816e-04
362	5.082830e-04
363	3.744707e-04
364	3.744421e-04
365	3.744421e-04
366	3.744421e-04
367	3.740359e-04
368	3.740359e-04
369	3.740359e-04
370	3.740359e-04
371	3.740359e-04
372	3.689261e-04
373	3.669557e-04
374	3.669557e-04
375	3.657473e-04
376	3.657473e-04
377	3.648727e-04
378	3.648727e-04
379	3.648727e-04
380	3.648727e-04
381	3.648727e-04
382	3.648727e-04
383	3.648727e-04
384	3.602561e-04
385	3.602561e-04
386	3.602561e-04
387	3.602561e-04
388	3.602561e-04
389	3.602561e-04
390	3.602561e-04
391	3.602561e-04
392	3.602561e-04
393	3.602561e-04
394	3.602561e-04
395	3.602561e-04
396	3.602561e-04
397	3.591126e-04
398	3.591126e-04
399	3.591126e-04
400	3.591126e-04
401	3.591126e-04
402	3.591126e-04
403	3.591126e-04
404	3.591126e-04
405	3.587846e-04
406	3.557349e-04
407	3.557349e-04
408	3.557349e-04
409	3.557349e-04
410	3.557349e-04
411	3.557349e-04
412	3.557349e-04
413	3.557349e-04
414	3.557349e-04
415	3.504279e-04
416	3.301808e-04
417	3.297642e-04
418	3.297535e-04
419	3.297535e-04
420	3.294392e-04
421	3.294381e-04
422	3.294381e-04
423	3.294381e-04
424	3.294381e-04
425	3.293439e-04
426	3.293415e-04
427	3.120508e-04
428	3.118076e-04
429	3.071170e-04
430	3.066992e-04
431	3.066992e-04
432	3.066992e-04
433	3.066992e-04
434	3.066992e-04
435	3.066992e-04
436	3.066992e-04
437	3.065789e-04
438	3.065364e-04
439	3.062273e-04
440	3.053412e-04
441	3.053412e-04
442	3.036484e-04
443	3.036466e-04
444	2.964322e-04
445	2.964322e-04
446	2.964322e-04
447	2.914221e-04
448	2.914221e-04
449	2.914221e-04
450	2.914221e-04
451	2.912506e-04
452	2.907654e-04
453	2.907654e-04
454	2.907654e-04
455	2.907654e-04
456	2.907654e-04
457	2.907654e-04
458	2.907654e-04
459	2.907654e-04
460	2.907654e-04
461	2.907654e-04
462	2.907654e-04
463	2.907654e-04
464	2.907654e-04
465	2.907654e-04
466	2.907654e-04
467	2.907654e-04
468	2.907654e-04
469	2.907654e-04
470	2.907654e-04
471	2.907654e-04
472	2.907654e-04
473	2.907654e-04
474	2.907654e-04
475	2.907654e-04
476	2.907654e-04
477	2.907654e-04
478	2.907654e-04
479	2.907654e-04
480	2.907654e-04
481	2.907654e-04
482	2.907654e-04
483	2.907654e-04
484	2.907654e-04
485	2.907654e-04
486	2.907654e-04
487	2.907654e-04
488	2.907654e-04
489	2.907654e-04
490	2.907654e-04
491	2.907654e-04
492	2.907654e-04
493	2.907654e-04
494	2.907654e-04
495	2.907654e-04
496	2.907654e-04
497	2.907654e-04
498	2.907654e-04
499	2.907654e-04
500	2.907654e-04
501	2.907654e-04
502	2.907654e-04
503	2.907654e-04
504	2.907654e-04
505	2.907654e-04
506	2.907654e-04
507	2.907654e-04
508	2.907589e-04
509	2.907589e-04
510	2.907589e-04
511	2.907589e-04
512	2.907589e-04
513	2.907589e-04
514	2.907589e-04
515	2.907589e-04
516	2.907589e-04
517	2.907589e-04
518	2.907589e-04
519	2.907589e-04
520	2.907589e-04
521	2.907589e-04
522	2.907589e-04
523	2.907589e-04
524	2.907589e-04
525	2.907589e-04
526	2.907589e-04
527	2.907589e-04
528	2.907589e-04
529	2.907589e-04
530	2.907589e-04
531	2.907589e-04
532	2.907589e-04
533	2.907589e-04
534	2.907589e-04
535	2.907589e-04
536	2.907589e-04
537	2.907589e-04
538	2.907589e-04
539	2.907589e-04
540	2.907589e-04
541	2.907589e-04
542	2.906480e-04
543	2.906480e-04
544	2.906480e-04
545	2.906480e-04
546	2.906480e-04
547	2.906480e-04
548	2.906480e-04
549	2.906480e-04
550	2.906480e-04
551	2.906480e-04
552	2.906480e-04
553	2.906480e-04
554	2.906480e-04
555	2.906480e-04
556	2.906480e-04
557	2.906480e-04
558	2.906480e-04
559	2.906480e-04
560	2.906480e-04
561	2.906480e-04
562	2.906480e-04
563	2.906480e-04
564	2.906480e-04
565	2.906480e-04
566	2.906480e-04
567	2.906480e-04
568	2.906480e-04
569	2.906480e-04
570	2.906480e-04
571	2.906480e-04
572	2.906480e-04
573	2.906480e-04
574	2.906480e-04
575	2.906480e-04
576	2.906480e-04
577	2.906480e-04
578	2.906480e-04
579	2.906480e-04
580	2.906480e-04
581	2.906480e-04
582	2.906480e-04
583	2.906480e-04
584	2.906480e-04
585	2.906480e-04
586	2.874060e-04
587	2.874060e-04
588	2.873937e-04
589	2.873937e-04
590	2.872855e-04
591	2.872095e-04
592	2.872095e-04
593	2.872095e-04
594	2.858691e-04
595	2.858683e-04
596	2.858624e-04
597	2.858624e-04
598	2.858624e-04
599	2.858624e-04
600	2.858624e-04
601	2.858624e-04
602	2.858624e-04
603	2.858624e-04
604	2.857186e-04
605	2.857186e-04
606	2.855262e-04
607	2.855262e-04
608	2.855262e-04
609	2.855262e-04
610	2.855262e-04
611	2.855262e-04
612	2.855262e-04
613	2.855262e-04
614	2.855262e-04
615	2.855262e-04
616	2.855262e-04
617	2.855262e-04
618	2.833028e-04
619	2.819764e-04
620	2.819764e-04
621	2.819764e-04
622	2.819764e-04
623	2.819764e-04
624	2.806449e-04
625	2.806449e-04
626	2.806449e-04
627	2.802856e-04
628	2.802856e-04
629	2.802856e-04
630	2.802856e-04
631	2.802856e-04
632	2.802856e-04
633	2.802856e-04
634	2.802856e-04
635	2.802856e-04
636	2.802856e-04
637	2.802856e-04
638	2.800852e-04
639	2.800852e-04
640	2.800852e-04
641	2.766823e-04
642	2.766823e-04
643	2.766823e-04
644	2.765930e-04
645	2.712475e-04
646	2.712475e-04
647	2.712475e-04
648	2.712475e-04
649	2.712475e-04
650	2.712475e-04
651	2.712475e-04
652	2.712475e-04
653	2.712475e-04
654	2.712475e-04
655	2.712475e-04
656	2.712475e-04
657	2.712475e-04
658	2.712475e-04
659	2.712475e-04
660	2.712475e-04
661	2.712475e-04
662	2.712475e-04
663	2.712475e-04
664	2.712475e-04
665	2.712475e-04
666	2.712475e-04
667	2.712475e-04
668	2.712475e-04
669	2.712475e-04
670	2.526115e-04
671	2.526115e-04
672	2.526115e-04
673	2.526115e-04
674	2.526115e-04
675	2.526115e-04
676	2.526115e-04
677	2.526115e-04
678	2.526115e-04
679	2.526115e-04
680	2.526115e-04
681	2.526115e-04
682	2.526115e-04
683	2.526115e-04
684	2.526115e-04
685	2.526115e-04
686	2.526115e-04
687	2.526115e-04
688	2.526115e-04
689	2.526115e-04
690	2.526115e-04
691	2.526115e-04
692	2.526115e-04
693	2.526115e-04
694	2.526115e-04
695	2.526115e-04
696	2.526115e-04
697	2.526115e-04
698	2.526115e-04
699	2.526115e-04
700	2.526115e-04
701	2.526115e-04
702	2.510893e-04
703	2.510893e-04
704	2.510893e-04
705	2.510893e-04
706	2.510893e-04
707	2.510893e-04
708	2.510893e-04
709	2.510893e-04
710	2.510893e-04
711	2.510893e-04
712	2.504944e-04
713	2.504944e-04
714	2.504944e-04
715	2.504944e-04
716	2.504944e-04
717	2.504944e-04
718	2.504944e-04
719	2.501213e-04
720	2.501213e-04
721	2.501213e-04
722	2.485979e-04
723	2.485929e-04
724	2.485929e-04
725	2.485929e-04
726	2.485929e-04
727	2.485929e-04
728	2.485929e-04
729	2.485929e-04
730	2.485929e-04
731	2.485929e-04
732	2.484582e-04
733	2.484582e-04
734	2.484582e-04
735	2.484582e-04
736	2.484582e-04
737	2.484582e-04
738	2.484582e-04
739	2.483501e-04
740	2.483501e-04
741	2.478823e-04
742	2.477857e-04
743	2.477857e-04
744	2.477857e-04
745	2.477857e-04
746	2.477857e-04
747	2.477857e-04
748	2.477857e-04
749	2.477857e-04
750	2.477857e-04
751	2.477857e-04
752	2.477857e-04
753	2.477857e-04
754	2.477857e-04
755	2.477857e-04
756	2.477857e-04
757	2.477857e-04
758	2.477857e-04
759	2.477857e-04
760	2.477857e-04
761	2.477857e-04
762	2.471327e-04
763	2.471327e-04
764	2.408630e-04
765	2.408595e-04
766	2.408576e-04
767	2.408576e-04
768	2.408576e-04
769	2.408576e-04
770	2.408576e-04
771	2.408576e-04
772	2.408576e-04
773	2.408576e-04
774	2.408576e-04
775	2.408576e-04
776	2.408576e-04
777	2.408576e-04
778	2.408576e-04
779	2.408576e-04
780	2.408576e-04
781	2.408576e-04
782	2.408576e-04
783	2.408576e-04
784	2.408576e-04
785	2.408576e-04
786	2.404893e-04
787	2.404893e-04
788	2.404854e-04
789	2.404518e-04
790	2.404518e-04
791	2.404518e-04
792	2.404518e-04
793	2.404518e-04
794	2.404518e-04
795	2.404518e-04
796	2.404518e-04
797	2.404518e-04
798	2.404518e-04
799	2.404518e-04
800	2.404518e-04
801	2.404518e-04
802	2.404518e-04
803	2.399486e-04
804	2.284576e-04
805	2.284576e-04
806	2.284576e-04
807	2.284576e-04
808	2.284576e-04
809	2.284576e-04
810	2.284576e-04
811	2.284576e-04
812	2.284576e-04
813	2.284576e-04
814	2.284576e-04
815	2.284576e-04
816	2.284576e-04
817	2.284576e-04
818	2.284576e-04
819	2.284576e-04
820	2.284576e-04
821	2.284576e-04
822	2.284576e-04
823	2.284576e-04
824	2.284516e-04
825	2.284516e-04
826	2.284516e-04
827	2.284515e-04
828	2.284515e-04
829	2.284512e-04
830	2.284512e-04
831	2.283621e-04
832	2.283621e-04
833	2.283621e-04
834	2.283621e-04
835	2.283621e-04
836	2.279061e-04
837	2.279061e-04
838	2.279061e-04
839	2.279061e-04
840	2.279061e-04
841	2.279061e-04
842	2.279061e-04
843	2.279061e-04
844	2.279061e-04
845	2.279061e-04
846	2.279061e-04
847	2.279061e-04
848	2.279061e-04
849	2.279061e-04
850	2.279061e-04
851	2.279061e-04
852	2.279061e-04
853	2.279061e-04
854	2.279061e-04
855	2.279061e-04
856	2.279061e-04
857	2.279061e-04
858	2.279061e-04
859	2.279061e-04
860	2.279061e-04
861	2.279061e-04
862	2.279061e-04
863	2.279061e-04
864	2.279061e-04
865	2.279061e-04
866	2.278757e-04
867	2.275251e-04
868	2.275251e-04
869	2.275251e-04
870	2.271225e-04
871	2.172308e-04
872	2.172256e-04
873	2.172256e-04
874	2.171871e-04
875	2.171871e-04
876	2.171871e-04
877	2.170832e-04
878	2.170832e-04
879	2.170832e-04
880	2.170832e-04
881	2.170832e-04
882	2.170832e-04
883	2.170812e-04
884	2.170812e-04
885	2.170812e-04
886	2.170739e-04
887	2.170739e-04
888	2.170597e-04
889	2.170595e-04
890	2.170595e-04
891	2.170595e-04
892	2.170595e-04
893	2.162573e-04
894	2.160742e-04
895	2.160741e-04
896	2.160741e-04
897	2.159738e-04
898	2.159738e-04
899	2.159738e-04
900	2.159738e-04
901	2.159738e-04
902	2.159733e-04
903	2.159732e-04
904	2.159731e-04
905	2.159727e-04
906	2.159727e-04
907	2.156693e-04
908	2.156693e-04
909	2.156693e-04
910	2.156693e-04
911	2.156693e-04
912	2.156693e-04
913	2.156435e-04
914	2.156372e-04
915	2.156372e-04
916	2.156369e-04
917	2.156369e-04
918	2.156354e-04
919	2.156354e-04
920	2.156354e-04
921	2.156354e-04
922	2.156345e-04
923	2.146477e-04
924	2.146477e-04
925	2.146477e-04
926	2.146477e-04
927	2.146477e-04
928	2.146477e-04
929	2.146477e-04
930	2.146477e-04
931	2.146477e-04
932	2.146477e-04
933	2.146477e-04
934	2.146477e-04
935	2.146477e-04
936	2.146458e-04
937	2.142786e-04
938	2.114751e-04
939	2.114750e-04
940	2.114750e-04
941	2.114750e-04
942	2.114750e-04
943	2.114750e-04
944	2.114750e-04
945	2.114750e-04
946	2.114750e-04
947	2.114750e-04
948	2.114750e-04
949	2.114750e-04
950	2.114750e-04
951	2.114750e-04
952	2.114750e-04
953	2.114750e-04
954	2.114516e-04
955	2.114516e-04
956	2.114516e-04
957	2.113289e-04
958	2.113289e-04
959	2.113289e-04
960	2.113289e-04
961	2.113289e-04
962	2.113289e-04
963	2.113289e-04
964	2.113289e-04
965	2.113289e-04
966	2.113289e-04
967	2.113289e-04
968	2.113289e-04
969	2.113289e-04
970	2.113289e-04
971	2.113289e-04
972	2.113289e-04
973	2.113289e-04
974	2.113289e-04
975	2.113289e-04
976	2.113289e-04
977	2.113289e-04
978	2.112099e-04
979	2.112099e-04
980	2.112099e-04
981	2.112099e-04
982	2.112099e-04
983	2.112099e-04
984	2.112099e-04
985	2.108825e-04
986	2.108825e-04
987	2.108825e-04
988	2.108825e-04
989	2.047447e-04
990	2.027207e-04
991	2.027207e-04
992	2.027207e-04
993	2.027207e-04
994	2.027207e-04
995	2.027207e-04
996	1.839927e-04
997	1.839927e-04
998	1.839927e-04
999	1.839927e-04
1000	1.839927e-04
1001	1.839927e-04
1002	1.839927e-04
1003	1.839927e-04
1004	1.839927e-04
1005	1.839927e-04
1006	1.839927e-04
1007	1.839927e-04
1008	1.839927e-04
1009	1.839927e-04
1010	1.839927e-04
1011	1.839927e-04
1012	1.839927e-04
1013	1.839927e-04
1014	1.839927e-04
1015	1.839927e-04
1016	1.839927e-04
1017	1.839927e-04
1018	1.839517e-04
1019	1.839517e-04
1020	1.839517e-04
1021	1.839517e-04
1022	1.839517e-04
1023	1.839517e-04
1024	1.839517e-04
1025	1.839517e-04
1026	1.821773e-04
1027	1.821767e-04
1028	1.815671e-04
1029	1.815671e-04
1030	1.815671e-04
1031	1.775726e-04
1032	1.766181e-04
1033	1.747105e-04
1034	1.747105e-04
1035	1.649073e-04
1036	1.591463e-04
1037	1.591463e-04
1038	1.591463e-04
1039	1.591463e-04
1040	1.591463e-04
1041	1.591463e-04
1042	1.591463e-04
1043	1.591463e-04
1044	1.591463e-04
1045	1.588549e-04
1046	1.588333e-04
1047	1.588326e-04
1048	1.588228e-04
1049	1.588228e-04
1050	1.587804e-04
1051	1.587804e-04
1052	1.587804e-04
1053	1.587804e-04
1054	1.587804e-04
1055	1.587804e-04
1056	1.587804e-04
1057	1.587804e-04
1058	1.529252e-04
1059	1.514868e-04
1060	1.514072e-04
1061	1.512138e-04
1062	1.506035e-04
1063	1.506035e-04
1064	1.502044e-04
1065	1.502043e-04
1066	1.501918e-04
1067	1.501917e-04
1068	1.501917e-04
1069	1.501415e-04
1070	1.501415e-04
1071	1.501415e-04
1072	1.501415e-04
1073	1.501415e-04
1074	1.501415e-04
1075	1.501415e-04
1076	1.501415e-04
1077	1.501415e-04
1078	1.498361e-04
1079	1.498361e-04
1080	1.498361e-04
1081	1.498361e-04
1082	1.498361e-04
1083	1.498361e-04
1084	1.498361e-04
1085	1.498361e-04
1086	1.498361e-04
1087	1.498361e-04
1088	1.498361e-04
1089	1.498361e-04
1090	1.498361e-04
1091	1.498361e-04
1092	1.498361e-04
1093	1.498361e-04
1094	1.498361e-04
1095	1.498361e-04
1096	1.498361e-04
1097	1.498361e-04
1098	1.498361e-04
1099	1.498361e-04
1100	1.498361e-04
1101	1.498361e-04
1102	1.493974e-04
1103	1.493974e-04
1104	1.493974e-04
1105	1.493867e-04
1106	1.493864e-04
1107	1.493864e-04
1108	1.493864e-04
1109	1.493864e-04
1110	1.493864e-04
1111	1.493864e-04
1112	1.493864e-04
1113	1.493864e-04
1114	1.493864e-04
1115	1.493864e-04
1116	1.493864e-04
1117	1.493864e-04
1118	1.493864e-04
1119	1.493864e-04
1120	1.493864e-04
1121	1.493864e-04
1122	1.493864e-04
1123	1.493864e-04
1124	1.493864e-04
1125	1.493864e-04
1126	1.493864e-04
1127	1.493864e-04
1128	1.397103e-04
1129	1.393094e-04
1130	1.393094e-04
1131	1.393094e-04
1132	1.393094e-04
1133	1.393094e-04
1134	1.393094e-04
1135	1.393094e-04
1136	1.393094e-04
1137	1.393094e-04
1138	1.393094e-04
1139	1.393094e-04
1140	1.393094e-04
1141	1.393094e-04
1142	1.393094e-04
1143	1.393094e-04
1144	1.393094e-04
1145	1.393094e-04
1146	1.393094e-04
1147	1.393094e-04
1148	1.393094e-04
1149	1.393094e-04
1150	1.393094e-04
1151	1.393094e-04
1152	1.373271e-04
1153	1.373197e-04
1154	1.367928e-04
1155	1.367928e-04
1156	1.363104e-04
1157	1.363104e-04
1158	1.363104e-04
1159	1.363104e-04
1160	1.363104e-04
1161	1.363104e-04
1162	1.363104e-04
1163	1.363104e-04
1164	1.363104e-04
1165	1.363104e-04
1166	1.363104e-04
1167	1.363104e-04
1168	1.363104e-04
1169	1.363104e-04
1170	1.363104e-04
1171	1.363104e-04
1172	1.363104e-04
1173	1.363104e-04
1174	1.363104e-04
1175	1.363104e-04
1176	1.363104e-04
1177	1.363104e-04
1178	1.363104e-04
1179	1.363104e-04
1180	1.363104e-04
1181	1.363104e-04
1182	1.363104e-04
1183	1.363104e-04
1184	1.363104e-04
1185	1.363104e-04
1186	1.363104e-04
1187	1.363104e-04
1188	1.363104e-04
1189	1.363104e-04
1190	1.363104e-04
1191	1.363104e-04
1192	1.363104e-04
1193	1.363104e-04
1194	1.363104e-04
1195	1.363104e-04
1196	1.363104e-04
1197	1.363104e-04
1198	1.363104e-04
1199	1.363104e-04
1200	1.363104e-04
1201	1.363104e-04
1202	1.363104e-04
1203	1.363104e-04
1204	1.363104e-04
1205	1.363104e-04
1206	1.363104e-04
1207	1.363104e-04
1208	1.363104e-04
1209	1.363104e-04
1210	1.363104e-04
1211	1.363104e-04
1212	1.363104e-04
1213	1.363104e-04
1214	1.363104e-04
1215	1.363104e-04
1216	1.363104e-04
1217	1.363104e-04
1218	1.363104e-04
1219	1.363104e-04
1220	1.363104e-04
1221	1.363104e-04
1222	1.363104e-04
1223	1.363104e-04
1224	1.363104e-04
1225	1.363104e-04
1226	1.363104e-04
1227	1.363104e-04
1228	1.363104e-04
1229	1.363104e-04
1230	1.363104e-04
1231	1.359849e-04
1232	1.359786e-04
1233	1.359786e-04
1234	1.359786e-04
1235	1.359155e-04
1236	1.359155e-04
1237	1.359155e-04
1238	1.359155e-04
1239	1.359155e-04
1240	1.359155e-04
1241	1.359155e-04
1242	1.359155e-04
1243	1.359155e-04
1244	1.359155e-04
1245	1.359155e-04
1246	1.359155e-04
1247	1.304990e-04
1248	1.304990e-04
1249	1.304990e-04
1250	1.296713e-04
1251	1.296677e-04
1252	1.294394e-04
1253	1.294013e-04
1254	1.294013e-04
1255	1.294013e-04
1256	1.294013e-04
1257	1.286788e-04
1258	1.265870e-04
1259	1.265870e-04
1260	1.265870e-04
1261	1.265870e-04
1262	1.265870e-04
1263	1.265870e-04
1264	1.265870e-04
1265	1.265870e-04
1266	1.265870e-04
1267	1.265870e-04
1268	1.265870e-04
1269	1.265870e-04
1270	1.265870e-04
1271	1.265870e-04
1272	1.265870e-04
1273	1.265870e-04
1274	1.265870e-04
1275	1.265870e-04
1276	1.265870e-04
1277	1.265870e-04
1278	1.265870e-04
1279	1.265870e-04
1280	1.265870e-04
1281	1.265870e-04
1282	1.265870e-04
1283	1.265870e-04
1284	1.265870e-04
1285	1.265870e-04
1286	1.265870e-04
1287	1.265870e-04
1288	1.260301e-04
1289	1.260293e-04
1290	1.260293e-04
1291	1.260293e-04
1292	1.260293e-04
1293	1.260293e-04
1294	1.245626e-04
1295	1.245626e-04
1296	1.245626e-04
1297	1.226406e-04
1298	1.226406e-04
1299	1.226406e-04
1300	1.226406e-04
1301	1.226406e-04
1302	1.226406e-04
1303	1.226406e-04
1304	1.226406e-04
1305	1.226406e-04
1306	1.226406e-04
1307	1.226406e-04
1308	1.226406e-04
1309	1.226406e-04
1310	1.226406e-04
1311	1.226406e-04
1312	1.226406e-04
1313	1.226406e-04
1314	1.226406e-04
1315	1.226406e-04
1316	1.226406e-04
1317	1.226406e-04
1318	1.226406e-04
1319	1.226406e-04
1320	1.226406e-04
1321	1.226406e-04
1322	1.226406e-04
1323	1.226406e-04
1324	1.226406e-04
1325	1.226406e-04
1326	1.223718e-04
1327	1.223651e-04
1328	1.222878e-04
1329	1.212587e-04
1330	1.212587e-04
1331	1.212587e-04
1332	1.212587e-04
1333	1.212587e-04
1334	1.212587e-04
1335	1.212587e-04
1336	1.212587e-04
1337	1.212587e-04
1338	1.212587e-04
1339	1.212587e-04
1340	1.212587e-04
1341	1.212587e-04
1342	1.212587e-04
1343	1.212587e-04
1344	1.212587e-04
1345	1.212587e-04
1346	1.212587e-04
1347	1.212587e-04
1348	1.211663e-04
1349	1.211663e-04
1350	1.211663e-04
1351	1.211663e-04
1352	1.211663e-04
1353	1.211663e-04
1354	1.211663e-04
1355	1.211663e-04
1356	1.211521e-04
1357	1.207840e-04
1358	1.207784e-04
1359	1.207784e-04
1360	1.207784e-04
1361	1.207784e-04
1362	1.207784e-04
1363	1.207784e-04
1364	1.207784e-04
1365	1.207784e-04
1366	1.207784e-04
1367	1.207784e-04
1368	1.207784e-04
1369	1.207784e-04
1370	1.207784e-04
1371	1.207784e-04
1372	1.207784e-04
1373	1.207784e-04
1374	1.207784e-04
1375	1.207784e-04
1376	1.207784e-04
1377	1.207784e-04
1378	8.990934e-05
Solution time:	1.955260e+02
