LOSCx_LDLT...
1	1.000017e+00
2	1.000072e+00
3	1.000089e+00
4	1.000082e+00
5	1.000096e+00
6	1.000083e+00
7	1.000118e+00
8	1.000116e+00
9	1.000167e+00
10	1.000165e+00
11	1.000120e+00
12	1.000215e+00
13	1.000286e+00
14	1.000286e+00
15	1.000237e+00
16	1.000264e+00
17	1.000262e+00
18	1.000255e+00
19	1.000256e+00
20	1.000255e+00
21	1.000290e+00
22	1.000290e+00
23	1.000313e+00
24	1.000313e+00
25	1.000313e+00
26	1.004182e+00
27	1.001707e+00
28	1.000569e+00
29	1.000569e+00
30	1.000570e+00
31	1.000534e+00
32	1.000530e+00
33	1.000530e+00
34	1.000526e+00
35	1.000525e+00
36	1.000668e+00
37	1.000671e+00
38	1.000546e+00
39	1.000546e+00
40	1.000414e+00
41	1.000417e+00
42	1.000436e+00
43	1.000422e+00
44	1.000436e+00
45	1.000436e+00
46	1.000436e+00
47	1.000431e+00
48	1.000489e+00
49	1.000489e+00
50	1.000489e+00
51	1.000487e+00
52	1.000486e+00
53	1.000486e+00
54	1.000497e+00
55	1.000508e+00
56	1.000528e+00
57	1.000529e+00
58	1.000529e+00
59	1.000529e+00
60	1.000834e+00
61	1.000830e+00
62	1.000824e+00
63	1.000826e+00
64	1.000825e+00
65	1.000890e+00
66	1.000874e+00
67	1.000872e+00
68	1.000743e+00
69	1.000752e+00
70	1.000751e+00
71	1.000750e+00
72	1.000750e+00
73	1.000751e+00
74	1.000750e+00
75	1.000753e+00
76	1.000754e+00
77	1.000753e+00
78	1.000709e+00
79	1.000710e+00
80	1.000801e+00
81	1.000803e+00
82	1.000803e+00
83	1.000918e+00
84	1.001970e+00
85	1.001432e+00
86	1.001436e+00
87	1.001435e+00
88	1.001435e+00
89	1.001433e+00
90	1.001433e+00
91	1.001458e+00
92	1.001043e+00
93	1.001061e+00
94	1.001061e+00
95	1.001069e+00
96	1.001059e+00
97	1.001118e+00
98	1.001118e+00
99	1.001118e+00
100	1.001106e+00
101	1.001105e+00
102	1.001218e+00
103	1.001227e+00
104	1.001240e+00
105	1.001235e+00
106	1.001045e+00
107	1.001045e+00
108	1.001045e+00
109	1.001044e+00
110	1.001046e+00
111	1.000760e+00
112	1.000753e+00
113	1.001114e+00
114	1.001129e+00
115	1.001051e+00
116	1.001051e+00
117	1.001051e+00
118	1.001051e+00
119	1.001102e+00
120	1.001105e+00
121	1.001105e+00
122	1.001104e+00
123	1.001104e+00
124	1.001120e+00
125	1.001120e+00
126	1.001120e+00
127	1.001120e+00
128	1.001120e+00
129	1.001120e+00
130	1.001089e+00
131	1.001114e+00
132	1.001114e+00
133	1.001151e+00
134	1.001877e+00
135	1.001873e+00
136	1.001872e+00
137	1.001870e+00
138	1.001871e+00
139	1.001852e+00
140	1.002207e+00
141	1.002287e+00
142	1.002454e+00
143	1.002362e+00
144	1.002864e+00
145	1.002853e+00
146	1.003172e+00
147	1.003888e+00
148	1.004013e+00
149	1.003130e+00
150	1.003135e+00
151	1.003136e+00
152	1.004083e+00
153	1.004224e+00
154	1.004215e+00
155	1.004215e+00
156	1.004208e+00
157	1.004202e+00
158	1.004202e+00
159	1.004217e+00
160	1.000608e+00
161	1.000608e+00
162	1.000608e+00
163	1.000608e+00
164	1.000608e+00
165	1.000608e+00
166	1.000608e+00
167	1.000608e+00
168	1.000608e+00
169	1.000606e+00
170	1.000625e+00
171	1.000615e+00
172	1.020288e+00
173	1.036750e+00
174	1.036379e+00
175	1.021429e+00
176	1.019254e+00
177	1.019110e+00
178	1.019127e+00
179	1.019105e+00
180	1.017520e+00
181	1.017517e+00
182	1.019058e+00
183	1.019067e+00
184	1.020394e+00
185	1.020669e+00
186	1.020583e+00
187	1.014300e+00
188	1.014538e+00
189	1.014045e+00
190	1.013855e+00
191	1.010051e+00
192	1.012332e+00
193	1.012535e+00
194	1.011228e+00
195	1.010494e+00
196	1.008388e+00
197	1.008432e+00
198	1.018751e+00
199	1.018726e+00
200	1.012854e+00
201	1.012306e+00
202	1.012555e+00
203	1.012646e+00
204	1.012627e+00
205	1.014138e+00
206	1.013608e+00
207	1.011970e+00
208	1.011731e+00
209	1.011731e+00
210	1.009059e+00
211	1.009121e+00
212	1.008890e+00
213	1.012808e+00
214	1.012800e+00
215	1.012587e+00
216	1.012836e+00
217	1.012808e+00
218	1.018014e+00
219	1.021502e+00
220	1.021505e+00
221	1.019215e+00
222	1.019224e+00
223	1.020309e+00
224	1.020215e+00
225	1.020192e+00
226	1.020648e+00
227	1.020456e+00
228	1.020018e+00
229	1.011167e+00
230	1.011188e+00
231	1.008666e+00
232	1.007936e+00
233	1.001086e+00
234	1.001095e+00
235	1.001094e+00
236	1.001095e+00
237	1.001091e+00
238	1.001091e+00
239	1.001092e+00
240	1.001103e+00
241	1.000994e+00
242	1.000980e+00
243	1.001025e+00
244	1.001026e+00
245	1.001032e+00
246	1.001035e+00
247	1.001009e+00
248	1.001004e+00
249	1.001004e+00
250	1.000993e+00
251	1.000997e+00
252	1.001020e+00
253	1.001082e+00
254	1.001082e+00
255	1.001082e+00
256	1.001084e+00
257	1.001082e+00
258	1.000830e+00
259	1.000520e+00
260	1.000520e+00
261	1.000520e+00
262	1.000520e+00
263	1.000520e+00
264	1.000570e+00
265	1.000520e+00
266	1.000519e+00
267	1.000520e+00
268	1.000520e+00
269	1.000516e+00
270	1.000516e+00
271	1.000516e+00
272	1.000516e+00
273	1.000516e+00
274	1.000516e+00
275	1.000516e+00
276	1.000516e+00
277	1.000516e+00
278	1.000516e+00
279	1.000516e+00
280	1.000516e+00
281	1.000516e+00
282	1.000515e+00
283	1.000515e+00
284	1.000515e+00
285	1.000515e+00
286	1.000516e+00
287	1.000516e+00
288	1.000520e+00
289	1.000520e+00
290	1.000520e+00
291	1.000520e+00
292	1.000520e+00
293	1.000520e+00
294	1.000519e+00
295	1.000519e+00
296	1.000519e+00
297	1.000516e+00
298	1.000542e+00
299	1.000542e+00
300	1.000512e+00
301	1.000512e+00
302	1.000513e+00
303	1.000513e+00
304	1.000513e+00
305	1.000513e+00
306	1.000514e+00
307	1.000514e+00
308	1.000516e+00
309	1.000513e+00
310	1.000539e+00
311	1.000537e+00
312	1.000536e+00
313	1.000539e+00
314	1.000540e+00
315	1.001035e+00
316	1.001325e+00
317	1.000920e+00
318	1.001121e+00
319	1.000810e+00
320	1.000846e+00
321	1.001904e+00
322	1.001920e+00
323	1.001872e+00
324	1.001870e+00
325	1.001900e+00
326	1.001959e+00
327	1.001992e+00
328	1.001992e+00
329	1.001992e+00
330	1.001992e+00
331	1.001991e+00
332	1.001991e+00
333	1.001991e+00
334	1.001992e+00
335	1.001998e+00
336	1.002000e+00
337	1.002000e+00
338	1.002276e+00
339	1.002276e+00
340	1.002276e+00
341	1.002276e+00
342	1.002276e+00
343	1.002276e+00
344	1.002275e+00
345	1.002274e+00
346	1.002278e+00
347	1.002236e+00
348	1.002233e+00
349	1.002403e+00
350	1.002102e+00
351	1.002335e+00
352	1.002336e+00
353	1.002309e+00
354	1.002739e+00
355	1.003473e+00
356	1.001030e+00
357	1.001030e+00
358	1.001032e+00
359	1.001048e+00
360	1.001063e+00
361	1.001051e+00
362	1.001058e+00
363	1.001058e+00
364	1.001058e+00
365	1.001059e+00
366	1.001058e+00
367	1.001055e+00
368	1.001056e+00
369	1.001051e+00
370	1.001366e+00
371	1.001370e+00
372	1.001328e+00
373	1.001341e+00
374	1.001341e+00
375	1.001341e+00
376	1.001353e+00
377	1.001276e+00
378	1.001276e+00
379	1.001281e+00
380	1.001350e+00
381	1.001349e+00
382	1.001354e+00
383	1.001362e+00
384	1.001364e+00
385	1.001363e+00
386	1.001363e+00
387	1.001375e+00
388	1.001282e+00
389	1.001317e+00
390	1.001318e+00
391	1.001319e+00
392	1.001320e+00
393	1.001321e+00
394	1.001321e+00
395	1.001318e+00
396	1.001318e+00
397	1.001321e+00
398	1.001321e+00
399	1.001321e+00
400	1.001321e+00
401	1.001331e+00
402	1.001331e+00
403	1.001334e+00
404	1.001336e+00
405	1.001330e+00
406	1.001330e+00
407	1.001329e+00
408	1.001328e+00
409	1.001333e+00
410	1.001332e+00
411	1.001331e+00
412	1.001332e+00
413	1.001332e+00
414	1.001332e+00
415	1.001332e+00
416	1.001332e+00
417	1.001333e+00
418	1.001331e+00
419	1.001331e+00
420	1.001331e+00
421	1.001331e+00
422	1.001331e+00
423	1.001331e+00
424	1.001331e+00
425	1.001324e+00
426	1.001324e+00
427	1.001342e+00
428	1.001338e+00
429	1.001745e+00
430	1.001748e+00
431	1.001703e+00
432	1.001702e+00
433	1.001703e+00
434	1.001703e+00
435	1.001709e+00
436	1.001709e+00
437	1.001644e+00
438	1.001656e+00
439	1.001662e+00
440	1.001627e+00
441	1.001607e+00
442	1.001606e+00
443	1.001606e+00
444	1.001607e+00
445	1.001607e+00
446	1.001607e+00
447	1.001602e+00
448	1.001602e+00
449	1.001602e+00
450	1.001601e+00
451	1.001598e+00
452	1.001605e+00
453	1.001605e+00
454	1.001605e+00
455	1.001605e+00
456	1.001629e+00
457	1.001749e+00
458	1.001739e+00
459	1.001788e+00
460	1.001920e+00
461	1.001853e+00
462	1.001853e+00
463	1.001854e+00
464	1.001854e+00
465	1.001854e+00
466	1.001854e+00
467	1.001854e+00
468	1.001855e+00
469	1.002198e+00
470	1.002131e+00
471	1.002454e+00
472	1.002456e+00
473	1.002447e+00
474	1.001623e+00
475	1.001643e+00
476	1.001274e+00
477	1.001346e+00
478	1.002472e+00
479	1.001600e+00
480	1.000700e+00
481	1.000700e+00
482	1.000700e+00
483	1.000700e+00
484	1.000700e+00
485	1.000890e+00
486	1.000893e+00
487	1.000893e+00
488	1.000893e+00
489	1.000928e+00
490	1.000924e+00
491	1.001007e+00
492	1.001013e+00
493	1.001011e+00
494	1.000981e+00
495	1.000980e+00
496	1.001077e+00
497	1.001064e+00
498	1.001044e+00
499	1.000823e+00
500	1.000822e+00
501	1.000822e+00
502	1.000821e+00
503	1.000823e+00
504	1.000823e+00
505	1.000811e+00
506	1.000824e+00
507	1.000830e+00
508	1.000828e+00
509	1.000844e+00
510	1.000831e+00
511	1.000831e+00
512	1.000831e+00
513	1.000830e+00
514	1.000830e+00
515	1.001062e+00
516	1.001062e+00
517	1.001062e+00
518	1.001070e+00
519	1.001109e+00
520	1.001793e+00
521	1.001578e+00
522	1.001533e+00
523	1.001567e+00
524	1.008758e+00
525	1.008999e+00
526	1.009045e+00
527	1.008783e+00
528	1.008792e+00
529	1.008850e+00
530	1.008761e+00
531	1.008619e+00
532	1.009106e+00
533	1.005251e+00
534	1.005250e+00
535	1.005142e+00
536	1.003934e+00
537	1.007209e+00
538	1.006431e+00
539	1.006682e+00
540	1.010538e+00
541	1.008564e+00
542	1.000648e+00
543	1.001101e+00
544	1.001104e+00
545	1.001144e+00
546	1.001171e+00
547	1.001195e+00
548	1.001191e+00
549	1.000874e+00
550	1.000880e+00
551	1.000870e+00
552	1.000874e+00
553	1.000874e+00
554	1.000874e+00
555	1.000888e+00
556	1.000888e+00
557	1.000887e+00
558	1.000887e+00
559	1.000888e+00
560	1.000888e+00
561	1.000888e+00
562	1.000888e+00
563	1.000888e+00
564	1.000885e+00
565	1.000885e+00
566	1.000885e+00
567	1.000885e+00
568	1.000885e+00
569	1.000885e+00
570	1.000882e+00
571	1.000885e+00
572	1.000883e+00
573	1.000880e+00
574	1.000878e+00
575	1.000878e+00
576	1.000878e+00
577	1.000878e+00
578	1.000878e+00
579	1.000878e+00
580	1.000878e+00
581	1.000878e+00
582	1.000880e+00
583	1.000891e+00
584	1.000895e+00
585	1.000895e+00
586	1.000910e+00
587	1.000910e+00
588	1.000911e+00
589	1.000911e+00
590	1.000911e+00
591	1.000911e+00
592	1.000911e+00
593	1.000911e+00
594	1.000911e+00
595	1.000911e+00
596	1.000911e+00
597	1.000911e+00
598	1.000912e+00
599	1.000912e+00
600	1.000911e+00
601	1.000911e+00
602	1.000911e+00
603	1.000905e+00
604	1.000905e+00
605	1.000905e+00
606	1.000905e+00
607	1.000905e+00
608	1.000905e+00
609	1.000905e+00
610	1.000905e+00
611	1.000935e+00
612	1.000935e+00
613	1.000927e+00
614	1.000928e+00
615	1.000941e+00
616	1.000942e+00
617	1.000942e+00
618	1.000942e+00
619	1.000943e+00
620	1.000941e+00
621	1.000827e+00
622	1.000827e+00
623	1.000827e+00
624	1.000834e+00
625	1.000834e+00
626	1.000824e+00
627	1.000822e+00
628	1.000891e+00
629	1.001150e+00
630	1.001320e+00
631	1.001360e+00
632	1.001337e+00
633	1.001232e+00
634	1.001232e+00
635	1.001252e+00
636	1.001245e+00
637	1.001208e+00
638	1.001212e+00
639	1.001223e+00
640	1.001223e+00
641	1.001274e+00
642	1.001279e+00
643	1.001280e+00
644	1.001272e+00
645	1.001273e+00
646	1.001266e+00
647	1.001253e+00
648	1.001253e+00
649	1.001253e+00
650	1.001263e+00
651	1.001278e+00
652	1.001602e+00
653	1.001443e+00
654	1.001325e+00
655	1.001250e+00
656	1.001198e+00
657	1.001231e+00
658	1.001231e+00
659	1.001231e+00
660	1.001265e+00
661	1.001265e+00
662	1.001266e+00
663	1.001266e+00
664	1.001266e+00
665	1.001266e+00
666	1.001266e+00
667	1.001265e+00
668	1.001265e+00
669	1.001265e+00
670	1.001265e+00
671	1.001266e+00
672	1.001266e+00
673	1.001265e+00
674	1.001359e+00
675	1.001401e+00
676	1.001205e+00
677	1.001260e+00
678	1.001260e+00
679	1.001260e+00
680	1.001388e+00
681	1.001290e+00
682	1.001113e+00
683	1.001150e+00
684	1.001162e+00
685	1.001162e+00
686	1.001440e+00
687	1.000984e+00
688	1.001509e+00
689	1.001523e+00
690	1.002947e+00
691	1.002166e+00
692	1.102255e+00
693	1.102759e+00
694	1.033262e+00
695	1.006309e+00
696	1.006357e+00
697	1.006336e+00
698	1.018272e+00
699	1.021051e+00
700	1.021123e+00
701	1.020641e+00
702	1.019326e+00
703	1.005314e+00
704	1.007532e+00
705	1.007489e+00
706	1.007487e+00
707	1.009197e+00
708	1.009232e+00
709	1.007090e+00
710	1.007825e+00
711	1.008006e+00
712	1.008051e+00
713	1.008064e+00
714	1.008058e+00
715	1.008057e+00
716	1.008033e+00
717	1.008034e+00
718	1.008107e+00
719	1.008106e+00
720	1.008869e+00
721	1.008609e+00
722	1.008259e+00
723	1.008318e+00
724	1.008330e+00
725	1.008328e+00
726	1.008349e+00
727	1.008413e+00
728	1.008330e+00
729	1.008329e+00
730	1.008324e+00
731	1.008324e+00
732	1.008307e+00
733	1.008309e+00
734	1.008314e+00
735	1.008323e+00
736	1.008333e+00
737	1.008336e+00
738	1.008336e+00
739	1.008365e+00
740	1.008366e+00
741	1.008366e+00
742	1.008877e+00
743	1.009738e+00
744	1.009747e+00
745	1.009582e+00
746	1.009584e+00
747	1.009585e+00
748	1.009585e+00
749	1.009511e+00
750	1.008905e+00
751	1.008999e+00
752	1.009005e+00
753	1.008955e+00
754	1.008909e+00
755	1.008958e+00
756	1.009002e+00
757	1.009046e+00
758	1.009037e+00
759	1.009035e+00
760	1.009062e+00
761	1.009034e+00
762	1.009034e+00
763	1.009045e+00
764	1.009052e+00
765	1.009253e+00
766	1.009252e+00
767	1.007865e+00
768	1.007859e+00
769	1.008929e+00
770	1.008673e+00
771	1.008758e+00
772	1.008798e+00
773	1.009551e+00
774	1.009291e+00
775	1.009612e+00
776	1.003389e+00
777	1.003348e+00
778	1.003372e+00
779	1.003361e+00
780	1.003762e+00
781	1.004044e+00
782	1.004343e+00
783	1.004408e+00
784	1.004353e+00
785	1.004145e+00
786	1.007945e+00
787	1.006888e+00
788	1.007703e+00
789	1.007749e+00
790	1.007477e+00
791	1.007477e+00
792	1.007538e+00
793	1.007539e+00
794	1.007616e+00
795	1.006441e+00
796	1.008909e+00
797	1.006056e+00
798	1.006053e+00
799	1.006002e+00
800	1.005878e+00
801	1.005843e+00
802	1.005213e+00
803	1.004814e+00
804	1.004814e+00
805	1.004814e+00
806	1.004812e+00
807	1.004813e+00
808	1.004814e+00
809	1.004810e+00
810	1.004808e+00
811	1.004812e+00
812	1.004811e+00
813	1.004813e+00
814	1.004813e+00
815	1.004814e+00
816	1.004814e+00
817	1.004813e+00
818	1.004813e+00
819	1.004812e+00
820	1.004810e+00
821	1.004810e+00
822	1.004810e+00
823	1.004811e+00
824	1.004811e+00
825	1.004545e+00
826	1.004538e+00
827	1.004539e+00
828	1.004250e+00
829	1.003897e+00
830	1.004154e+00
831	1.001897e+00
832	1.002407e+00
833	1.004979e+00
834	1.015866e+00
835	1.004074e+00
836	1.004750e+00
837	1.005297e+00
838	1.005289e+00
839	1.008815e+00
840	1.009638e+00
841	1.009537e+00
842	1.009512e+00
843	1.010328e+00
844	1.009855e+00
845	1.011357e+00
846	1.010455e+00
847	1.010514e+00
848	1.010989e+00
849	1.006874e+00
850	1.005532e+00
851	1.005681e+00
852	1.005691e+00
853	1.005733e+00
854	1.005733e+00
855	1.005733e+00
856	1.005733e+00
857	1.005740e+00
858	1.005819e+00
859	1.005828e+00
860	1.005829e+00
861	1.005831e+00
862	1.005843e+00
863	1.005048e+00
864	1.005059e+00
865	1.005056e+00
866	1.006098e+00
867	1.005995e+00
868	1.006022e+00
869	1.005311e+00
870	1.006081e+00
871	1.005940e+00
872	1.006112e+00
873	1.005944e+00
874	1.005944e+00
875	1.005934e+00
876	1.005936e+00
877	1.005958e+00
878	1.005973e+00
879	1.005992e+00
880	1.006613e+00
881	1.006515e+00
882	1.006491e+00
883	1.006577e+00
884	1.005778e+00
885	1.005707e+00
886	1.005715e+00
887	1.005753e+00
888	1.005761e+00
889	1.006371e+00
890	1.007441e+00
891	1.007438e+00
892	1.007442e+00
893	1.007444e+00
894	1.007411e+00
895	1.007337e+00
896	1.008247e+00
897	1.008341e+00
898	1.008369e+00
899	1.008371e+00
900	1.008544e+00
901	1.008547e+00
902	1.008617e+00
903	1.008625e+00
904	1.008632e+00
905	1.008634e+00
906	1.008664e+00
907	1.008594e+00
908	1.008639e+00
909	1.008337e+00
910	1.015675e+00
911	1.011893e+00
912	1.005620e+00
913	1.005221e+00
914	1.005245e+00
915	1.005247e+00
916	1.005128e+00
917	1.005357e+00
918	1.005261e+00
919	1.005349e+00
920	1.005485e+00
921	1.005325e+00
922	1.005231e+00
923	1.005230e+00
924	1.005224e+00
925	1.005177e+00
926	1.005177e+00
927	1.005257e+00
928	1.005238e+00
929	1.005239e+00
930	1.004165e+00
931	1.005563e+00
932	1.005552e+00
933	1.005877e+00
934	1.004000e+00
935	1.003928e+00
936	1.003928e+00
937	1.003929e+00
938	1.003883e+00
939	1.003830e+00
940	1.003855e+00
941	1.003778e+00
942	1.003778e+00
943	1.003778e+00
944	1.003345e+00
945	1.003647e+00
946	1.003647e+00
947	1.003694e+00
948	1.003695e+00
949	1.003694e+00
950	1.003762e+00
951	1.003769e+00
952	1.003776e+00
953	1.003741e+00
954	1.004223e+00
955	1.003886e+00
956	1.003940e+00
957	1.004021e+00
958	1.004022e+00
959	1.004022e+00
960	1.004022e+00
961	1.004022e+00
962	1.004044e+00
963	1.004052e+00
964	1.004053e+00
965	1.004053e+00
966	1.004079e+00
967	1.004081e+00
968	1.004081e+00
969	1.004069e+00
970	1.004068e+00
971	1.004028e+00
972	1.004145e+00
973	1.004120e+00
974	1.004091e+00
975	1.004091e+00
976	1.004091e+00
977	1.004091e+00
978	1.004091e+00
979	1.004100e+00
980	1.004104e+00
981	1.004104e+00
982	1.004104e+00
983	1.004075e+00
984	1.004059e+00
985	1.003998e+00
986	1.003999e+00
987	1.003997e+00
988	1.004008e+00
989	1.003967e+00
990	1.003967e+00
991	1.003967e+00
992	1.003968e+00
993	1.003968e+00
994	1.003968e+00
995	1.003997e+00
996	1.004035e+00
997	1.004037e+00
998	1.004037e+00
999	1.004037e+00
1000	1.004037e+00
1001	1.004043e+00
1002	1.004043e+00
1003	1.004040e+00
1004	1.004039e+00
1005	1.004038e+00
1006	1.004087e+00
1007	1.004086e+00
1008	1.004088e+00
1009	1.004088e+00
1010	1.004088e+00
1011	1.004091e+00
1012	1.004092e+00
1013	1.004091e+00
1014	1.004093e+00
1015	1.004112e+00
1016	1.003799e+00
1017	1.003765e+00
1018	1.003765e+00
1019	1.003766e+00
1020	1.003759e+00
1021	1.003752e+00
1022	1.003710e+00
1023	1.003725e+00
1024	1.003725e+00
1025	1.003713e+00
1026	1.003714e+00
1027	1.003716e+00
1028	1.003723e+00
1029	1.003724e+00
1030	1.003725e+00
1031	1.003725e+00
1032	1.003725e+00
1033	1.003724e+00
1034	1.003724e+00
1035	1.003723e+00
1036	1.003722e+00
1037	1.003723e+00
1038	1.003703e+00
1039	1.003703e+00
1040	1.003705e+00
1041	1.003579e+00
1042	1.003582e+00
1043	1.003590e+00
1044	1.003558e+00
1045	1.003266e+00
1046	1.003264e+00
1047	1.003309e+00
1048	1.003310e+00
1049	1.003311e+00
1050	1.003309e+00
1051	1.003307e+00
1052	1.003333e+00
1053	1.003332e+00
1054	1.003332e+00
1055	1.003326e+00
1056	1.003217e+00
1057	1.003217e+00
1058	1.003215e+00
1059	1.003215e+00
1060	1.003213e+00
1061	1.003212e+00
1062	1.003213e+00
1063	1.003213e+00
1064	1.003213e+00
1065	1.003213e+00
1066	1.003234e+00
1067	1.003234e+00
1068	1.003253e+00
1069	1.003407e+00
1070	1.003413e+00
1071	1.002773e+00
1072	1.002727e+00
1073	1.002728e+00
1074	1.002728e+00
1075	1.002665e+00
1076	1.002708e+00
1077	1.002696e+00
1078	1.002690e+00
1079	1.002689e+00
1080	1.002643e+00
1081	1.002643e+00
1082	1.002645e+00
1083	1.002644e+00
1084	1.002191e+00
1085	1.001921e+00
1086	1.002445e+00
1087	1.002451e+00
1088	1.002470e+00
1089	1.002480e+00
1090	1.002463e+00
1091	1.004228e+00
1092	1.004222e+00
1093	1.004306e+00
1094	1.004312e+00
1095	1.004301e+00
1096	1.004300e+00
1097	1.004296e+00
1098	1.004248e+00
1099	1.004634e+00
1100	1.004644e+00
1101	1.004973e+00
1102	1.004379e+00
1103	1.004391e+00
1104	1.004390e+00
1105	1.004394e+00
1106	1.004394e+00
1107	1.004393e+00
1108	1.004253e+00
1109	1.004234e+00
1110	1.004227e+00
1111	1.004247e+00
1112	1.004254e+00
1113	1.004255e+00
1114	1.004255e+00
1115	1.004281e+00
1116	1.004232e+00
1117	1.004090e+00
1118	1.004089e+00
1119	1.004094e+00
1120	1.004091e+00
1121	1.004101e+00
1122	1.029004e+00
1123	1.028692e+00
1124	1.009990e+00
1125	1.008464e+00
1126	1.007865e+00
1127	1.007330e+00
1128	1.007284e+00
1129	1.007034e+00
1130	1.007318e+00
1131	1.007156e+00
1132	1.006543e+00
1133	1.005695e+00
1134	1.005802e+00
1135	1.003318e+00
1136	1.003631e+00
1137	1.003636e+00
1138	1.003623e+00
1139	1.003577e+00
1140	1.003499e+00
1141	1.003500e+00
1142	1.003500e+00
1143	1.003599e+00
1144	1.004978e+00
1145	1.004759e+00
1146	1.005234e+00
1147	1.005233e+00
1148	1.005233e+00
1149	1.005234e+00
1150	1.005187e+00
1151	1.005174e+00
1152	1.005178e+00
1153	1.005082e+00
1154	1.004355e+00
1155	1.004797e+00
1156	1.005710e+00
1157	1.005710e+00
1158	1.005712e+00
1159	1.005675e+00
1160	1.005676e+00
1161	1.005872e+00
1162	1.005904e+00
1163	1.005906e+00
1164	1.005906e+00
1165	1.005905e+00
1166	1.005902e+00
1167	1.006239e+00
1168	1.006055e+00
1169	1.006049e+00
1170	1.006042e+00
1171	1.005445e+00
1172	1.006875e+00
1173	1.004524e+00
1174	1.004501e+00
1175	1.004499e+00
1176	1.004747e+00
1177	1.004590e+00
1178	1.004122e+00
1179	1.007657e+00
1180	1.007659e+00
1181	1.007463e+00
1182	1.007463e+00
1183	1.007470e+00
1184	1.007506e+00
1185	1.007472e+00
1186	1.007454e+00
1187	1.007477e+00
1188	1.007599e+00
1189	1.007550e+00
1190	1.007566e+00
1191	1.008034e+00
1192	1.008495e+00
1193	1.008469e+00
1194	1.008463e+00
1195	1.008486e+00
1196	1.007976e+00
1197	1.007976e+00
1198	1.008915e+00
1199	1.008892e+00
1200	1.008946e+00
1201	1.009009e+00
1202	1.008948e+00
1203	1.008948e+00
1204	1.008938e+00
1205	1.008938e+00
1206	1.009002e+00
1207	1.008967e+00
1208	1.008965e+00
1209	1.008965e+00
1210	1.008972e+00
1211	1.009066e+00
1212	1.009047e+00
1213	1.009100e+00
1214	1.008908e+00
1215	1.009020e+00
1216	1.009027e+00
1217	1.009024e+00
1218	1.004405e+00
1219	1.004891e+00
1220	1.004679e+00
1221	1.004658e+00
1222	1.004752e+00
1223	1.004767e+00
1224	1.004825e+00
1225	1.003425e+00
1226	1.006461e+00
1227	1.006594e+00
1228	1.004066e+00
1229	1.004068e+00
1230	1.004039e+00
1231	1.002301e+00
1232	1.002172e+00
1233	1.001855e+00
1234	1.001674e+00
1235	1.001704e+00
1236	1.001796e+00
1237	1.002389e+00
1238	1.002461e+00
1239	1.002478e+00
1240	1.003164e+00
1241	1.003152e+00
1242	1.003151e+00
1243	1.003273e+00
1244	1.003227e+00
1245	1.001542e+00
1246	1.001540e+00
1247	1.001551e+00
1248	1.001491e+00
1249	1.001488e+00
1250	1.001488e+00
1251	1.001509e+00
1252	1.001500e+00
1253	1.001389e+00
1254	1.001389e+00
1255	1.001417e+00
1256	1.001436e+00
1257	1.001436e+00
1258	1.001435e+00
1259	1.001400e+00
1260	1.001395e+00
1261	1.001453e+00
1262	1.001315e+00
1263	1.001204e+00
1264	1.001240e+00
1265	1.001253e+00
1266	1.001252e+00
1267	1.001252e+00
1268	1.001252e+00
1269	1.001252e+00
1270	1.001253e+00
1271	1.001253e+00
1272	1.001253e+00
1273	1.001247e+00
1274	1.001249e+00
1275	1.001266e+00
1276	1.001268e+00
1277	1.001268e+00
1278	1.001268e+00
1279	1.001268e+00
1280	1.001268e+00
1281	1.001268e+00
1282	1.001268e+00
1283	1.001268e+00
1284	1.001268e+00
1285	1.001268e+00
1286	1.001268e+00
1287	1.001268e+00
1288	1.001268e+00
1289	1.001268e+00
1290	1.001268e+00
1291	1.001268e+00
1292	1.001268e+00
1293	1.001268e+00
1294	1.001268e+00
1295	1.001268e+00
1296	1.001268e+00
1297	1.001268e+00
1298	1.001268e+00
1299	1.001268e+00
1300	1.001268e+00
1301	1.001268e+00
1302	1.001268e+00
1303	1.001268e+00
1304	1.001268e+00
1305	1.001268e+00
1306	1.001268e+00
1307	1.001268e+00
1308	1.001268e+00
1309	1.001267e+00
1310	1.001267e+00
1311	1.001271e+00
1312	1.001272e+00
1313	1.001272e+00
1314	1.001272e+00
1315	1.001271e+00
1316	1.001271e+00
1317	1.001264e+00
1318	1.001219e+00
1319	1.001225e+00
1320	1.001225e+00
1321	1.001225e+00
1322	1.001222e+00
1323	1.001222e+00
1324	1.001222e+00
1325	1.001222e+00
1326	1.001222e+00
1327	1.001222e+00
1328	1.001224e+00
1329	1.001223e+00
1330	1.001229e+00
1331	1.001232e+00
1332	1.001224e+00
1333	1.001223e+00
1334	1.001221e+00
1335	1.001221e+00
1336	1.001216e+00
1337	1.001217e+00
1338	1.001217e+00
1339	1.001218e+00
1340	1.001218e+00
1341	1.001213e+00
1342	1.001212e+00
1343	1.001246e+00
1344	1.001246e+00
1345	1.001246e+00
1346	1.001246e+00
1347	1.001246e+00
1348	1.001247e+00
1349	1.001247e+00
1350	1.001247e+00
1351	1.001243e+00
1352	1.001242e+00
1353	1.001239e+00
1354	1.001239e+00
1355	1.001239e+00
1356	1.001239e+00
1357	1.001238e+00
1358	1.001242e+00
1359	1.001241e+00
1360	1.001241e+00
1361	1.001241e+00
1362	1.001241e+00
1363	1.001241e+00
1364	1.001242e+00
1365	1.001242e+00
1366	1.001242e+00
1367	1.001242e+00
1368	1.001242e+00
1369	1.001242e+00
1370	1.001242e+00
1371	1.001242e+00
1372	1.001242e+00
1373	1.001242e+00
1374	1.001242e+00
1375	1.001242e+00
1376	1.001240e+00
1377	1.001240e+00
1378	1.001240e+00
1379	1.001240e+00
1380	1.001241e+00
1381	1.001244e+00
1382	1.001245e+00
1383	1.001245e+00
1384	1.001244e+00
1385	1.001244e+00
1386	1.001244e+00
1387	1.001244e+00
1388	1.001244e+00
1389	1.001244e+00
1390	1.001244e+00
1391	1.001244e+00
1392	1.001243e+00
1393	1.001244e+00
1394	1.001242e+00
1395	1.001240e+00
1396	1.001240e+00
1397	1.001238e+00
1398	1.001211e+00
1399	1.001214e+00
1400	1.001214e+00
1401	1.001215e+00
1402	1.001211e+00
1403	1.001210e+00
1404	1.001210e+00
1405	1.001207e+00
1406	1.001209e+00
1407	1.001210e+00
1408	1.001187e+00
1409	1.001173e+00
1410	1.001175e+00
1411	1.001175e+00
1412	1.001173e+00
1413	1.001169e+00
1414	1.001169e+00
1415	1.001169e+00
1416	1.001169e+00
1417	1.001172e+00
1418	1.001171e+00
1419	1.001172e+00
1420	1.001172e+00
1421	1.001172e+00
1422	1.001171e+00
1423	1.001176e+00
1424	1.001176e+00
1425	1.001176e+00
1426	1.001176e+00
1427	1.001169e+00
1428	1.001171e+00
1429	1.001172e+00
1430	1.001172e+00
1431	1.001172e+00
1432	1.001172e+00
1433	1.001172e+00
1434	1.001174e+00
1435	1.001174e+00
1436	1.001193e+00
1437	1.001373e+00
1438	1.001340e+00
1439	1.001338e+00
1440	1.001349e+00
1441	1.001322e+00
1442	1.001334e+00
1443	1.001334e+00
1444	1.001086e+00
1445	1.001117e+00
1446	1.001123e+00
1447	1.001120e+00
1448	1.001120e+00
1449	1.001121e+00
1450	1.001121e+00
1451	1.001121e+00
1452	1.001121e+00
1453	1.001121e+00
1454	1.001121e+00
1455	1.001121e+00
1456	1.001121e+00
1457	1.001121e+00
1458	1.001121e+00
1459	1.001121e+00
1460	1.001121e+00
1461	1.001121e+00
1462	1.001121e+00
1463	1.001121e+00
1464	1.001121e+00
1465	1.001121e+00
1466	1.001121e+00
1467	1.001121e+00
1468	1.001121e+00
1469	1.001123e+00
1470	1.001122e+00
1471	1.001122e+00
1472	1.001122e+00
1473	1.001122e+00
1474	1.001122e+00
1475	1.001122e+00
1476	1.001122e+00
1477	1.001123e+00
1478	1.001123e+00
1479	1.001123e+00
1480	1.001123e+00
1481	1.001123e+00
1482	1.001120e+00
1483	1.001121e+00
1484	1.001121e+00
1485	1.001121e+00
1486	1.001121e+00
1487	1.001121e+00
1488	1.001121e+00
1489	1.001121e+00
1490	1.001121e+00
1491	1.001122e+00
1492	1.001122e+00
1493	1.001122e+00
1494	1.001122e+00
1495	1.001122e+00
1496	1.001122e+00
1497	1.001122e+00
1498	1.001122e+00
1499	1.001122e+00
1500	1.001122e+00
1501	1.001122e+00
1502	1.001122e+00
1503	1.001122e+00
1504	1.001122e+00
1505	1.001122e+00
1506	1.001122e+00
1507	1.001122e+00
1508	1.001121e+00
1509	1.001121e+00
1510	1.001121e+00
1511	1.001121e+00
1512	1.001120e+00
1513	1.001119e+00
1514	1.001120e+00
1515	1.001120e+00
1516	1.001120e+00
1517	1.001120e+00
1518	1.001120e+00
1519	1.001121e+00
1520	1.001120e+00
1521	1.001120e+00
1522	1.001120e+00
1523	1.001120e+00
1524	1.001120e+00
1525	1.001120e+00
1526	1.001120e+00
1527	1.001120e+00
1528	1.001120e+00
1529	1.001120e+00
1530	1.001120e+00
1531	1.001119e+00
1532	1.001119e+00
1533	1.001119e+00
1534	1.001119e+00
1535	1.001119e+00
1536	1.001119e+00
1537	1.001119e+00
1538	1.001119e+00
1539	1.001119e+00
1540	1.001115e+00
1541	1.001114e+00
1542	1.001111e+00
1543	1.001110e+00
1544	1.001110e+00
1545	1.001110e+00
1546	1.001110e+00
1547	1.001110e+00
1548	1.001110e+00
1549	1.001110e+00
1550	1.001110e+00
1551	1.001110e+00
1552	1.001110e+00
1553	1.001110e+00
1554	1.001108e+00
1555	1.001108e+00
1556	1.001108e+00
1557	1.001108e+00
1558	1.001108e+00
1559	1.001104e+00
1560	1.001104e+00
1561	1.001104e+00
1562	1.001104e+00
1563	1.001104e+00
1564	1.001104e+00
1565	1.001103e+00
1566	1.001107e+00
1567	1.001109e+00
1568	1.001104e+00
1569	1.001104e+00
1570	1.001104e+00
1571	1.001104e+00
1572	1.001104e+00
1573	1.001106e+00
1574	1.001106e+00
1575	1.001106e+00
1576	1.001105e+00
1577	1.001106e+00
1578	1.001106e+00
1579	1.001106e+00
1580	1.001106e+00
1581	1.001106e+00
1582	1.001106e+00
1583	1.001106e+00
1584	1.001107e+00
1585	1.001098e+00
1586	1.001098e+00
1587	1.001098e+00
1588	1.001098e+00
1589	1.001098e+00
1590	1.001098e+00
1591	1.001098e+00
1592	1.001098e+00
1593	1.001098e+00
1594	1.001098e+00
1595	1.001098e+00
1596	1.001098e+00
1597	1.001098e+00
1598	1.001098e+00
1599	1.001098e+00
1600	1.001098e+00
1601	1.001098e+00
1602	1.001094e+00
1603	1.001094e+00
1604	1.001094e+00
1605	1.001094e+00
1606	1.001094e+00
1607	1.001094e+00
1608	1.001094e+00
1609	1.001094e+00
1610	1.001094e+00
1611	1.001094e+00
1612	1.001094e+00
1613	1.001094e+00
1614	1.001094e+00
1615	1.001094e+00
1616	1.001094e+00
1617	1.001092e+00
1618	1.001095e+00
1619	1.001095e+00
1620	1.001095e+00
1621	1.001095e+00
1622	1.001095e+00
1623	1.001076e+00
1624	1.001076e+00
1625	1.001076e+00
1626	1.001076e+00
1627	1.001076e+00
1628	1.001076e+00
1629	1.001076e+00
1630	1.001076e+00
1631	1.001076e+00
1632	1.001076e+00
1633	1.001076e+00
1634	1.001076e+00
1635	1.001076e+00
1636	1.001076e+00
1637	1.001076e+00
1638	1.001076e+00
1639	1.001076e+00
1640	1.001084e+00
1641	1.001084e+00
1642	1.001080e+00
1643	1.001083e+00
1644	1.001082e+00
1645	1.001082e+00
1646	1.001072e+00
1647	1.001073e+00
1648	1.001073e+00
1649	1.001073e+00
1650	1.001073e+00
1651	1.001073e+00
1652	1.001073e+00
1653	1.001072e+00
1654	1.001074e+00
1655	1.001074e+00
1656	1.001074e+00
1657	1.001074e+00
1658	1.001074e+00
1659	1.001074e+00
1660	1.001074e+00
1661	1.001074e+00
1662	1.001074e+00
1663	1.001075e+00
1664	1.001075e+00
1665	1.001075e+00
1666	1.001076e+00
1667	1.001087e+00
1668	1.001086e+00
1669	1.001086e+00
1670	1.001086e+00
1671	1.001086e+00
1672	1.001086e+00
1673	1.001086e+00
1674	1.001087e+00
1675	1.001089e+00
1676	1.001089e+00
1677	1.001088e+00
1678	1.001087e+00
1679	1.001087e+00
1680	1.001087e+00
1681	1.001086e+00
1682	1.001083e+00
1683	1.001083e+00
1684	1.001080e+00
1685	1.001080e+00
1686	1.001080e+00
1687	1.001080e+00
1688	1.001081e+00
1689	1.001081e+00
1690	1.001081e+00
1691	1.001079e+00
1692	1.001079e+00
1693	1.001079e+00
1694	1.001079e+00
1695	1.001090e+00
1696	1.001107e+00
1697	1.001107e+00
1698	1.001107e+00
1699	1.001107e+00
1700	1.001107e+00
1701	1.001091e+00
1702	1.001080e+00
1703	1.001087e+00
1704	1.001099e+00
1705	1.001108e+00
1706	1.001098e+00
1707	1.001103e+00
1708	1.001109e+00
1709	1.001111e+00
1710	1.001115e+00
1711	1.001126e+00
1712	1.001119e+00
1713	1.001119e+00
1714	1.001078e+00
1715	1.001084e+00
1716	1.001080e+00
1717	1.001080e+00
1718	1.001079e+00
1719	1.001069e+00
1720	1.001074e+00
1721	1.001074e+00
1722	1.001107e+00
1723	1.001118e+00
1724	1.001130e+00
1725	1.001130e+00
1726	1.001130e+00
1727	1.001135e+00
1728	1.001129e+00
1729	1.001144e+00
1730	1.001120e+00
1731	1.001092e+00
1732	1.001090e+00
1733	1.001090e+00
1734	1.001090e+00
1735	1.001090e+00
1736	1.001096e+00
1737	1.001096e+00
1738	1.001096e+00
1739	1.001096e+00
1740	1.001096e+00
1741	1.001094e+00
1742	1.001094e+00
1743	1.001091e+00
1744	1.001069e+00
1745	1.001070e+00
1746	1.001072e+00
1747	1.001071e+00
1748	1.001073e+00
1749	1.001069e+00
1750	1.001069e+00
1751	1.001069e+00
1752	1.001069e+00
1753	1.001069e+00
1754	1.001069e+00
1755	1.001065e+00
1756	1.001087e+00
1757	1.001134e+00
1758	1.001112e+00
1759	1.001113e+00
1760	1.001113e+00
1761	1.001110e+00
1762	1.001110e+00
1763	1.001110e+00
1764	1.001110e+00
1765	1.001110e+00
1766	1.001110e+00
1767	1.001110e+00
1768	1.001110e+00
1769	1.001110e+00
1770	1.001110e+00
1771	1.001110e+00
1772	1.001109e+00
1773	1.001111e+00
1774	1.001111e+00
1775	1.001110e+00
1776	1.001110e+00
1777	1.001110e+00
1778	1.001110e+00
1779	1.001108e+00
1780	1.001104e+00
1781	1.001103e+00
1782	1.001089e+00
1783	1.001089e+00
1784	1.001089e+00
1785	1.001089e+00
1786	1.001089e+00
1787	1.001087e+00
1788	1.001087e+00
1789	1.001087e+00
1790	1.001087e+00
1791	1.001087e+00
1792	1.001087e+00
1793	1.001087e+00
1794	1.001066e+00
1795	1.001060e+00
1796	1.001060e+00
1797	1.001060e+00
1798	1.001060e+00
1799	1.001060e+00
1800	1.001060e+00
1801	1.001060e+00
1802	1.001060e+00
1803	1.001060e+00
1804	1.001056e+00
1805	1.001056e+00
1806	1.001063e+00
1807	1.001063e+00
1808	1.001064e+00
1809	1.001064e+00
1810	1.001063e+00
1811	1.001089e+00
1812	1.001085e+00
1813	1.001077e+00
1814	1.001073e+00
1815	1.001073e+00
1816	1.001073e+00
1817	1.001080e+00
1818	1.001079e+00
1819	1.001079e+00
1820	1.001079e+00
1821	1.001079e+00
1822	1.001079e+00
1823	1.001199e+00
1824	1.001196e+00
1825	1.001196e+00
1826	1.001195e+00
1827	1.001193e+00
1828	1.001193e+00
1829	1.001187e+00
1830	1.001187e+00
1831	1.001188e+00
1832	1.001188e+00
1833	1.001190e+00
1834	1.001188e+00
1835	1.001187e+00
1836	1.001185e+00
1837	1.001180e+00
1838	1.001182e+00
1839	1.001234e+00
1840	1.001209e+00
1841	1.001176e+00
1842	1.001176e+00
1843	1.001176e+00
1844	1.001176e+00
1845	1.001176e+00
1846	1.001176e+00
1847	1.001176e+00
1848	1.001176e+00
1849	1.001176e+00
1850	1.001176e+00
1851	1.001176e+00
1852	1.001176e+00
1853	1.001176e+00
1854	1.001176e+00
1855	1.001176e+00
1856	1.001176e+00
1857	1.001176e+00
1858	1.001176e+00
1859	1.001176e+00
1860	1.001176e+00
1861	1.001176e+00
1862	1.001176e+00
1863	1.001176e+00
1864	1.001176e+00
1865	1.001176e+00
1866	1.001176e+00
1867	1.001175e+00
1868	1.001167e+00
1869	1.001175e+00
1870	1.001175e+00
1871	1.001175e+00
1872	1.001175e+00
1873	1.001175e+00
1874	1.001175e+00
1875	1.001175e+00
1876	1.001175e+00
1877	1.001175e+00
1878	1.001175e+00
1879	1.001175e+00
1880	1.001175e+00
1881	1.001175e+00
1882	1.001175e+00
1883	1.001175e+00
1884	1.001175e+00
1885	1.001175e+00
1886	1.001175e+00
1887	1.001175e+00
1888	1.001175e+00
1889	1.001175e+00
1890	1.001175e+00
1891	1.001175e+00
1892	1.001175e+00
1893	1.001175e+00
1894	1.001175e+00
1895	1.001175e+00
1896	1.001175e+00
1897	1.001175e+00
1898	1.001175e+00
1899	1.001177e+00
1900	1.001177e+00
1901	1.001176e+00
1902	1.001177e+00
1903	1.001178e+00
1904	1.001179e+00
1905	1.001178e+00
1906	1.001225e+00
1907	1.001162e+00
1908	1.001128e+00
1909	1.001230e+00
1910	1.001218e+00
1911	1.001177e+00
1912	1.001184e+00
1913	1.001183e+00
1914	1.001184e+00
1915	1.001182e+00
1916	1.001181e+00
1917	1.001181e+00
1918	1.001172e+00
1919	1.001680e+00
1920	1.001592e+00
1921	1.001582e+00
1922	1.001534e+00
1923	1.001544e+00
1924	1.001452e+00
1925	1.001469e+00
1926	1.001466e+00
1927	1.001468e+00
1928	1.001410e+00
1929	1.001564e+00
1930	1.001348e+00
1931	1.003434e+00
1932	1.003333e+00
1933	1.021223e+00
1934	1.019238e+00
1935	1.019206e+00
1936	1.019242e+00
1937	1.009007e+00
1938	1.021573e+00
1939	1.130434e+00
1940	1.229117e+00
1941	1.121204e+00
1942	1.112302e+00
1943	1.115781e+00
1944	1.115556e+00
1945	1.111990e+00
1946	1.082339e+00
1947	1.081724e+00
1948	1.078934e+00
1949	1.075734e+00
1950	1.012444e+00
1951	1.009041e+00
1952	1.009156e+00
1953	1.008569e+00
1954	1.008821e+00
1955	1.010559e+00
1956	1.010815e+00
1957	1.010820e+00
1958	1.008802e+00
1959	1.016032e+00
1960	1.275877e+00
1961	1.282816e+00
1962	1.249303e+00
1963	1.249268e+00
1964	1.250143e+00
1965	1.250596e+00
1966	1.249723e+00
1967	1.254216e+00
1968	1.252476e+00
1969	1.248319e+00
1970	1.246892e+00
1971	1.246957e+00
1972	1.251426e+00
1973	1.249463e+00
1974	1.249471e+00
1975	1.213284e+00
1976	1.211350e+00
1977	1.214930e+00
1978	1.215325e+00
1979	1.226294e+00
1980	1.210120e+00
1981	1.210554e+00
1982	1.210495e+00
1983	1.210535e+00
1984	1.211627e+00
1985	1.211173e+00
1986	1.211257e+00
1987	1.202114e+00
1988	1.203706e+00
1989	1.203862e+00
1990	1.227216e+00
1991	1.311698e+00
1992	1.238723e+00
1993	1.239039e+00
1994	1.238789e+00
1995	1.238773e+00
1996	1.237662e+00
1997	1.237176e+00
1998	1.237188e+00
1999	1.222364e+00
2000	1.193285e+00
2001	1.192710e+00
2002	1.192541e+00
2003	1.191119e+00
2004	1.191067e+00
2005	1.189746e+00
2006	1.189651e+00
2007	1.189574e+00
2008	1.188917e+00
2009	1.189377e+00
2010	1.188560e+00
2011	1.189166e+00
2012	1.189316e+00
2013	1.181402e+00
2014	1.257383e+00
2015	1.262897e+00
2016	1.262371e+00
2017	1.264314e+00
2018	1.314282e+00
2019	1.314667e+00
2020	1.315193e+00
2021	1.317448e+00
2022	1.353650e+00
2023	1.480240e+00
2024	1.415179e+00
2025	1.545932e+00
2026	1.694529e+00
2027	1.691468e+00
2028	1.690912e+00
2029	1.691641e+00
2030	1.687159e+00
2031	1.684176e+00
2032	1.679066e+00
2033	1.678851e+00
2034	1.677527e+00
2035	1.677483e+00
2036	1.677559e+00
2037	1.677805e+00
2038	1.677699e+00
2039	1.677661e+00
2040	1.677679e+00
2041	1.675839e+00
2042	1.675745e+00
2043	1.897249e+00
2044	1.863113e+00
2045	1.863129e+00
2046	1.862813e+00
2047	1.863642e+00
2048	1.863463e+00
2049	1.863371e+00
2050	1.846277e+00
2051	1.956365e+00
2052	1.956913e+00
2053	1.953831e+00
2054	1.954757e+00
2055	1.955594e+00
2056	1.949092e+00
2057	1.949730e+00
2058	1.949923e+00
2059	1.950337e+00
2060	1.961285e+00
2061	1.961287e+00
2062	1.961205e+00
2063	1.961169e+00
2064	1.961136e+00
2065	1.961091e+00
2066	1.960775e+00
2067	1.960794e+00
2068	1.960793e+00
2069	1.987685e+00
2070	1.974233e+00
2071	1.947865e+00
2072	1.945779e+00
2073	1.945769e+00
2074	1.946160e+00
2075	1.946091e+00
2076	1.946107e+00
2077	1.945866e+00
2078	1.941379e+00
2079	1.939948e+00
2080	1.939569e+00
2081	1.941526e+00
2082	1.942484e+00
2083	1.939791e+00
2084	1.939966e+00
2085	1.940062e+00
2086	1.940096e+00
2087	1.941769e+00
2088	1.941709e+00
2089	1.941914e+00
2090	1.941532e+00
2091	1.948021e+00
2092	1.948676e+00
2093	1.948353e+00
2094	1.946291e+00
2095	1.959379e+00
2096	1.962372e+00
2097	1.962377e+00
2098	1.962874e+00
2099	1.962726e+00
2100	1.963508e+00
2101	1.960920e+00
2102	1.971429e+00
2103	1.970915e+00
2104	1.966713e+00
2105	1.965800e+00
2106	1.965809e+00
2107	1.948326e+00
2108	1.954408e+00
2109	2.072833e+00
2110	2.078800e+00
2111	2.078845e+00
2112	2.075407e+00
2113	2.078493e+00
2114	2.078497e+00
2115	2.078611e+00
2116	1.981386e+00
2117	1.943917e+00
2118	1.892449e+00
2119	1.918813e+00
2120	1.918727e+00
2121	1.919172e+00
2122	1.913843e+00
2123	1.915649e+00
2124	1.916229e+00
2125	1.915815e+00
2126	1.916462e+00
2127	1.916623e+00
2128	1.907566e+00
2129	2.016658e+00
2130	2.048816e+00
2131	2.049396e+00
2132	2.048628e+00
2133	2.048258e+00
2134	2.069325e+00
2135	1.941887e+00
2136	1.940104e+00
2137	1.715239e+00
2138	1.714052e+00
2139	1.714366e+00
2140	1.708616e+00
2141	1.702155e+00
2142	1.700422e+00
2143	1.698856e+00
2144	1.697109e+00
2145	1.742170e+00
2146	1.735286e+00
2147	1.922000e+00
2148	1.943681e+00
2149	1.946517e+00
2150	1.947693e+00
2151	1.948108e+00
2152	1.948690e+00
2153	1.948791e+00
2154	1.944518e+00
2155	1.943095e+00
2156	1.943700e+00
2157	1.943144e+00
2158	1.942903e+00
2159	1.938673e+00
2160	2.063696e+00
2161	2.075673e+00
2162	2.049961e+00
2163	2.076873e+00
2164	2.087426e+00
2165	2.087329e+00
2166	1.962638e+00
2167	1.907048e+00
2168	1.917241e+00
2169	1.918286e+00
2170	1.917463e+00
2171	1.914673e+00
2172	1.914129e+00
2173	1.905334e+00
2174	1.905378e+00
2175	1.905587e+00
2176	1.910389e+00
2177	1.910751e+00
2178	1.910608e+00
2179	1.910726e+00
2180	1.912237e+00
2181	1.912217e+00
2182	1.912302e+00
2183	1.912083e+00
2184	1.912386e+00
2185	1.911478e+00
2186	1.911460e+00
2187	1.912859e+00
2188	1.914933e+00
2189	1.909435e+00
2190	1.908032e+00
2191	1.907731e+00
2192	1.907711e+00
2193	1.967791e+00
2194	1.973554e+00
2195	1.973428e+00
2196	1.973167e+00
2197	1.972648e+00
2198	1.894352e+00
2199	1.898333e+00
2200	1.836214e+00
2201	1.765679e+00
2202	1.923259e+00
2203	1.923336e+00
2204	1.923141e+00
2205	1.922829e+00
2206	1.924945e+00
2207	1.926489e+00
2208	1.926049e+00
2209	1.926046e+00
2210	1.926002e+00
2211	1.926354e+00
2212	1.926342e+00
2213	1.926208e+00
2214	1.928812e+00
2215	1.928667e+00
2216	1.930448e+00
2217	1.931589e+00
2218	1.931764e+00
2219	1.937693e+00
2220	2.042854e+00
2221	2.034705e+00
2222	2.034335e+00
2223	2.034504e+00
2224	2.034508e+00
2225	2.034515e+00
2226	2.034494e+00
2227	2.029564e+00
2228	2.029542e+00
2229	2.029550e+00
2230	2.029654e+00
2231	2.029485e+00
2232	1.946715e+00
2233	1.945162e+00
2234	1.937621e+00
2235	1.938921e+00
2236	1.946349e+00
2237	1.944459e+00
2238	1.936669e+00
2239	1.909225e+00
2240	1.908384e+00
2241	2.171162e+00
2242	2.586143e+00
2243	2.403209e+00
2244	2.292070e+00
2245	1.813377e+00
2246	1.816908e+00
2247	1.308343e+00
2248	1.252100e+00
2249	1.254065e+00
2250	1.253312e+00
2251	1.252853e+00
2252	1.272719e+00
2253	1.332326e+00
2254	1.332312e+00
2255	1.332648e+00
2256	1.332726e+00
2257	1.333175e+00
2258	1.332792e+00
2259	1.332836e+00
2260	1.289605e+00
2261	1.291259e+00
2262	1.290845e+00
2263	1.290167e+00
2264	1.290005e+00
2265	1.286337e+00
2266	1.286469e+00
2267	1.286252e+00
2268	1.292352e+00
2269	1.291671e+00
2270	1.284442e+00
2271	1.287796e+00
2272	1.283911e+00
2273	1.283508e+00
2274	1.283815e+00
2275	1.284835e+00
2276	1.284819e+00
2277	1.287435e+00
2278	1.281672e+00
2279	1.177875e+00
2280	1.177200e+00
2281	1.177592e+00
2282	1.176203e+00
2283	1.235746e+00
2284	1.227249e+00
2285	1.221557e+00
2286	1.207102e+00
2287	1.201474e+00
2288	1.202391e+00
2289	1.189849e+00
2290	1.197443e+00
2291	1.159575e+00
2292	1.138865e+00
2293	1.139084e+00
2294	1.150470e+00
2295	1.206388e+00
2296	1.206209e+00
2297	1.206209e+00
2298	1.205277e+00
2299	1.206089e+00
2300	1.205867e+00
2301	1.205894e+00
2302	1.205954e+00
2303	1.205959e+00
2304	1.206158e+00
2305	1.206647e+00
2306	1.206465e+00
2307	1.206843e+00
2308	1.206925e+00
2309	1.206974e+00
2310	1.206826e+00
2311	1.222039e+00
2312	1.220825e+00
2313	1.263696e+00
2314	1.276993e+00
2315	1.476269e+00
2316	1.395650e+00
2317	1.150615e+00
2318	1.149490e+00
2319	1.150093e+00
2320	1.139357e+00
2321	1.083643e+00
2322	1.083656e+00
2323	1.083664e+00
2324	1.083648e+00
2325	1.085584e+00
2326	1.185447e+00
2327	1.123987e+00
2328	1.128090e+00
2329	1.136670e+00
2330	1.133493e+00
2331	1.133561e+00
2332	1.136168e+00
2333	1.155124e+00
2334	1.147993e+00
2335	1.148525e+00
2336	1.151627e+00
2337	1.211315e+00
2338	1.037973e+00
2339	1.037967e+00
2340	1.038408e+00
2341	1.038494e+00
2342	1.038462e+00
2343	1.038461e+00
2344	1.038459e+00
2345	1.038409e+00
2346	1.038402e+00
2347	1.038406e+00
2348	1.038425e+00
2349	1.038702e+00
2350	1.038717e+00
2351	1.036889e+00
2352	1.036918e+00
2353	1.037245e+00
2354	1.037516e+00
2355	1.037347e+00
2356	1.039198e+00
2357	1.039168e+00
2358	1.078301e+00
2359	1.055546e+00
2360	1.041416e+00
2361	1.042988e+00
2362	1.043948e+00
2363	1.044316e+00
2364	1.061739e+00
2365	1.061390e+00
2366	1.062147e+00
2367	1.062134e+00
2368	1.062480e+00
2369	1.062487e+00
2370	1.063145e+00
2371	1.061958e+00
2372	1.053517e+00
2373	1.053548e+00
2374	1.053528e+00
2375	1.053742e+00
2376	1.055382e+00
2377	1.055049e+00
2378	1.055298e+00
2379	1.063734e+00
2380	1.065915e+00
2381	1.065919e+00
2382	1.065919e+00
2383	1.065895e+00
2384	1.065899e+00
2385	1.068094e+00
2386	1.067903e+00
2387	1.068063e+00
2388	1.067607e+00
2389	1.070028e+00
2390	1.070105e+00
2391	1.069240e+00
2392	1.069563e+00
2393	1.069169e+00
2394	1.056859e+00
2395	1.056784e+00
2396	1.056779e+00
2397	1.054958e+00
2398	1.056287e+00
2399	1.056457e+00
2400	1.056772e+00
2401	1.054888e+00
2402	1.059667e+00
2403	1.059809e+00
2404	1.059828e+00
2405	1.059936e+00
2406	1.059967e+00
2407	1.058930e+00
2408	1.048637e+00
2409	1.059021e+00
2410	1.065751e+00
2411	1.065975e+00
2412	1.066007e+00
2413	1.066247e+00
2414	1.065958e+00
2415	1.064666e+00
2416	1.063701e+00
2417	1.062840e+00
2418	1.062901e+00
2419	1.062704e+00
2420	1.062636e+00
2421	1.061996e+00
2422	1.061800e+00
2423	1.061824e+00
2424	1.061832e+00
2425	1.061709e+00
2426	1.061071e+00
2427	1.061202e+00
2428	1.061193e+00
2429	1.061214e+00
2430	1.061227e+00
2431	1.061237e+00
2432	1.061323e+00
2433	1.061138e+00
2434	1.061310e+00
2435	1.061239e+00
2436	1.061182e+00
2437	1.060880e+00
2438	1.060828e+00
2439	1.060830e+00
2440	1.060845e+00
2441	1.060607e+00
2442	1.060608e+00
2443	1.060626e+00
2444	1.060594e+00
2445	1.060605e+00
2446	1.060618e+00
2447	1.060621e+00
2448	1.060619e+00
2449	1.060620e+00
2450	1.060613e+00
2451	1.060600e+00
2452	1.060623e+00
2453	1.061291e+00
2454	1.061271e+00
2455	1.061270e+00
2456	1.066307e+00
2457	1.066308e+00
2458	1.066292e+00
2459	1.065859e+00
2460	1.067861e+00
2461	1.067430e+00
2462	1.053317e+00
2463	1.052356e+00
2464	1.032380e+00
2465	1.031840e+00
2466	1.031880e+00
2467	1.031871e+00
2468	1.031881e+00
2469	1.027135e+00
2470	1.008943e+00
2471	1.009643e+00
2472	1.006496e+00
2473	1.005682e+00
2474	1.006090e+00
2475	1.006082e+00
2476	1.006072e+00
2477	1.006003e+00
2478	1.005880e+00
2479	1.006495e+00
2480	1.005096e+00
2481	1.005937e+00
2482	1.006880e+00
2483	1.006891e+00
2484	1.006890e+00
2485	1.007153e+00
2486	1.009101e+00
2487	1.006545e+00
2488	1.006562e+00
2489	1.006557e+00
2490	1.006325e+00
2491	1.006335e+00
2492	1.006314e+00
2493	1.006314e+00
2494	1.004441e+00
2495	1.004414e+00
2496	1.004415e+00
2497	1.004415e+00
2498	1.004417e+00
2499	1.004428e+00
2500	1.004347e+00
2501	1.004343e+00
2502	1.005441e+00
2503	1.004969e+00
2504	1.004884e+00
2505	1.004827e+00
2506	1.004831e+00
2507	1.004847e+00
2508	1.004845e+00
2509	1.004855e+00
2510	1.004833e+00
2511	1.004852e+00
2512	1.004769e+00
2513	1.004914e+00
2514	1.005052e+00
2515	1.005049e+00
2516	1.005054e+00
2517	1.005055e+00
2518	1.005067e+00
2519	1.005096e+00
2520	1.005091e+00
2521	1.005182e+00
2522	1.005147e+00
2523	1.005168e+00
2524	1.005170e+00
2525	1.005165e+00
2526	1.005165e+00
2527	1.005165e+00
2528	1.005177e+00
2529	1.005231e+00
2530	1.005232e+00
2531	1.005232e+00
2532	1.005234e+00
2533	1.005242e+00
2534	1.005243e+00
2535	1.005232e+00
2536	1.005036e+00
2537	1.005939e+00
2538	1.006018e+00
2539	1.006023e+00
2540	1.007281e+00
2541	1.007189e+00
2542	1.007171e+00
2543	1.007178e+00
2544	1.007176e+00
2545	1.007164e+00
2546	1.007579e+00
2547	1.007623e+00
2548	1.007551e+00
2549	1.005588e+00
2550	1.005473e+00
2551	1.005380e+00
2552	1.005380e+00
2553	1.005379e+00
2554	1.005832e+00
2555	1.005548e+00
2556	1.003713e+00
2557	1.004846e+00
2558	1.004805e+00
2559	1.004804e+00
2560	1.004855e+00
2561	1.004825e+00
2562	1.004511e+00
2563	1.004968e+00
2564	1.004994e+00
2565	1.004999e+00
2566	1.004988e+00
2567	1.007122e+00
2568	1.007177e+00
2569	1.007234e+00
2570	1.007224e+00
2571	1.005480e+00
2572	1.005068e+00
2573	1.005092e+00
2574	1.005109e+00
2575	1.005189e+00
2576	1.003499e+00
2577	1.003714e+00
2578	1.004052e+00
2579	1.008897e+00
2580	1.008964e+00
2581	1.004541e+00
2582	1.004531e+00
2583	1.004534e+00
2584	1.004534e+00
2585	1.004534e+00
2586	1.004507e+00
2587	1.004658e+00
2588	1.004659e+00
2589	1.004648e+00
2590	1.004789e+00
2591	1.004877e+00
2592	1.004879e+00
2593	1.004524e+00
2594	1.004619e+00
2595	1.004611e+00
2596	1.004567e+00
2597	1.004618e+00
2598	1.004614e+00
2599	1.004638e+00
2600	1.004679e+00
2601	1.004296e+00
2602	1.004080e+00
2603	1.003954e+00
2604	1.004217e+00
2605	1.007148e+00
2606	1.005426e+00
2607	1.003491e+00
2608	1.005565e+00
2609	1.005665e+00
2610	1.005516e+00
2611	1.005473e+00
2612	1.005422e+00
2613	1.007521e+00
2614	1.009269e+00
2615	1.009261e+00
2616	1.009241e+00
2617	1.009040e+00
2618	1.093211e+00
2619	1.092575e+00
2620	1.096530e+00
2621	1.095318e+00
2622	1.095136e+00
2623	1.095065e+00
2624	1.095071e+00
2625	1.095779e+00
2626	1.094551e+00
2627	1.094558e+00
2628	1.094662e+00
2629	1.094660e+00
2630	1.094652e+00
2631	1.094249e+00
2632	1.096678e+00
2633	1.096497e+00
2634	1.096563e+00
2635	1.096644e+00
2636	1.096797e+00
2637	1.096789e+00
2638	1.096779e+00
2639	1.133666e+00
2640	1.084198e+00
2641	1.083932e+00
2642	1.084306e+00
2643	1.082802e+00
2644	1.081807e+00
2645	1.084661e+00
2646	1.084140e+00
2647	1.082843e+00
2648	1.081131e+00
2649	1.081589e+00
2650	1.081560e+00
2651	1.081471e+00
2652	1.079533e+00
2653	1.063345e+00
2654	1.066463e+00
2655	1.063040e+00
2656	1.064831e+00
2657	1.064780e+00
2658	1.064635e+00
2659	1.064270e+00
2660	1.064269e+00
2661	1.068195e+00
2662	1.068509e+00
2663	1.067940e+00
2664	1.068328e+00
2665	1.060072e+00
2666	1.059992e+00
2667	1.071546e+00
2668	1.087977e+00
2669	1.061086e+00
2670	1.072069e+00
2671	1.071397e+00
2672	1.070553e+00
2673	1.070523e+00
2674	1.048196e+00
2675	1.050300e+00
2676	1.042707e+00
2677	1.049359e+00
2678	1.079923e+00
2679	1.072700e+00
2680	1.075876e+00
2681	1.075921e+00
2682	1.068479e+00
2683	1.055497e+00
2684	1.054160e+00
2685	1.054050e+00
2686	1.042502e+00
2687	1.042524e+00
2688	1.042611e+00
2689	1.042609e+00
2690	1.042489e+00
2691	1.042366e+00
2692	1.042342e+00
2693	1.042343e+00
2694	1.041869e+00
2695	1.041367e+00
2696	1.038860e+00
2697	1.038746e+00
2698	1.038761e+00
2699	1.038803e+00
2700	1.040544e+00
2701	1.038996e+00
2702	1.046156e+00
2703	1.063875e+00
2704	1.061111e+00
2705	1.061111e+00
2706	1.061254e+00
2707	1.061028e+00
2708	1.061036e+00
2709	1.061073e+00
2710	1.061081e+00
2711	1.061074e+00
2712	1.015693e+00
2713	1.017361e+00
2714	1.025542e+00
2715	1.027606e+00
2716	1.022757e+00
2717	1.086018e+00
2718	1.055099e+00
2719	1.529339e+00
2720	1.444589e+00
2721	1.432389e+00
2722	1.465312e+00
2723	1.454527e+00
2724	1.290203e+00
2725	1.290250e+00
2726	1.290253e+00
2727	1.290275e+00
2728	1.293435e+00
2729	1.286383e+00
2730	1.269928e+00
2731	1.269542e+00
2732	1.273354e+00
2733	1.204042e+00
2734	1.267852e+00
2735	1.267829e+00
2736	1.262393e+00
2737	1.262856e+00
2738	1.265838e+00
2739	1.261793e+00
2740	1.262154e+00
2741	2.011338e+00
2742	2.004960e+00
2743	2.005796e+00
2744	2.070615e+00
2745	2.138196e+00
2746	2.137441e+00
2747	2.075826e+00
2748	2.087577e+00
2749	2.280582e+00
2750	2.339666e+00
2751	2.356811e+00
2752	2.203860e+00
2753	2.232422e+00
2754	1.072249e+00
2755	1.108793e+00
2756	1.089278e+00
2757	1.124505e+00
2758	1.110645e+00
2759	1.120138e+00
2760	1.089705e+00
2761	1.087728e+00
2762	1.189981e+00
2763	1.191482e+00
2764	1.188801e+00
2765	1.189104e+00
2766	1.173609e+00
2767	1.174169e+00
2768	1.174191e+00
2769	1.174188e+00
2770	1.174079e+00
2771	1.173448e+00
2772	1.205957e+00
2773	1.205957e+00
2774	1.201488e+00
2775	1.302376e+00
2776	1.255907e+00
2777	1.252556e+00
2778	1.252476e+00
2779	1.273120e+00
2780	1.267235e+00
2781	1.267824e+00
2782	1.267706e+00
2783	1.267849e+00
2784	1.267878e+00
2785	1.267715e+00
2786	1.267760e+00
2787	1.267492e+00
2788	1.267261e+00
2789	1.267218e+00
2790	1.268274e+00
2791	1.268214e+00
2792	1.273930e+00
2793	1.277845e+00
2794	1.277551e+00
2795	1.277476e+00
2796	1.279439e+00
2797	1.278770e+00
2798	1.279746e+00
2799	1.279769e+00
2800	1.281473e+00
2801	1.214426e+00
2802	1.212797e+00
2803	1.212442e+00
2804	1.213117e+00
2805	1.213054e+00
2806	1.214353e+00
2807	1.213462e+00
2808	1.213599e+00
2809	1.213509e+00
2810	1.213513e+00
2811	1.213477e+00
2812	1.213195e+00
2813	1.210293e+00
2814	1.213265e+00
2815	1.208266e+00
2816	1.208890e+00
2817	1.318574e+00
2818	1.316069e+00
2819	1.521890e+00
2820	1.508960e+00
2821	1.526405e+00
2822	1.603929e+00
2823	1.627949e+00
2824	1.645083e+00
2825	1.598899e+00
2826	1.580857e+00
2827	1.575300e+00
2828	1.564800e+00
2829	1.508099e+00
2830	1.508244e+00
2831	1.507670e+00
2832	1.646411e+00
2833	2.044600e+00
2834	1.834732e+00
2835	1.954095e+00
2836	1.670797e+00
2837	1.630890e+00
2838	1.641710e+00
2839	1.812952e+00
2840	1.834411e+00
2841	1.905527e+00
2842	1.907339e+00
2843	3.308975e+00
2844	3.314241e+00
2845	3.302933e+00
2846	3.303281e+00
2847	3.459626e+00
2848	3.501400e+00
2849	3.474884e+00
2850	3.452668e+00
2851	3.478878e+00
2852	3.329252e+00
2853	3.348805e+00
2854	3.340939e+00
2855	3.631703e+00
2856	2.761799e+00
2857	2.678679e+00
2858	2.679042e+00
2859	2.679707e+00
2860	2.649790e+00
2861	2.639946e+00
2862	2.655215e+00
2863	2.651116e+00
2864	2.604412e+00
2865	2.657519e+00
2866	2.090760e+00
2867	2.248082e+00
2868	2.265726e+00
2869	2.246872e+00
2870	3.313243e+00
2871	3.469032e+00
2872	1.686521e+00
2873	1.927274e+00
2874	2.064331e+00
2875	2.059137e+00
2876	2.058681e+00
2877	2.024732e+00
2878	2.020786e+00
2879	1.087620e+00
2880	1.066678e+00
2881	1.066833e+00
2882	1.068488e+00
2883	1.080046e+00
2884	1.080111e+00
2885	1.110329e+00
2886	1.110899e+00
2887	1.111627e+00
2888	1.111653e+00
2889	1.111501e+00
2890	1.111521e+00
2891	1.110906e+00
2892	1.110870e+00
2893	1.110907e+00
2894	1.110908e+00
2895	1.111422e+00
2896	1.111432e+00
2897	1.111428e+00
2898	1.111684e+00
2899	1.111681e+00
2900	1.110658e+00
2901	1.110585e+00
2902	1.110650e+00
2903	1.110643e+00
2904	1.108893e+00
2905	1.109042e+00
2906	1.107350e+00
2907	1.108064e+00
2908	1.108065e+00
2909	1.108066e+00
2910	1.108074e+00
2911	1.108074e+00
2912	1.108075e+00
2913	1.107760e+00
2914	1.107493e+00
2915	1.107513e+00
2916	1.107535e+00
2917	1.106419e+00
2918	1.106513e+00
2919	1.107234e+00
2920	1.107254e+00
2921	1.105975e+00
2922	1.106034e+00
2923	1.105975e+00
2924	1.105905e+00
2925	1.106000e+00
2926	1.106075e+00
2927	1.106078e+00
2928	1.105075e+00
2929	1.105099e+00
2930	1.105070e+00
2931	1.105070e+00
2932	1.105076e+00
2933	1.105088e+00
2934	1.105086e+00
2935	1.105086e+00
2936	1.105331e+00
2937	1.105712e+00
2938	1.100159e+00
2939	1.102323e+00
2940	1.107351e+00
2941	1.103692e+00
2942	1.108451e+00
2943	1.108123e+00
2944	1.108518e+00
2945	1.108137e+00
2946	1.107787e+00
2947	1.108597e+00
2948	1.108649e+00
2949	1.108645e+00
2950	1.108637e+00
2951	1.112055e+00
2952	1.112321e+00
2953	1.112904e+00
2954	1.112251e+00
2955	1.112266e+00
2956	1.112264e+00
2957	1.112223e+00
2958	1.112047e+00
2959	1.112112e+00
2960	1.112110e+00
2961	1.112108e+00
2962	1.112109e+00
2963	1.112110e+00
2964	1.111731e+00
2965	1.111750e+00
2966	1.111750e+00
2967	1.111750e+00
2968	1.111746e+00
2969	1.111746e+00
2970	1.111734e+00
2971	1.111731e+00
2972	1.111733e+00
2973	1.111749e+00
2974	1.111550e+00
2975	1.111385e+00
2976	1.111385e+00
2977	1.111384e+00
2978	1.111380e+00
2979	1.111325e+00
2980	1.111359e+00
2981	1.111332e+00
2982	1.111330e+00
2983	1.111313e+00
2984	1.111312e+00
2985	1.111571e+00
2986	1.111383e+00
2987	1.111510e+00
2988	1.111505e+00
2989	1.111230e+00
2990	1.111129e+00
2991	1.111080e+00
2992	1.111293e+00
2993	1.111232e+00
2994	1.111180e+00
2995	1.111079e+00
2996	1.111834e+00
2997	1.112030e+00
2998	1.111967e+00
2999	1.111969e+00
3000	1.111963e+00
3001	1.111949e+00
3002	1.111907e+00
3003	1.111915e+00
3004	1.129614e+00
3005	1.120131e+00
3006	1.120143e+00
3007	1.120144e+00
3008	1.120143e+00
3009	1.120148e+00
3010	1.120129e+00
3011	1.120129e+00
3012	1.120129e+00
3013	1.120128e+00
3014	1.120173e+00
3015	1.120187e+00
3016	1.120182e+00
3017	1.120154e+00
3018	1.119634e+00
3019	1.119675e+00
3020	1.119678e+00
3021	1.119647e+00
3022	1.119658e+00
3023	1.119665e+00
3024	1.119652e+00
3025	1.119471e+00
3026	1.119562e+00
3027	1.119592e+00
3028	1.119862e+00
3029	1.119882e+00
3030	1.119871e+00
3031	1.119970e+00
3032	1.119518e+00
3033	1.119509e+00
3034	1.118390e+00
3035	1.118594e+00
3036	1.121881e+00
3037	1.122824e+00
3038	1.122346e+00
3039	1.120160e+00
3040	1.120067e+00
3041	1.120056e+00
3042	1.120019e+00
3043	1.119176e+00
3044	1.119345e+00
3045	1.119430e+00
3046	1.120239e+00
3047	1.118250e+00
3048	1.117560e+00
3049	1.117708e+00
3050	1.117602e+00
3051	1.115835e+00
3052	1.116062e+00
3053	1.115922e+00
3054	1.115899e+00
3055	1.117001e+00
3056	1.107632e+00
3057	1.107190e+00
3058	1.109855e+00
3059	1.109482e+00
3060	1.109494e+00
3061	1.098277e+00
3062	1.098644e+00
3063	1.104299e+00
3064	1.132240e+00
3065	1.067264e+00
3066	1.061748e+00
3067	1.061662e+00
3068	1.061795e+00
3069	1.048269e+00
3070	1.077571e+00
3071	1.077917e+00
3072	1.093401e+00
3073	1.074572e+00
3074	1.072976e+00
3075	1.072988e+00
3076	1.072997e+00
3077	1.069263e+00
3078	1.064579e+00
3079	1.064584e+00
3080	1.064597e+00
3081	1.055057e+00
3082	1.044875e+00
3083	1.043332e+00
3084	1.043305e+00
3085	1.043327e+00
3086	1.043309e+00
3087	1.043308e+00
3088	1.043167e+00
3089	1.041196e+00
3090	1.041080e+00
3091	1.041083e+00
3092	1.041083e+00
3093	1.041083e+00
3094	1.040920e+00
3095	1.047240e+00
3096	1.047265e+00
3097	1.046859e+00
3098	1.046489e+00
3099	1.046361e+00
3100	1.046249e+00
3101	1.046148e+00
3102	1.046224e+00
3103	1.046225e+00
3104	1.046225e+00
3105	1.046225e+00
3106	1.046225e+00
3107	1.046222e+00
3108	1.045960e+00
3109	1.045928e+00
3110	1.045962e+00
3111	1.045983e+00
3112	1.045331e+00
3113	1.045454e+00
3114	1.045444e+00
3115	1.044786e+00
3116	1.044742e+00
3117	1.045061e+00
3118	1.045103e+00
3119	1.044781e+00
3120	1.044781e+00
3121	1.044133e+00
3122	1.044106e+00
3123	1.044186e+00
3124	1.044165e+00
3125	1.043858e+00
3126	1.043858e+00
3127	1.043893e+00
3128	1.043893e+00
3129	1.043883e+00
3130	1.043895e+00
3131	1.043873e+00
3132	1.044546e+00
3133	1.044553e+00
3134	1.044551e+00
3135	1.044551e+00
3136	1.044550e+00
3137	1.044475e+00
3138	1.044593e+00
3139	1.044502e+00
3140	1.047787e+00
3141	1.047747e+00
3142	1.047756e+00
3143	1.047852e+00
3144	1.047914e+00
3145	1.047911e+00
3146	1.047952e+00
3147	1.050553e+00
3148	1.054060e+00
3149	1.078916e+00
3150	1.071162e+00
3151	1.082824e+00
3152	1.083046e+00
3153	1.088733e+00
3154	1.088631e+00
3155	1.093333e+00
3156	1.093231e+00
3157	1.093240e+00
3158	1.093371e+00
3159	1.091312e+00
3160	1.091482e+00
3161	1.091474e+00
3162	1.091626e+00
3163	1.126883e+00
3164	1.126317e+00
3165	1.111628e+00
3166	1.177840e+00
3167	1.171804e+00
3168	1.171188e+00
3169	1.171249e+00
3170	1.171136e+00
3171	1.172696e+00
3172	1.174128e+00
3173	1.174158e+00
3174	1.174845e+00
3175	1.243235e+00
3176	1.245215e+00
3177	1.249334e+00
3178	1.237967e+00
3179	1.236974e+00
3180	1.237280e+00
3181	1.206784e+00
3182	1.202620e+00
3183	1.202098e+00
3184	1.202107e+00
3185	1.201775e+00
3186	1.201616e+00
3187	1.209008e+00
3188	1.199009e+00
3189	1.194142e+00
3190	1.194590e+00
3191	1.208102e+00
3192	1.188352e+00
3193	1.174162e+00
3194	1.174456e+00
3195	1.174022e+00
3196	1.190092e+00
3197	1.148693e+00
3198	1.206815e+00
3199	1.207155e+00
3200	1.207616e+00
3201	1.218823e+00
3202	1.216790e+00
3203	1.218914e+00
3204	1.211845e+00
3205	1.198314e+00
3206	1.181373e+00
3207	1.194008e+00
3208	1.399416e+00
3209	1.399025e+00
3210	1.399045e+00
3211	1.399153e+00
3212	1.399144e+00
3213	1.399266e+00
3214	1.402103e+00
3215	1.402234e+00
3216	1.402375e+00
3217	1.394917e+00
3218	1.394886e+00
3219	1.395199e+00
3220	1.395443e+00
3221	1.396485e+00
3222	1.398102e+00
3223	1.398101e+00
3224	1.398050e+00
3225	1.398116e+00
3226	1.414390e+00
3227	1.414236e+00
3228	1.413112e+00
3229	1.416241e+00
3230	1.412247e+00
3231	1.413563e+00
3232	1.413857e+00
3233	1.413858e+00
3234	1.428992e+00
3235	1.373501e+00
3236	1.373160e+00
3237	1.373291e+00
3238	1.373305e+00
3239	1.372958e+00
3240	1.376164e+00
3241	1.382526e+00
3242	1.383447e+00
3243	1.383757e+00
3244	1.481952e+00
3245	1.488515e+00
3246	1.604745e+00
3247	1.011746e+00
3248	1.018197e+00
3249	1.018237e+00
3250	1.018242e+00
3251	1.018237e+00
3252	1.018287e+00
3253	1.018672e+00
3254	1.018672e+00
3255	1.018647e+00
3256	1.018526e+00
3257	1.018550e+00
3258	1.018538e+00
3259	1.018642e+00
3260	1.018209e+00
3261	1.018271e+00
3262	1.027498e+00
3263	1.026011e+00
3264	1.026111e+00
3265	1.026112e+00
3266	1.014941e+00
3267	1.021159e+00
3268	1.130698e+00
3269	1.131439e+00
3270	1.134124e+00
3271	1.132535e+00
3272	1.136608e+00
3273	1.136991e+00
3274	1.065379e+00
3275	1.062904e+00
3276	1.061644e+00
3277	1.062072e+00
3278	1.062056e+00
3279	1.062184e+00
3280	1.062144e+00
3281	1.062352e+00
3282	1.061061e+00
3283	1.061151e+00
3284	1.061115e+00
3285	1.050691e+00
3286	1.052347e+00
3287	1.052501e+00
3288	1.052988e+00
3289	1.053087e+00
3290	1.052869e+00
3291	1.047223e+00
3292	1.050750e+00
3293	1.050910e+00
3294	1.016391e+00
3295	1.016311e+00
3296	1.016481e+00
3297	1.016436e+00
3298	1.035820e+00
3299	1.070238e+00
3300	1.070120e+00
3301	1.070395e+00
3302	1.070417e+00
3303	1.070404e+00
3304	1.070273e+00
3305	1.070301e+00
3306	1.070421e+00
3307	1.070707e+00
3308	1.070466e+00
3309	1.070245e+00
3310	1.070244e+00
3311	1.067541e+00
3312	1.067378e+00
3313	1.067379e+00
3314	1.067384e+00
3315	1.067385e+00
3316	1.066804e+00
3317	1.067301e+00
3318	1.067301e+00
3319	1.067324e+00
3320	1.068394e+00
3321	1.067595e+00
3322	1.067606e+00
3323	1.069470e+00
3324	1.064706e+00
3325	1.057891e+00
3326	1.057931e+00
3327	1.057538e+00
3328	1.057419e+00
3329	1.068791e+00
3330	1.068780e+00
3331	1.068962e+00
3332	1.068364e+00
3333	1.068324e+00
3334	1.068306e+00
3335	1.068312e+00
3336	1.067863e+00
3337	1.068389e+00
3338	1.069120e+00
3339	1.069148e+00
3340	1.069027e+00
3341	1.069025e+00
3342	1.069102e+00
3343	1.069090e+00
3344	1.069941e+00
3345	1.069023e+00
3346	1.069086e+00
3347	1.069118e+00
3348	1.069125e+00
3349	1.068982e+00
3350	1.047845e+00
3351	1.051110e+00
3352	1.053006e+00
3353	1.052998e+00
3354	1.052952e+00
3355	1.052526e+00
3356	1.052970e+00
3357	1.053410e+00
3358	1.053521e+00
3359	1.052663e+00
3360	1.053077e+00
3361	1.053165e+00
3362	1.053593e+00
3363	1.054320e+00
3364	1.054301e+00
3365	1.054276e+00
3366	1.054322e+00
3367	1.054278e+00
3368	1.054278e+00
3369	1.054277e+00
3370	1.054272e+00
3371	1.054268e+00
3372	1.054262e+00
3373	1.054262e+00
3374	1.054263e+00
3375	1.054266e+00
3376	1.054268e+00
3377	1.054250e+00
3378	1.054248e+00
3379	1.054286e+00
3380	1.054280e+00
3381	1.054324e+00
3382	1.054410e+00
3383	1.054431e+00
3384	1.054455e+00
3385	1.054461e+00
3386	1.054461e+00
3387	1.054474e+00
3388	1.054493e+00
3389	1.054245e+00
3390	1.054229e+00
3391	1.054240e+00
3392	1.053243e+00
3393	1.052903e+00
3394	1.052920e+00
3395	1.052879e+00
3396	1.052899e+00
3397	1.052924e+00
3398	1.052894e+00
3399	1.052604e+00
3400	1.052694e+00
3401	1.052685e+00
3402	1.052711e+00
3403	1.052730e+00
3404	1.052836e+00
3405	1.052935e+00
3406	1.052940e+00
3407	1.052937e+00
3408	1.052838e+00
3409	1.052835e+00
3410	1.052838e+00
3411	1.052840e+00
3412	1.052834e+00
3413	1.052832e+00
3414	1.052849e+00
3415	1.052877e+00
3416	1.052881e+00
3417	1.053378e+00
3418	1.053379e+00
3419	1.053377e+00
3420	1.053380e+00
3421	1.053370e+00
3422	1.053370e+00
3423	1.053707e+00
3424	1.053707e+00
3425	1.053670e+00
3426	1.053667e+00
3427	1.053663e+00
3428	1.053667e+00
3429	1.053668e+00
3430	1.053668e+00
3431	1.053706e+00
3432	1.053713e+00
3433	1.053705e+00
3434	1.054160e+00
3435	1.053819e+00
3436	1.053816e+00
3437	1.053820e+00
3438	1.053813e+00
3439	1.053825e+00
3440	1.053834e+00
3441	1.053834e+00
3442	1.053834e+00
3443	1.054078e+00
3444	1.054074e+00
3445	1.054076e+00
3446	1.054076e+00
3447	1.054076e+00
3448	1.054076e+00
3449	1.054077e+00
3450	1.054074e+00
3451	1.054074e+00
3452	1.054078e+00
3453	1.054079e+00
3454	1.054079e+00
3455	1.054064e+00
3456	1.053703e+00
3457	1.053630e+00
3458	1.053630e+00
3459	1.053632e+00
3460	1.053623e+00
3461	1.053623e+00
3462	1.053622e+00
3463	1.053615e+00
3464	1.053626e+00
3465	1.053628e+00
3466	1.053628e+00
3467	1.053627e+00
3468	1.053612e+00
3469	1.053614e+00
3470	1.053511e+00
3471	1.054800e+00
3472	1.054358e+00
3473	1.054122e+00
3474	1.053683e+00
3475	1.053673e+00
3476	1.053934e+00
3477	1.053666e+00
3478	1.053665e+00
3479	1.053639e+00
3480	1.053648e+00
3481	1.053649e+00
3482	1.053651e+00
3483	1.053480e+00
3484	1.053523e+00
3485	1.053476e+00
3486	1.053479e+00
3487	1.053474e+00
3488	1.053473e+00
3489	1.053474e+00
3490	1.053448e+00
3491	1.053471e+00
3492	1.053471e+00
3493	1.053420e+00
3494	1.053111e+00
3495	1.053262e+00
3496	1.053420e+00
3497	1.053430e+00
3498	1.053429e+00
3499	1.053431e+00
3500	1.053461e+00
3501	1.053426e+00
3502	1.053439e+00
3503	1.053440e+00
3504	1.053241e+00
3505	1.053594e+00
3506	1.054023e+00
3507	1.053825e+00
3508	1.053787e+00
3509	1.056303e+00
3510	1.057592e+00
3511	1.057592e+00
3512	1.057591e+00
3513	1.057611e+00
3514	1.058122e+00
3515	1.058159e+00
3516	1.057301e+00
3517	1.057277e+00
3518	1.057299e+00
3519	1.057299e+00
3520	1.057312e+00
3521	1.057379e+00
3522	1.057293e+00
3523	1.057289e+00
3524	1.057283e+00
3525	1.057283e+00
3526	1.057284e+00
3527	1.057282e+00
3528	1.057314e+00
3529	1.057313e+00
3530	1.057311e+00
3531	1.057318e+00
3532	1.057346e+00
3533	1.057381e+00
3534	1.058820e+00
3535	1.058956e+00
3536	1.057358e+00
3537	1.057404e+00
3538	1.057420e+00
3539	1.057422e+00
3540	1.057128e+00
3541	1.053771e+00
3542	1.053804e+00
3543	1.053804e+00
3544	1.053839e+00
3545	1.053809e+00
3546	1.053808e+00
3547	1.054193e+00
3548	1.055563e+00
3549	1.055919e+00
3550	1.055931e+00
3551	1.057187e+00
3552	1.057249e+00
3553	1.057851e+00
3554	1.059322e+00
3555	1.059303e+00
3556	1.059303e+00
3557	1.059319e+00
3558	1.059323e+00
3559	1.059334e+00
3560	1.059278e+00
3561	1.064934e+00
3562	1.064283e+00
3563	1.054302e+00
3564	1.054272e+00
3565	1.054185e+00
3566	1.046232e+00
3567	1.040313e+00
3568	1.042945e+00
3569	1.042867e+00
3570	1.044987e+00
3571	1.060626e+00
3572	1.060404e+00
3573	1.060423e+00
3574	1.060126e+00
3575	1.060968e+00
3576	1.062498e+00
3577	1.062461e+00
3578	1.062474e+00
3579	1.062142e+00
3580	1.061983e+00
3581	1.060988e+00
3582	1.060809e+00
3583	1.062015e+00
3584	1.059524e+00
3585	1.059517e+00
3586	1.059505e+00
3587	1.059543e+00
3588	1.059559e+00
3589	1.059381e+00
3590	1.059370e+00
3591	1.059170e+00
3592	1.059175e+00
3593	1.059174e+00
3594	1.059173e+00
3595	1.059170e+00
3596	1.059161e+00
3597	1.059205e+00
3598	1.058892e+00
3599	1.061118e+00
3600	1.064720e+00
3601	1.045458e+00
3602	1.045416e+00
3603	1.045442e+00
3604	1.045417e+00
3605	1.045391e+00
3606	1.045386e+00
3607	1.043955e+00
3608	1.043031e+00
3609	1.037806e+00
3610	1.035083e+00
3611	1.035310e+00
3612	1.028082e+00
3613	1.027584e+00
3614	1.025642e+00
3615	1.026196e+00
3616	1.026189e+00
3617	1.018668e+00
3618	1.016808e+00
3619	1.016485e+00
3620	1.016189e+00
3621	1.013705e+00
3622	1.013700e+00
3623	1.020854e+00
3624	1.010851e+00
3625	1.017006e+00
3626	1.017985e+00
3627	1.017421e+00
3628	1.003379e+00
3629	1.003873e+00
3630	1.003876e+00
3631	1.003943e+00
3632	1.003729e+00
3633	1.003762e+00
3634	1.003749e+00
3635	1.003728e+00
3636	1.003734e+00
3637	1.003733e+00
3638	1.003659e+00
3639	1.003483e+00
3640	1.003960e+00
3641	1.003902e+00
3642	1.003956e+00
3643	1.003972e+00
3644	1.003945e+00
3645	1.004490e+00
3646	1.004502e+00
3647	1.004466e+00
3648	1.004467e+00
3649	1.004480e+00
3650	1.004529e+00
3651	1.004736e+00
3652	1.004812e+00
3653	1.005057e+00
3654	1.005084e+00
3655	1.003513e+00
3656	1.003423e+00
3657	1.003415e+00
3658	1.003415e+00
3659	1.003417e+00
3660	1.003430e+00
3661	1.003430e+00
3662	1.003430e+00
3663	1.003430e+00
3664	1.003427e+00
3665	1.003433e+00
3666	1.003424e+00
3667	1.003463e+00
3668	1.003451e+00
3669	1.003451e+00
3670	1.003432e+00
3671	1.003432e+00
3672	1.003433e+00
3673	1.003433e+00
3674	1.003432e+00
3675	1.003433e+00
3676	1.003433e+00
3677	1.003429e+00
3678	1.003427e+00
3679	1.003427e+00
3680	1.003427e+00
3681	1.003427e+00
3682	1.003428e+00
3683	1.003426e+00
3684	1.003426e+00
3685	1.003418e+00
3686	1.003418e+00
3687	1.003418e+00
3688	1.003418e+00
3689	1.003422e+00
3690	1.003422e+00
3691	1.003426e+00
3692	1.003427e+00
3693	1.003426e+00
3694	1.003426e+00
3695	1.003426e+00
3696	1.003426e+00
3697	1.003426e+00
3698	1.003426e+00
3699	1.003426e+00
3700	1.003426e+00
3701	1.003426e+00
3702	1.003426e+00
3703	1.003425e+00
3704	1.003425e+00
3705	1.003425e+00
3706	1.003425e+00
3707	1.003425e+00
3708	1.003425e+00
3709	1.003425e+00
3710	1.003426e+00
3711	1.003426e+00
3712	1.003426e+00
3713	1.003428e+00
3714	1.003428e+00
3715	1.003428e+00
3716	1.003436e+00
3717	1.003406e+00
3718	1.003412e+00
3719	1.003412e+00
3720	1.003413e+00
3721	1.003413e+00
3722	1.003413e+00
3723	1.003413e+00
3724	1.003413e+00
3725	1.003411e+00
3726	1.003411e+00
3727	1.003411e+00
3728	1.003412e+00
3729	1.003412e+00
3730	1.003412e+00
3731	1.003412e+00
3732	1.003413e+00
3733	1.003413e+00
3734	1.003413e+00
3735	1.003413e+00
3736	1.003413e+00
3737	1.003414e+00
3738	1.003411e+00
3739	1.003412e+00
3740	1.003412e+00
3741	1.003412e+00
3742	1.003413e+00
3743	1.003413e+00
3744	1.003410e+00
3745	1.003410e+00
3746	1.003410e+00
3747	1.003410e+00
3748	1.003410e+00
3749	1.003410e+00
3750	1.003410e+00
3751	1.003410e+00
3752	1.003410e+00
3753	1.003410e+00
3754	1.003410e+00
3755	1.003411e+00
3756	1.003411e+00
3757	1.003411e+00
3758	1.003411e+00
3759	1.003411e+00
3760	1.003411e+00
3761	1.003411e+00
3762	1.003411e+00
3763	1.003411e+00
3764	1.003411e+00
3765	1.003411e+00
3766	1.003411e+00
3767	1.003411e+00
3768	1.003411e+00
3769	1.003411e+00
3770	1.003411e+00
3771	1.003411e+00
3772	1.003411e+00
3773	1.003411e+00
3774	1.003411e+00
3775	1.003411e+00
3776	1.003411e+00
3777	1.003411e+00
3778	1.003411e+00
3779	1.003411e+00
3780	1.003411e+00
3781	1.003411e+00
3782	1.003411e+00
3783	1.003411e+00
3784	1.003411e+00
3785	1.003411e+00
3786	1.003411e+00
3787	1.003411e+00
3788	1.003411e+00
3789	1.003410e+00
3790	1.003411e+00
3791	1.003410e+00
3792	1.003410e+00
3793	1.003410e+00
3794	1.003410e+00
3795	1.003410e+00
3796	1.003410e+00
3797	1.003410e+00
3798	1.003410e+00
3799	1.003410e+00
3800	1.003410e+00
3801	1.003410e+00
3802	1.003410e+00
3803	1.003410e+00
3804	1.003410e+00
3805	1.003410e+00
3806	1.003410e+00
3807	1.003410e+00
3808	1.003410e+00
3809	1.003410e+00
3810	1.003410e+00
3811	1.003410e+00
3812	1.003410e+00
3813	1.003410e+00
3814	1.003410e+00
3815	1.003410e+00
3816	1.003410e+00
3817	1.003410e+00
3818	1.003411e+00
3819	1.003411e+00
3820	1.003411e+00
3821	1.003411e+00
3822	1.003411e+00
3823	1.003411e+00
3824	1.003411e+00
3825	1.003411e+00
3826	1.003411e+00
3827	1.003411e+00
3828	1.003411e+00
3829	1.003411e+00
3830	1.003412e+00
3831	1.003412e+00
3832	1.003411e+00
3833	1.003411e+00
3834	1.003411e+00
3835	1.003411e+00
3836	1.003410e+00
3837	1.003410e+00
3838	1.003411e+00
3839	1.003413e+00
3840	1.003413e+00
3841	1.003413e+00
3842	1.003412e+00
3843	1.003432e+00
3844	1.003433e+00
3845	1.003433e+00
3846	1.003433e+00
3847	1.003433e+00
3848	1.003433e+00
3849	1.003433e+00
3850	1.003433e+00
3851	1.003433e+00
3852	1.003432e+00
3853	1.003433e+00
3854	1.003433e+00
3855	1.003433e+00
3856	1.003432e+00
3857	1.003409e+00
3858	1.003409e+00
3859	1.003408e+00
3860	1.003406e+00
3861	1.003437e+00
3862	1.003439e+00
3863	1.003446e+00
3864	1.003464e+00
3865	1.003459e+00
3866	1.003459e+00
3867	1.003459e+00
3868	1.003459e+00
3869	1.003460e+00
3870	1.003460e+00
3871	1.003465e+00
3872	1.003464e+00
3873	1.003464e+00
3874	1.003465e+00
3875	1.003465e+00
3876	1.003465e+00
3877	1.003472e+00
3878	1.003482e+00
3879	1.003482e+00
3880	1.003482e+00
3881	1.003481e+00
3882	1.003481e+00
3883	1.003476e+00
3884	1.003476e+00
3885	1.003476e+00
3886	1.003476e+00
3887	1.003471e+00
3888	1.003471e+00
3889	1.003471e+00
3890	1.003471e+00
3891	1.003471e+00
3892	1.003471e+00
3893	1.003471e+00
3894	1.003475e+00
3895	1.003480e+00
3896	1.003480e+00
3897	1.003480e+00
3898	1.003480e+00
3899	1.003481e+00
3900	1.003481e+00
3901	1.003481e+00
3902	1.003422e+00
3903	1.003509e+00
3904	1.003472e+00
3905	1.003472e+00
3906	1.003340e+00
3907	1.003351e+00
3908	1.003351e+00
3909	1.003351e+00
3910	1.003351e+00
3911	1.003357e+00
3912	1.003353e+00
3913	1.003351e+00
3914	1.003350e+00
3915	1.003351e+00
3916	1.003350e+00
3917	1.003342e+00
3918	1.003342e+00
3919	1.003340e+00
3920	1.003416e+00
3921	1.003418e+00
3922	1.003408e+00
3923	1.003407e+00
3924	1.003390e+00
3925	1.003441e+00
3926	1.003441e+00
3927	1.003454e+00
3928	1.003406e+00
3929	1.003647e+00
3930	1.003645e+00
3931	1.003650e+00
3932	1.003648e+00
3933	1.003299e+00
3934	1.003408e+00
3935	1.003400e+00
3936	1.003423e+00
3937	1.003435e+00
3938	1.003410e+00
3939	1.003410e+00
3940	1.003410e+00
3941	1.003400e+00
3942	1.003404e+00
3943	1.003408e+00
3944	1.003407e+00
3945	1.003407e+00
3946	1.003407e+00
3947	1.003406e+00
3948	1.003406e+00
3949	1.003411e+00
3950	1.003407e+00
3951	1.003407e+00
3952	1.003407e+00
3953	1.003407e+00
3954	1.003408e+00
3955	1.003409e+00
3956	1.003409e+00
3957	1.003409e+00
3958	1.003410e+00
3959	1.003405e+00
3960	1.003405e+00
3961	1.003405e+00
3962	1.003405e+00
3963	1.003405e+00
3964	1.003405e+00
3965	1.003405e+00
3966	1.003406e+00
3967	1.003406e+00
3968	1.003406e+00
3969	1.003406e+00
3970	1.003406e+00
3971	1.003405e+00
3972	1.003405e+00
3973	1.003405e+00
3974	1.003405e+00
3975	1.003405e+00
3976	1.003405e+00
3977	1.003405e+00
3978	1.003405e+00
3979	1.003405e+00
3980	1.003405e+00
3981	1.003405e+00
3982	1.003405e+00
3983	1.003405e+00
3984	1.003405e+00
3985	1.003405e+00
3986	1.003405e+00
3987	1.003405e+00
3988	1.003405e+00
3989	1.003405e+00
3990	1.003405e+00
3991	1.003405e+00
3992	1.003405e+00
3993	1.003405e+00
3994	1.003405e+00
3995	1.003406e+00
3996	1.003406e+00
3997	1.003406e+00
3998	1.003406e+00
3999	1.003406e+00
4000	1.003406e+00
4001	1.003406e+00
4002	1.003406e+00
4003	1.003406e+00
4004	1.003406e+00
4005	1.003406e+00
4006	1.003406e+00
4007	1.003406e+00
4008	1.003406e+00
4009	1.003406e+00
4010	1.003395e+00
4011	1.003399e+00
4012	1.003402e+00
4013	1.003402e+00
4014	1.003402e+00
4015	1.003402e+00
4016	1.003402e+00
4017	1.003402e+00
4018	1.003404e+00
4019	1.003409e+00
4020	1.003409e+00
4021	1.003409e+00
4022	1.003409e+00
4023	1.003411e+00
4024	1.003411e+00
4025	1.003411e+00
4026	1.003411e+00
4027	1.003411e+00
4028	1.003411e+00
4029	1.003411e+00
4030	1.003411e+00
4031	1.003411e+00
4032	1.003411e+00
4033	1.003411e+00
4034	1.003411e+00
4035	1.003411e+00
4036	1.003412e+00
4037	1.003412e+00
4038	1.003413e+00
4039	1.003415e+00
4040	1.003417e+00
4041	1.003416e+00
4042	1.003416e+00
4043	1.003422e+00
4044	1.003423e+00
4045	1.003426e+00
4046	1.003416e+00
4047	1.003412e+00
4048	1.003412e+00
4049	1.003412e+00
4050	1.003413e+00
4051	1.003412e+00
4052	1.003412e+00
4053	1.003405e+00
4054	1.003408e+00
4055	1.003408e+00
4056	1.003408e+00
4057	1.003408e+00
4058	1.003408e+00
4059	1.003408e+00
4060	1.003408e+00
4061	1.003409e+00
4062	1.003409e+00
4063	1.003409e+00
4064	1.003405e+00
4065	1.003449e+00
4066	1.003450e+00
4067	1.003450e+00
4068	1.003450e+00
4069	1.003450e+00
4070	1.003450e+00
4071	1.003450e+00
4072	1.003450e+00
4073	1.003445e+00
4074	1.003453e+00
4075	1.003453e+00
4076	1.003447e+00
4077	1.003452e+00
4078	1.003452e+00
4079	1.003452e+00
4080	1.003452e+00
4081	1.003451e+00
4082	1.003443e+00
4083	1.003443e+00
4084	1.003443e+00
4085	1.003442e+00
4086	1.003441e+00
4087	1.003450e+00
4088	1.003450e+00
4089	1.003450e+00
4090	1.003447e+00
4091	1.003448e+00
4092	1.003447e+00
4093	1.003447e+00
4094	1.003447e+00
4095	1.003462e+00
4096	1.003471e+00
4097	1.003468e+00
4098	1.003481e+00
4099	1.003486e+00
4100	1.003493e+00
4101	1.003493e+00
4102	1.003490e+00
4103	1.003519e+00
4104	1.003518e+00
4105	1.003518e+00
4106	1.003518e+00
4107	1.003449e+00
4108	1.003420e+00
4109	1.003424e+00
4110	1.003424e+00
4111	1.003424e+00
4112	1.003424e+00
4113	1.003424e+00
4114	1.003424e+00
4115	1.003423e+00
4116	1.003424e+00
4117	1.003424e+00
4118	1.003423e+00
4119	1.003424e+00
4120	1.003388e+00
4121	1.003350e+00
4122	1.003350e+00
4123	1.003349e+00
4124	1.003354e+00
4125	1.003354e+00
4126	1.003363e+00
4127	1.003362e+00
4128	1.003369e+00
4129	1.003365e+00
4130	1.003352e+00
4131	1.003353e+00
4132	1.003395e+00
4133	1.003379e+00
4134	1.003383e+00
4135	1.003375e+00
4136	1.003378e+00
4137	1.003378e+00
4138	1.003369e+00
4139	1.003365e+00
4140	1.003384e+00
4141	1.003359e+00
4142	1.003364e+00
4143	1.003365e+00
4144	1.003365e+00
4145	1.003354e+00
4146	1.003356e+00
4147	1.003376e+00
4148	1.003367e+00
4149	1.003361e+00
4150	1.003361e+00
4151	1.003361e+00
4152	1.003353e+00
4153	1.003354e+00
4154	1.003346e+00
4155	1.003346e+00
4156	1.003346e+00
4157	1.003346e+00
4158	1.003424e+00
4159	1.003424e+00
4160	1.003613e+00
4161	1.003613e+00
4162	1.003604e+00
4163	1.003599e+00
4164	1.003599e+00
4165	1.003599e+00
4166	1.003599e+00
4167	1.003599e+00
4168	1.003599e+00
4169	1.003602e+00
4170	1.003601e+00
4171	1.003601e+00
4172	1.003601e+00
4173	1.003598e+00
4174	1.003598e+00
4175	1.003598e+00
4176	1.003597e+00
4177	1.003597e+00
4178	1.003597e+00
4179	1.003597e+00
4180	1.003597e+00
4181	1.003596e+00
4182	1.003596e+00
4183	1.003597e+00
4184	1.003597e+00
4185	1.003598e+00
4186	1.003599e+00
4187	1.003599e+00
4188	1.003597e+00
4189	1.003597e+00
4190	1.003597e+00
4191	1.003597e+00
4192	1.003594e+00
4193	1.003595e+00
4194	1.003593e+00
4195	1.003597e+00
4196	1.003593e+00
4197	1.003593e+00
4198	1.003593e+00
4199	1.003593e+00
4200	1.003593e+00
4201	1.003597e+00
4202	1.003597e+00
4203	1.003597e+00
4204	1.003597e+00
4205	1.003597e+00
4206	1.003596e+00
4207	1.003596e+00
4208	1.003596e+00
4209	1.003596e+00
4210	1.003596e+00
4211	1.003598e+00
4212	1.003596e+00
4213	1.003587e+00
4214	1.003591e+00
4215	1.003591e+00
4216	1.003589e+00
4217	1.003589e+00
4218	1.003589e+00
4219	1.003592e+00
4220	1.003591e+00
4221	1.003591e+00
4222	1.003591e+00
4223	1.003591e+00
4224	1.003591e+00
4225	1.003591e+00
4226	1.003591e+00
4227	1.003592e+00
4228	1.003592e+00
4229	1.003589e+00
4230	1.003589e+00
4231	1.003586e+00
4232	1.003587e+00
4233	1.003588e+00
4234	1.003588e+00
4235	1.003588e+00
4236	1.003588e+00
4237	1.003587e+00
4238	1.003587e+00
4239	1.003588e+00
4240	1.003588e+00
4241	1.003588e+00
4242	1.003588e+00
4243	1.003588e+00
4244	1.003588e+00
4245	1.003588e+00
4246	1.003588e+00
4247	1.003588e+00
4248	1.003587e+00
4249	1.003587e+00
4250	1.003587e+00
4251	1.003588e+00
4252	1.003588e+00
4253	1.003588e+00
4254	1.003587e+00
4255	1.003588e+00
4256	1.003569e+00
4257	1.003584e+00
4258	1.003587e+00
4259	1.003548e+00
4260	1.003570e+00
