BCG_LDLT_Smooth...
1	2.013420e-01
2	1.813965e-01
3	1.626877e-01
4	1.566627e-01
5	1.471557e-01
6	1.471557e-01
7	1.471557e-01
8	1.396420e-01
9	1.396420e-01
10	1.387384e-01
11	1.283611e-01
12	1.011754e-01
13	1.011754e-01
14	1.011754e-01
15	9.878862e-02
16	9.573366e-02
17	9.563032e-02
18	9.186063e-02
19	9.166244e-02
20	8.190199e-02
21	8.190199e-02
22	8.190199e-02
23	7.519207e-02
24	7.377851e-02
25	7.377851e-02
26	7.368616e-02
27	7.289785e-02
28	7.231019e-02
29	6.844381e-02
30	6.844381e-02
31	6.844381e-02
32	6.726814e-02
33	6.421350e-02
34	6.212642e-02
35	6.205710e-02
36	5.565906e-02
37	4.854143e-02
38	4.854143e-02
39	4.854143e-02
40	4.433522e-02
41	4.433522e-02
42	4.229297e-02
43	4.229297e-02
44	4.229297e-02
45	4.229098e-02
46	4.229098e-02
47	4.229098e-02
48	4.180532e-02
49	4.180532e-02
50	4.180532e-02
51	4.178479e-02
52	4.178479e-02
53	4.178479e-02
54	4.178479e-02
55	4.167743e-02
56	4.167743e-02
57	4.167735e-02
58	4.162458e-02
59	4.162458e-02
60	3.972284e-02
61	3.972284e-02
62	3.915804e-02
63	3.689647e-02
64	3.494312e-02
65	2.851321e-02
66	2.739940e-02
67	2.739940e-02
68	2.739940e-02
69	2.739940e-02
70	2.739940e-02
71	1.995813e-02
72	1.995813e-02
73	1.995813e-02
74	1.399971e-02
75	1.398690e-02
76	1.398690e-02
77	1.331451e-02
78	1.331451e-02
79	1.331451e-02
80	1.331451e-02
81	1.319105e-02
82	6.265859e-03
83	6.200507e-03
84	6.200507e-03
85	6.200507e-03
86	6.200507e-03
87	6.121497e-03
88	6.116157e-03
89	6.116157e-03
90	6.046221e-03
91	6.046221e-03
92	5.855563e-03
93	5.510355e-03
94	5.470481e-03
95	4.231539e-03
96	2.609145e-03
97	2.380448e-03
98	2.380448e-03
99	2.380448e-03
100	2.380448e-03
101	2.363022e-03
102	2.348264e-03
103	2.156956e-03
104	2.107749e-03
105	2.062304e-03
106	2.062304e-03
107	2.054570e-03
108	2.054570e-03
109	2.054570e-03
110	2.054570e-03
111	2.054570e-03
112	2.054570e-03
113	2.052870e-03
114	2.052870e-03
115	2.052870e-03
116	2.052165e-03
117	2.035663e-03
118	2.033460e-03
119	2.018731e-03
120	2.018731e-03
121	2.018731e-03
122	2.011506e-03
123	1.990655e-03
124	1.952433e-03
125	1.952433e-03
126	1.929804e-03
127	1.929750e-03
128	1.906259e-03
129	1.748963e-03
130	1.709158e-03
131	1.634668e-03
132	1.634668e-03
133	1.056659e-03
134	9.501224e-04
135	8.842673e-04
136	8.614846e-04
137	8.517681e-04
138	8.313575e-04
139	8.313575e-04
140	8.313575e-04
141	7.792123e-04
142	7.172656e-04
143	3.610526e-04
144	3.610526e-04
145	3.409498e-04
146	2.766138e-04
147	2.704414e-04
148	2.693362e-04
149	2.693362e-04
150	2.516397e-04
151	2.516397e-04
152	2.516397e-04
153	2.193068e-04
154	2.016667e-04
155	2.016667e-04
156	2.016667e-04
157	2.016667e-04
158	1.772114e-04
159	1.608155e-04
160	1.571393e-04
161	1.347254e-04
162	1.271879e-04
163	1.271879e-04
164	1.271879e-04
165	1.271879e-04
166	1.192648e-04
167	9.423951e-05
168	9.252385e-05
169	9.237011e-05
170	9.237011e-05
171	9.237011e-05
172	6.511163e-05
173	6.511163e-05
174	6.511163e-05
175	6.097478e-05
176	4.647668e-05
177	2.728230e-05
178	2.726226e-05
179	2.646387e-05
180	2.599904e-05
181	2.599904e-05
182	2.599523e-05
183	2.532971e-05
184	2.523263e-05
185	2.441565e-05
186	2.420204e-05
187	2.334012e-05
188	2.187111e-05
189	2.021443e-05
190	2.021443e-05
191	2.021443e-05
192	1.961985e-05
193	1.686179e-05
194	1.651069e-05
195	1.605781e-05
196	1.605781e-05
197	1.605781e-05
198	1.605781e-05
199	1.605781e-05
200	1.605781e-05
201	1.153051e-05
202	1.010906e-05
203	5.166909e-06
204	5.166909e-06
205	4.277903e-06
206	3.565250e-06
207	2.782967e-06
208	2.710497e-06
209	2.325402e-06
210	2.215660e-06
211	2.119990e-06
212	2.119990e-06
213	2.111499e-06
214	2.111499e-06
215	2.108233e-06
216	1.739768e-06
217	1.675309e-06
218	1.675309e-06
219	1.667128e-06
220	1.667128e-06
221	1.667128e-06
222	1.667128e-06
223	1.667128e-06
224	1.667128e-06
225	1.596862e-06
226	1.496258e-06
227	1.491941e-06
228	1.420415e-06
229	1.417784e-06
230	1.245640e-06
231	1.245640e-06
232	8.793109e-07
233	8.793109e-07
234	8.793109e-07
235	8.039332e-07
236	5.241800e-07
237	5.241800e-07
238	2.984828e-07
239	2.339562e-07
240	2.339562e-07
241	1.905342e-07
242	1.905342e-07
243	1.905342e-07
244	1.842898e-07
245	1.842898e-07
246	1.614063e-07
247	1.500456e-07
248	1.500456e-07
249	1.476690e-07
250	1.476690e-07
251	1.400450e-07
252	1.400450e-07
253	1.245091e-07
254	1.245091e-07
255	1.190833e-07
256	1.073999e-07
257	1.072173e-07
258	1.048871e-07
259	1.025499e-07
260	1.025499e-07
261	1.025191e-07
262	1.001401e-07
263	1.000286e-07
264	1.000286e-07
265	1.000286e-07
266	9.897578e-08
267	9.850848e-08
268	9.820059e-08
269	6.718685e-08
270	4.446189e-08
271	4.300271e-08
272	3.793039e-08
273	3.219074e-08
274	2.466452e-08
275	2.466452e-08
276	2.457953e-08
277	2.457953e-08
278	2.457953e-08
279	2.366520e-08
280	8.165326e-09
281	6.429851e-09
282	5.432146e-09
283	5.046206e-09
284	4.818750e-09
285	4.124687e-09
286	4.031197e-09
287	3.797893e-09
288	3.797893e-09
289	3.792422e-09
290	3.201874e-09
291	3.049244e-09
292	3.049244e-09
293	3.049244e-09
294	3.049244e-09
295	3.049244e-09
296	3.049244e-09
297	3.049244e-09
298	1.996994e-09
299	1.980453e-09
300	1.980453e-09
301	1.980453e-09
302	1.960808e-09
303	1.282846e-09
304	1.282846e-09
305	1.279958e-09
306	1.128853e-09
307	8.227210e-10
308	8.227210e-10
309	8.227210e-10
310	8.198133e-10
311	8.198133e-10
312	8.198133e-10
313	8.198133e-10
314	7.692744e-10
315	7.142966e-10
316	3.919253e-10
317	3.357546e-10
318	2.929741e-10
319	1.341939e-10
320	1.341939e-10
321	1.339424e-10
322	1.339424e-10
323	1.153179e-10
324	8.140187e-11
325	6.954340e-11
326	6.954234e-11
327	5.889249e-11
328	5.889249e-11
329	5.883908e-11
330	3.589901e-11
331	2.395396e-11
332	1.897410e-11
333	1.894327e-11
334	1.749828e-11
335	1.749828e-11
336	1.749828e-11
337	1.749828e-11
338	1.541235e-11
339	1.541235e-11
340	1.422055e-11
341	1.226252e-11
342	1.226252e-11
343	1.226252e-11
344	1.138936e-11
345	1.138936e-11
346	1.138936e-11
347	6.359952e-12
348	6.259543e-12
349	6.091451e-12
350	6.091451e-12
351	1.758075e-12
352	1.758075e-12
353	1.758075e-12
354	1.758075e-12
355	1.757271e-12
356	1.757271e-12
357	1.585957e-12
358	8.568343e-13
Solution time:	3.133000e+00
