LOS_LLT_Smooth...
1	2.013420e-01
2	1.795645e-01
3	1.569282e-01
4	1.402285e-01
5	1.298830e-01
6	1.216630e-01
7	1.170406e-01
8	1.123071e-01
9	1.098746e-01
10	1.065441e-01
11	1.047260e-01
12	1.023023e-01
13	1.007449e-01
14	9.886317e-02
15	9.742047e-02
16	9.586001e-02
17	9.451279e-02
18	9.309871e-02
19	9.184641e-02
20	9.050807e-02
21	8.928728e-02
22	8.803145e-02
23	8.679189e-02
24	8.557520e-02
25	8.433546e-02
26	8.310027e-02
27	8.182582e-02
28	8.057511e-02
29	7.920779e-02
30	7.789727e-02
31	7.645022e-02
32	7.506006e-02
33	7.357124e-02
34	7.219224e-02
35	7.074838e-02
36	6.946768e-02
37	6.815063e-02
38	6.698895e-02
39	6.577955e-02
40	6.472776e-02
41	6.360707e-02
42	6.263601e-02
43	6.159643e-02
44	6.068429e-02
45	5.971379e-02
46	5.884838e-02
47	5.793558e-02
48	5.710902e-02
49	5.625141e-02
50	5.545270e-02
51	5.464634e-02
52	5.387626e-02
53	5.310921e-02
54	5.236936e-02
55	5.163368e-02
56	5.092285e-02
57	5.021562e-02
58	4.953072e-02
59	4.885229e-02
60	4.819065e-02
61	4.753876e-02
62	4.689954e-02
63	4.627063e-02
64	4.565420e-02
65	4.504554e-02
66	4.445039e-02
67	4.386215e-02
68	4.328647e-02
69	4.271894e-02
70	4.216141e-02
71	4.161339e-02
72	4.107336e-02
73	4.054320e-02
74	4.002064e-02
75	3.950715e-02
76	3.900112e-02
77	3.850359e-02
78	3.801320e-02
79	3.753179e-02
80	3.705628e-02
81	3.658997e-02
82	3.612864e-02
83	3.567658e-02
84	3.522932e-02
85	3.479090e-02
86	3.435687e-02
87	3.393135e-02
88	3.351002e-02
89	3.309735e-02
90	3.268837e-02
91	3.228771e-02
92	3.189027e-02
93	3.150114e-02
94	3.111522e-02
95	3.073732e-02
96	3.036219e-02
97	2.999473e-02
98	2.963003e-02
99	2.927306e-02
100	2.891865e-02
101	2.857147e-02
102	2.822654e-02
103	2.788878e-02
104	2.755342e-02
105	2.722502e-02
106	2.689864e-02
107	2.657880e-02
108	2.626107e-02
109	2.594995e-02
110	2.564090e-02
111	2.533796e-02
112	2.503677e-02
113	2.474163e-02
114	2.444853e-02
115	2.416132e-02
116	2.387582e-02
117	2.359575e-02
118	2.331747e-02
119	2.304476e-02
120	2.277392e-02
121	2.250818e-02
122	2.224397e-02
123	2.198476e-02
124	2.172743e-02
125	2.147504e-02
126	2.122426e-02
127	2.097793e-02
128	2.073323e-02
129	2.049316e-02
130	2.025491e-02
131	2.002087e-02
132	1.978829e-02
133	1.955978e-02
134	1.933308e-02
135	1.911049e-02
136	1.888951e-02
137	1.867214e-02
138	1.845630e-02
139	1.824429e-02
140	1.803409e-02
141	1.782737e-02
142	1.762207e-02
143	1.742006e-02
144	1.721979e-02
145	1.702296e-02
146	1.682774e-02
147	1.663545e-02
148	1.644463e-02
149	1.625694e-02
150	1.607103e-02
151	1.588803e-02
152	1.570642e-02
153	1.552746e-02
154	1.535016e-02
155	1.517572e-02
156	1.500290e-02
157	1.483248e-02
158	1.466344e-02
159	1.449696e-02
160	1.433221e-02
161	1.416991e-02
162	1.400896e-02
163	1.385017e-02
164	1.369291e-02
165	1.353805e-02
166	1.338479e-02
167	1.323351e-02
168	1.308353e-02
169	1.293564e-02
170	1.278939e-02
171	1.264522e-02
172	1.250237e-02
173	1.236127e-02
174	1.222158e-02
175	1.208391e-02
176	1.194778e-02
177	1.181332e-02
178	1.168007e-02
179	1.154851e-02
180	1.141850e-02
181	1.129027e-02
182	1.116332e-02
183	1.103779e-02
184	1.091356e-02
185	1.079101e-02
186	1.066993e-02
187	1.055029e-02
188	1.043177e-02
189	1.031463e-02
190	1.019890e-02
191	1.008471e-02
192	9.971762e-03
193	9.859995e-03
194	9.749382e-03
195	9.640188e-03
196	9.532371e-03
197	9.425805e-03
198	9.320283e-03
199	9.215899e-03
200	9.112782e-03
201	9.011001e-03
202	8.910396e-03
203	8.810800e-03
204	8.712234e-03
205	8.614857e-03
206	8.518751e-03
207	8.423754e-03
208	8.329728e-03
209	8.236643e-03
210	8.144684e-03
211	8.053888e-03
212	7.964201e-03
213	7.875393e-03
214	7.787500e-03
215	7.700604e-03
216	7.614863e-03
217	7.530117e-03
218	7.446275e-03
219	7.363223e-03
220	7.281159e-03
221	7.200108e-03
222	7.120090e-03
223	7.040857e-03
224	6.962437e-03
225	6.884854e-03
226	6.808307e-03
227	6.732658e-03
228	6.657850e-03
229	6.583718e-03
230	6.510446e-03
231	6.438054e-03
232	6.366615e-03
233	6.295890e-03
234	6.225890e-03
235	6.156596e-03
236	6.088217e-03
237	6.020653e-03
238	5.953869e-03
239	5.887678e-03
240	5.822229e-03
241	5.757544e-03
242	5.693727e-03
243	5.630568e-03
244	5.568062e-03
245	5.506153e-03
246	5.445045e-03
247	5.384673e-03
248	5.325024e-03
249	5.265906e-03
250	5.207429e-03
251	5.149610e-03
252	5.092575e-03
253	5.036152e-03
254	4.980318e-03
255	4.924998e-03
256	4.870369e-03
257	4.816402e-03
258	4.763104e-03
259	4.710291e-03
260	4.658031e-03
261	4.606338e-03
262	4.555345e-03
263	4.504921e-03
264	4.455034e-03
265	4.405593e-03
266	4.356746e-03
267	4.308490e-03
268	4.260848e-03
269	4.213657e-03
270	4.166946e-03
271	4.120723e-03
272	4.075117e-03
273	4.030040e-03
274	3.985456e-03
275	3.941265e-03
276	3.897581e-03
277	3.854422e-03
278	3.811822e-03
279	3.769644e-03
280	3.727890e-03
281	3.686554e-03
282	3.645757e-03
283	3.605448e-03
284	3.565593e-03
285	3.526091e-03
286	3.487023e-03
287	3.448414e-03
288	3.410313e-03
289	3.372608e-03
290	3.335280e-03
291	3.298312e-03
292	3.261812e-03
293	3.225758e-03
294	3.190123e-03
295	3.154811e-03
296	3.119868e-03
297	3.085326e-03
298	3.051240e-03
299	3.017527e-03
300	2.984153e-03
301	2.951092e-03
302	2.918433e-03
303	2.886178e-03
304	2.854310e-03
305	2.822740e-03
306	2.791487e-03
307	2.760582e-03
308	2.730083e-03
309	2.699933e-03
310	2.670092e-03
311	2.640525e-03
312	2.611302e-03
313	2.582440e-03
314	2.553936e-03
315	2.525708e-03
316	2.497757e-03
317	2.470104e-03
318	2.442811e-03
319	2.415842e-03
320	2.389158e-03
321	2.362716e-03
322	2.336568e-03
323	2.310740e-03
324	2.285239e-03
325	2.259996e-03
326	2.234999e-03
327	2.210257e-03
328	2.185831e-03
329	2.161702e-03
330	2.137839e-03
331	2.114191e-03
332	2.090796e-03
333	2.067681e-03
334	2.044863e-03
335	2.022288e-03
336	1.999933e-03
337	1.977797e-03
338	1.955935e-03
339	1.934344e-03
340	1.913000e-03
341	1.891853e-03
342	1.870921e-03
343	1.850233e-03
344	1.829814e-03
345	1.809622e-03
346	1.789629e-03
347	1.769825e-03
348	1.750259e-03
349	1.730937e-03
350	1.711844e-03
351	1.692931e-03
352	1.674206e-03
353	1.655690e-03
354	1.637416e-03
355	1.619352e-03
356	1.601471e-03
357	1.583756e-03
358	1.566244e-03
359	1.548950e-03
360	1.531869e-03
361	1.514954e-03
362	1.498204e-03
363	1.481633e-03
364	1.465276e-03
365	1.449114e-03
366	1.433122e-03
367	1.417276e-03
368	1.401605e-03
369	1.386125e-03
370	1.370841e-03
371	1.355712e-03
372	1.340730e-03
373	1.325900e-03
374	1.311259e-03
375	1.296797e-03
376	1.282493e-03
377	1.268319e-03
378	1.254296e-03
379	1.240439e-03
380	1.226762e-03
381	1.213230e-03
382	1.199829e-03
383	1.186559e-03
384	1.173454e-03
385	1.160511e-03
386	1.147716e-03
387	1.135038e-03
388	1.122491e-03
389	1.110087e-03
390	1.097847e-03
391	1.085741e-03
392	1.073755e-03
393	1.061882e-03
394	1.050152e-03
395	1.038567e-03
396	1.027120e-03
397	1.015781e-03
398	1.004555e-03
399	9.934531e-04
400	9.824967e-04
401	9.716655e-04
402	9.609458e-04
403	9.503234e-04
404	9.398244e-04
405	9.294542e-04
406	9.192129e-04
407	9.090704e-04
408	8.990280e-04
409	8.890910e-04
410	8.792837e-04
411	8.695919e-04
412	8.600038e-04
413	8.505012e-04
414	8.411048e-04
415	8.318216e-04
416	8.226574e-04
417	8.135851e-04
418	8.046019e-04
419	7.957086e-04
420	7.869295e-04
421	7.782561e-04
422	7.696796e-04
423	7.611793e-04
424	7.527705e-04
425	7.444603e-04
426	7.362588e-04
427	7.281430e-04
428	7.201078e-04
429	7.121493e-04
430	7.042907e-04
431	6.965277e-04
432	6.888554e-04
433	6.812519e-04
434	6.737278e-04
435	6.662886e-04
436	6.589479e-04
437	6.516871e-04
438	6.445000e-04
439	6.373788e-04
440	6.303442e-04
441	6.233955e-04
442	6.165312e-04
443	6.097301e-04
444	6.029981e-04
445	5.963389e-04
446	5.897681e-04
447	5.832715e-04
448	5.768429e-04
449	5.704715e-04
450	5.641749e-04
451	5.579546e-04
452	5.518125e-04
453	5.457290e-04
454	5.397062e-04
455	5.337456e-04
456	5.278635e-04
457	5.220500e-04
458	5.162996e-04
459	5.105996e-04
460	5.049639e-04
461	4.993954e-04
462	4.938988e-04
463	4.884568e-04
464	4.830689e-04
465	4.777342e-04
466	4.724684e-04
467	4.672655e-04
468	4.621214e-04
469	4.570224e-04
470	4.519787e-04
471	4.469935e-04
472	4.420740e-04
473	4.372056e-04
474	4.323858e-04
475	4.276117e-04
476	4.228976e-04
477	4.182407e-04
478	4.136384e-04
479	4.090772e-04
480	4.045637e-04
481	4.001009e-04
482	3.956973e-04
483	3.913416e-04
484	3.870302e-04
485	3.827581e-04
486	3.785380e-04
487	3.743693e-04
488	3.702514e-04
489	3.661713e-04
490	3.621327e-04
491	3.581376e-04
492	3.541955e-04
493	3.502980e-04
494	3.464412e-04
495	3.426188e-04
496	3.388411e-04
497	3.351091e-04
498	3.314241e-04
499	3.277743e-04
500	3.241609e-04
501	3.205847e-04
502	3.170555e-04
503	3.135675e-04
504	3.101174e-04
505	3.066975e-04
506	3.033161e-04
507	2.999749e-04
508	2.966769e-04
509	2.934118e-04
510	2.901790e-04
511	2.869781e-04
512	2.838183e-04
513	2.806965e-04
514	2.776098e-04
515	2.745504e-04
516	2.715238e-04
517	2.685325e-04
518	2.655804e-04
519	2.626592e-04
520	2.597670e-04
521	2.569023e-04
522	2.540734e-04
523	2.512789e-04
524	2.485171e-04
525	2.457801e-04
526	2.430715e-04
527	2.403934e-04
528	2.377506e-04
529	2.351369e-04
530	2.325495e-04
531	2.299858e-04
532	2.274531e-04
533	2.249514e-04
534	2.224800e-04
535	2.200315e-04
536	2.176076e-04
537	2.152100e-04
538	2.128439e-04
539	2.105049e-04
540	2.081901e-04
541	2.058961e-04
542	2.036286e-04
543	2.013889e-04
544	1.991770e-04
545	1.969866e-04
546	1.948176e-04
547	1.926713e-04
548	1.905528e-04
549	1.884594e-04
550	1.863883e-04
551	1.843358e-04
552	1.823059e-04
553	1.803005e-04
554	1.783207e-04
555	1.763610e-04
556	1.744202e-04
557	1.724990e-04
558	1.706020e-04
559	1.687282e-04
560	1.668751e-04
561	1.650387e-04
562	1.632217e-04
563	1.614261e-04
564	1.596537e-04
565	1.579002e-04
566	1.561638e-04
567	1.544441e-04
568	1.527456e-04
569	1.510681e-04
570	1.494098e-04
571	1.477668e-04
572	1.461405e-04
573	1.445327e-04
574	1.429459e-04
575	1.413767e-04
576	1.398231e-04
577	1.382840e-04
578	1.367631e-04
579	1.352612e-04
580	1.337771e-04
581	1.323071e-04
582	1.308516e-04
583	1.294121e-04
584	1.279912e-04
585	1.265868e-04
586	1.251967e-04
587	1.238194e-04
588	1.224576e-04
589	1.211127e-04
590	1.197844e-04
591	1.184691e-04
592	1.171665e-04
593	1.158777e-04
594	1.146053e-04
595	1.133482e-04
596	1.121044e-04
597	1.108718e-04
598	1.096526e-04
599	1.084483e-04
600	1.072592e-04
601	1.060823e-04
602	1.049166e-04
603	1.037628e-04
604	1.026233e-04
605	1.014980e-04
606	1.003848e-04
607	9.928197e-05
608	9.819044e-05
609	9.711202e-05
610	9.604729e-05
611	9.499416e-05
612	9.395100e-05
613	9.291815e-05
614	9.189771e-05
615	9.089013e-05
616	8.989390e-05
617	8.890704e-05
618	8.792991e-05
619	8.696418e-05
620	8.601078e-05
621	8.506823e-05
622	8.413476e-05
623	8.321025e-05
624	8.229640e-05
625	8.139415e-05
626	8.050244e-05
627	7.961938e-05
628	7.874473e-05
629	7.787994e-05
630	7.702612e-05
631	7.618244e-05
632	7.534709e-05
633	7.451961e-05
634	7.370126e-05
635	7.289326e-05
636	7.209497e-05
637	7.130476e-05
638	7.052190e-05
639	6.974753e-05
640	6.898283e-05
641	6.822753e-05
642	6.747995e-05
643	6.673937e-05
644	6.600656e-05
645	6.528292e-05
646	6.456817e-05
647	6.386099e-05
648	6.316032e-05
649	6.246696e-05
650	6.178204e-05
651	6.110576e-05
652	6.043667e-05
653	5.977388e-05
654	5.911773e-05
655	5.846960e-05
656	5.782956e-05
657	5.719662e-05
658	5.656952e-05
659	5.594875e-05
660	5.533528e-05
661	5.472967e-05
662	5.413075e-05
663	5.353759e-05
664	5.295012e-05
665	5.236963e-05
666	5.179641e-05
667	5.122984e-05
668	5.066859e-05
669	5.011284e-05
670	4.956337e-05
671	4.902098e-05
672	4.848480e-05
673	4.795395e-05
674	4.742801e-05
675	4.690810e-05
676	4.639467e-05
677	4.588745e-05
678	4.538511e-05
679	4.488761e-05
680	4.439547e-05
681	4.390966e-05
682	4.342958e-05
683	4.295446e-05
684	4.248363e-05
685	4.201801e-05
686	4.155810e-05
687	4.110392e-05
688	4.065429e-05
689	4.020896e-05
690	3.976819e-05
691	3.933302e-05
692	3.890311e-05
693	3.847783e-05
694	3.805637e-05
695	3.763939e-05
696	3.722738e-05
697	3.682066e-05
698	3.641816e-05
699	3.601954e-05
700	3.562481e-05
701	3.523499e-05
702	3.484994e-05
703	3.446924e-05
704	3.409197e-05
705	3.371857e-05
706	3.334948e-05
707	3.298519e-05
708	3.262484e-05
709	3.226803e-05
710	3.191456e-05
711	3.156535e-05
712	3.122045e-05
713	3.087960e-05
714	3.054189e-05
715	3.020754e-05
716	2.987689e-05
717	2.955057e-05
718	2.922792e-05
719	2.890852e-05
720	2.859202e-05
721	2.827920e-05
722	2.797021e-05
723	2.766501e-05
724	2.736269e-05
725	2.706333e-05
726	2.676713e-05
727	2.647479e-05
728	2.618585e-05
729	2.589993e-05
730	2.561654e-05
731	2.533632e-05
732	2.505949e-05
733	2.478616e-05
734	2.451551e-05
735	2.424749e-05
736	2.398216e-05
737	2.372025e-05
738	2.346145e-05
739	2.320547e-05
740	2.295175e-05
741	2.270076e-05
742	2.245272e-05
743	2.220789e-05
744	2.196557e-05
745	2.172561e-05
746	2.148795e-05
747	2.125328e-05
748	2.102145e-05
749	2.079226e-05
750	2.056509e-05
751	2.034029e-05
752	2.011805e-05
753	1.989872e-05
754	1.968174e-05
755	1.946690e-05
756	1.925404e-05
757	1.904378e-05
758	1.883608e-05
759	1.863084e-05
760	1.842745e-05
761	1.822612e-05
762	1.802699e-05
763	1.783048e-05
764	1.763615e-05
765	1.744381e-05
766	1.725317e-05
767	1.706478e-05
768	1.687867e-05
769	1.669486e-05
770	1.651276e-05
771	1.633245e-05
772	1.615403e-05
773	1.597795e-05
774	1.580389e-05
775	1.563167e-05
776	1.546095e-05
777	1.529216e-05
778	1.512538e-05
779	1.496073e-05
780	1.479767e-05
781	1.463621e-05
782	1.447635e-05
783	1.431856e-05
784	1.416263e-05
785	1.400841e-05
786	1.385553e-05
787	1.370431e-05
788	1.355486e-05
789	1.340734e-05
790	1.326132e-05
791	1.311673e-05
792	1.297352e-05
793	1.283211e-05
794	1.269240e-05
795	1.255429e-05
796	1.241739e-05
797	1.228192e-05
798	1.214797e-05
799	1.201580e-05
800	1.188502e-05
801	1.175554e-05
802	1.162724e-05
803	1.150052e-05
804	1.137532e-05
805	1.125162e-05
806	1.112902e-05
807	1.100767e-05
808	1.088763e-05
809	1.076918e-05
810	1.065203e-05
811	1.053608e-05
812	1.042116e-05
813	1.030759e-05
814	1.019539e-05
815	1.008457e-05
816	9.974780e-06
817	9.866077e-06
818	9.758502e-06
819	9.652340e-06
820	9.547391e-06
821	9.443549e-06
822	9.340608e-06
823	9.238832e-06
824	9.138269e-06
825	9.038982e-06
826	8.940652e-06
827	8.843285e-06
828	8.746884e-06
829	8.651729e-06
830	8.557691e-06
831	8.464685e-06
832	8.372481e-06
833	8.281279e-06
834	8.191139e-06
835	8.102168e-06
836	8.014094e-06
837	7.926883e-06
838	7.840500e-06
839	7.755206e-06
840	7.670933e-06
841	7.587621e-06
842	7.505036e-06
843	7.423314e-06
844	7.342514e-06
845	7.262775e-06
846	7.183878e-06
847	7.105764e-06
848	7.028362e-06
849	6.951906e-06
850	6.876373e-06
851	6.801735e-06
852	6.727765e-06
853	6.654541e-06
854	6.582114e-06
855	6.510640e-06
856	6.439953e-06
857	6.369984e-06
858	6.300634e-06
859	6.232100e-06
860	6.164393e-06
861	6.097516e-06
862	6.031258e-06
863	5.965653e-06
864	5.900732e-06
865	5.836659e-06
866	5.773319e-06
867	5.710641e-06
868	5.648510e-06
869	5.587079e-06
870	5.526381e-06
871	5.466448e-06
872	5.407095e-06
873	5.348318e-06
874	5.290127e-06
875	5.232684e-06
876	5.175918e-06
877	5.119768e-06
878	5.064105e-06
879	5.009043e-06
880	4.954626e-06
881	4.900908e-06
882	4.847734e-06
883	4.795075e-06
884	4.742921e-06
885	4.691419e-06
886	4.640536e-06
887	4.590228e-06
888	4.540361e-06
889	4.491011e-06
890	4.442222e-06
891	4.394067e-06
892	4.346423e-06
893	4.299246e-06
894	4.252505e-06
895	4.206328e-06
896	4.160713e-06
897	4.115632e-06
898	4.070958e-06
899	4.026729e-06
900	3.982986e-06
901	3.939813e-06
902	3.897118e-06
903	3.854851e-06
904	3.812963e-06
905	3.771562e-06
906	3.730664e-06
907	3.690262e-06
908	3.650236e-06
909	3.610600e-06
910	3.571383e-06
911	3.532671e-06
912	3.494406e-06
913	3.456534e-06
914	3.418998e-06
915	3.381879e-06
916	3.345208e-06
917	3.308992e-06
918	3.273130e-06
919	3.237611e-06
920	3.202452e-06
921	3.167738e-06
922	3.133437e-06
923	3.099502e-06
924	3.065866e-06
925	3.032588e-06
926	2.999704e-06
927	2.967237e-06
928	2.935102e-06
929	2.903273e-06
930	2.871754e-06
931	2.840623e-06
932	2.809871e-06
933	2.779460e-06
934	2.749320e-06
935	2.719487e-06
936	2.689998e-06
937	2.660887e-06
938	2.632088e-06
939	2.603565e-06
940	2.575311e-06
941	2.547394e-06
942	2.519819e-06
943	2.492562e-06
944	2.465554e-06
945	2.438811e-06
946	2.412367e-06
947	2.386261e-06
948	2.360448e-06
949	2.334889e-06
950	2.309563e-06
951	2.284527e-06
952	2.259799e-06
953	2.235365e-06
954	2.211163e-06
955	2.187191e-06
956	2.163478e-06
957	2.140065e-06
958	2.116925e-06
959	2.094018e-06
960	2.071319e-06
961	2.048867e-06
962	2.026690e-06
963	2.004784e-06
964	1.983094e-06
965	1.961608e-06
966	1.940343e-06
967	1.919344e-06
968	1.898597e-06
969	1.878067e-06
970	1.857722e-06
971	1.837589e-06
972	1.817698e-06
973	1.798055e-06
974	1.778615e-06
975	1.759357e-06
976	1.740290e-06
977	1.721454e-06
978	1.702850e-06
979	1.684448e-06
980	1.666213e-06
981	1.648161e-06
982	1.630320e-06
983	1.612703e-06
984	1.595278e-06
985	1.578017e-06
986	1.560921e-06
987	1.544026e-06
988	1.527341e-06
989	1.510844e-06
990	1.494501e-06
991	1.478314e-06
992	1.462312e-06
993	1.446511e-06
994	1.430890e-06
995	1.415418e-06
996	1.400091e-06
997	1.384936e-06
998	1.369971e-06
999	1.355179e-06
1000	1.340531e-06
1001	1.326019e-06
1002	1.311666e-06
1003	1.297492e-06
1004	1.283485e-06
1005	1.269617e-06
1006	1.255876e-06
1007	1.242283e-06
1008	1.228859e-06
1009	1.215595e-06
1010	1.202464e-06
1011	1.189454e-06
1012	1.176581e-06
1013	1.163866e-06
1014	1.151305e-06
1015	1.138872e-06
1016	1.126555e-06
1017	1.114363e-06
1018	1.102320e-06
1019	1.090424e-06
1020	1.078653e-06
1021	1.066989e-06
1022	1.055444e-06
1023	1.044037e-06
1024	1.032771e-06
1025	1.021625e-06
1026	1.010583e-06
1027	9.996485e-07
1028	9.888448e-07
1029	9.781739e-07
1030	9.676209e-07
1031	9.571645e-07
1032	9.468112e-07
1033	9.365768e-07
1034	9.264715e-07
1035	9.164771e-07
1036	9.065782e-07
1037	8.967724e-07
1038	8.870802e-07
1039	8.775073e-07
1040	8.680447e-07
1041	8.586704e-07
1042	8.493863e-07
1043	8.402045e-07
1044	8.311390e-07
1045	8.221763e-07
1046	8.133021e-07
1047	8.045087e-07
1048	7.958138e-07
1049	7.872251e-07
1050	7.787391e-07
1051	7.703346e-07
1052	7.620097e-07
1053	7.537725e-07
1054	7.456390e-07
1055	7.376003e-07
1056	7.296442e-07
1057	7.217592e-07
1058	7.139594e-07
1059	7.062530e-07
1060	6.986417e-07
1061	6.911061e-07
1062	6.836417e-07
1063	6.762522e-07
1064	6.689544e-07
1065	6.617436e-07
1066	6.546100e-07
1067	6.475397e-07
1068	6.405432e-07
1069	6.336283e-07
1070	6.268005e-07
1071	6.200433e-07
1072	6.133505e-07
1073	6.067220e-07
1074	6.001739e-07
1075	5.937047e-07
1076	5.873079e-07
1077	5.809682e-07
1078	5.746926e-07
1079	5.684878e-07
1080	5.623622e-07
1081	5.563022e-07
1082	5.503013e-07
1083	5.443557e-07
1084	5.384803e-07
1085	5.326758e-07
1086	5.269389e-07
1087	5.212544e-07
1088	5.156258e-07
1089	5.100581e-07
1090	5.045619e-07
1091	4.991265e-07
1092	4.937458e-07
1093	4.884132e-07
1094	4.831414e-07
1095	4.779328e-07
1096	4.727871e-07
1097	4.676897e-07
1098	4.626418e-07
1099	4.576460e-07
1100	4.527140e-07
1101	4.478383e-07
1102	4.430134e-07
1103	4.382308e-07
1104	4.335008e-07
1105	4.288266e-07
1106	4.242105e-07
1107	4.196394e-07
1108	4.151123e-07
1109	4.106300e-07
1110	4.062040e-07
1111	4.018297e-07
1112	3.975029e-07
1113	3.932137e-07
1114	3.889701e-07
1115	3.847753e-07
1116	3.806338e-07
1117	3.765342e-07
1118	3.724744e-07
1119	3.684530e-07
1120	3.644810e-07
1121	3.605560e-07
1122	3.566754e-07
1123	3.528289e-07
1124	3.490219e-07
1125	3.452573e-07
1126	3.415410e-07
1127	3.378639e-07
1128	3.342232e-07
1129	3.306155e-07
1130	3.270510e-07
1131	3.235288e-07
1132	3.200480e-07
1133	3.165984e-07
1134	3.131834e-07
1135	3.098048e-07
1136	3.064699e-07
1137	3.031713e-07
1138	2.999063e-07
1139	2.966701e-07
1140	2.934713e-07
1141	2.903103e-07
1142	2.871876e-07
1143	2.840939e-07
1144	2.810306e-07
1145	2.779987e-07
1146	2.750057e-07
1147	2.720463e-07
1148	2.691181e-07
1149	2.662152e-07
1150	2.633447e-07
1151	2.605077e-07
1152	2.577060e-07
1153	2.549312e-07
1154	2.521836e-07
1155	2.494629e-07
1156	2.467766e-07
1157	2.441213e-07
1158	2.414949e-07
1159	2.388911e-07
1160	2.363154e-07
1161	2.337690e-07
1162	2.312550e-07
1163	2.287662e-07
1164	2.263017e-07
1165	2.238604e-07
1166	2.214494e-07
1167	2.190665e-07
1168	2.167106e-07
1169	2.143753e-07
1170	2.120642e-07
1171	2.097786e-07
1172	2.075225e-07
1173	2.052899e-07
1174	2.030795e-07
1175	2.008891e-07
1176	1.987251e-07
1177	1.965865e-07
1178	1.944730e-07
1179	1.923783e-07
1180	1.903049e-07
1181	1.882535e-07
1182	1.862286e-07
1183	1.842256e-07
1184	1.822430e-07
1185	1.802778e-07
1186	1.783356e-07
1187	1.764161e-07
1188	1.745199e-07
1189	1.726410e-07
1190	1.707809e-07
1191	1.689397e-07
1192	1.671222e-07
1193	1.653250e-07
1194	1.635466e-07
1195	1.617837e-07
1196	1.600406e-07
1197	1.583176e-07
1198	1.566161e-07
1199	1.549308e-07
1200	1.532621e-07
1201	1.516097e-07
1202	1.499783e-07
1203	1.483655e-07
1204	1.467702e-07
1205	1.451888e-07
1206	1.436244e-07
1207	1.420778e-07
1208	1.405508e-07
1209	1.390390e-07
1210	1.375421e-07
1211	1.360593e-07
1212	1.345948e-07
1213	1.331474e-07
1214	1.317163e-07
1215	1.302976e-07
1216	1.288939e-07
1217	1.275055e-07
1218	1.261350e-07
1219	1.247787e-07
1220	1.234359e-07
1221	1.221054e-07
1222	1.207908e-07
1223	1.194916e-07
1224	1.182076e-07
1225	1.169351e-07
1226	1.156755e-07
1227	1.144293e-07
1228	1.131991e-07
1229	1.119821e-07
1230	1.107776e-07
1231	1.095837e-07
1232	1.084037e-07
1233	1.072376e-07
1234	1.060854e-07
1235	1.049439e-07
1236	1.038137e-07
1237	1.026951e-07
1238	1.015909e-07
1239	1.004988e-07
1240	9.941826e-08
1241	9.834713e-08
1242	9.728800e-08
1243	9.624114e-08
1244	9.520721e-08
1245	9.418316e-08
1246	9.316919e-08
1247	9.216522e-08
1248	9.117388e-08
1249	9.019386e-08
1250	8.922444e-08
1251	8.826348e-08
1252	8.731289e-08
1253	8.637312e-08
1254	8.544515e-08
1255	8.452644e-08
1256	8.361674e-08
1257	8.271571e-08
1258	8.182576e-08
1259	8.094616e-08
1260	8.007639e-08
1261	7.921430e-08
1262	7.836119e-08
1263	7.751754e-08
1264	7.668460e-08
1265	7.586031e-08
1266	7.504419e-08
1267	7.423561e-08
1268	7.343668e-08
1269	7.264713e-08
1270	7.186670e-08
1271	7.109331e-08
1272	7.032774e-08
1273	6.957041e-08
1274	6.882269e-08
1275	6.808306e-08
1276	6.735089e-08
1277	6.662533e-08
1278	6.590812e-08
1279	6.519936e-08
1280	6.449902e-08
1281	6.380520e-08
1282	6.311823e-08
1283	6.243842e-08
1284	6.176716e-08
1285	6.110342e-08
1286	6.044654e-08
1287	5.979552e-08
1288	5.915173e-08
1289	5.851545e-08
1290	5.788691e-08
1291	5.726446e-08
1292	5.664806e-08
1293	5.603786e-08
1294	5.543522e-08
1295	5.483953e-08
1296	5.425017e-08
1297	5.366607e-08
1298	5.308820e-08
1299	5.251698e-08
1300	5.195282e-08
1301	5.139436e-08
1302	5.084130e-08
1303	5.029364e-08
1304	4.975260e-08
1305	4.921792e-08
1306	4.868910e-08
1307	4.816506e-08
1308	4.764641e-08
1309	4.713360e-08
1310	4.662718e-08
1311	4.612609e-08
1312	4.562988e-08
1313	4.513838e-08
1314	4.465265e-08
1315	4.417269e-08
1316	4.369816e-08
1317	4.322801e-08
1318	4.276254e-08
1319	4.230218e-08
1320	4.184755e-08
1321	4.139790e-08
1322	4.095271e-08
1323	4.051164e-08
1324	4.007558e-08
1325	3.964471e-08
1326	3.921885e-08
1327	3.879705e-08
1328	3.837934e-08
1329	3.796609e-08
1330	3.755793e-08
1331	3.715440e-08
1332	3.675496e-08
1333	3.635919e-08
1334	3.596773e-08
1335	3.558092e-08
1336	3.519870e-08
1337	3.482027e-08
1338	3.444545e-08
1339	3.407450e-08
1340	3.370805e-08
1341	3.334587e-08
1342	3.298747e-08
1343	3.263236e-08
1344	3.228098e-08
1345	3.193371e-08
1346	3.159062e-08
1347	3.125108e-08
1348	3.091476e-08
1349	3.058181e-08
1350	3.025280e-08
1351	2.992772e-08
1352	2.960612e-08
1353	2.928751e-08
1354	2.897211e-08
1355	2.866035e-08
1356	2.835237e-08
1357	2.804770e-08
1358	2.774593e-08
1359	2.744711e-08
1360	2.715173e-08
1361	2.685991e-08
1362	2.657131e-08
1363	2.628546e-08
1364	2.600239e-08
1365	2.572250e-08
1366	2.544601e-08
1367	2.517261e-08
1368	2.490185e-08
1369	2.463369e-08
1370	2.436850e-08
1371	2.410653e-08
1372	2.384752e-08
1373	2.359105e-08
1374	2.333702e-08
1375	2.308577e-08
1376	2.283754e-08
1377	2.259217e-08
1378	2.234923e-08
1379	2.210860e-08
1380	2.187053e-08
1381	2.163534e-08
1382	2.140287e-08
1383	2.117276e-08
1384	2.094481e-08
1385	2.071927e-08
1386	2.049640e-08
1387	2.027618e-08
1388	2.005819e-08
1389	1.984227e-08
1390	1.962857e-08
1391	1.941742e-08
1392	1.920876e-08
1393	1.900229e-08
1394	1.879774e-08
1395	1.859530e-08
1396	1.839520e-08
1397	1.819753e-08
1398	1.800192e-08
1399	1.780819e-08
1400	1.761638e-08
1401	1.742681e-08
1402	1.723949e-08
1403	1.705423e-08
1404	1.687069e-08
1405	1.668900e-08
1406	1.650935e-08
1407	1.633191e-08
1408	1.615637e-08
1409	1.598255e-08
1410	1.581039e-08
1411	1.564021e-08
1412	1.547205e-08
1413	1.530579e-08
1414	1.514111e-08
1415	1.497806e-08
1416	1.481677e-08
1417	1.465747e-08
1418	1.449994e-08
1419	1.434398e-08
1420	1.418948e-08
1421	1.403671e-08
1422	1.388573e-08
1423	1.373653e-08
1424	1.358876e-08
1425	1.344244e-08
1426	1.329766e-08
1427	1.315465e-08
1428	1.301325e-08
1429	1.287332e-08
1430	1.273468e-08
1431	1.259754e-08
1432	1.246199e-08
1433	1.232807e-08
1434	1.219548e-08
1435	1.206420e-08
1436	1.193422e-08
1437	1.180583e-08
1438	1.167891e-08
1439	1.155336e-08
1440	1.142895e-08
1441	1.130586e-08
1442	1.118416e-08
1443	1.106396e-08
1444	1.094498e-08
1445	1.082719e-08
1446	1.071052e-08
1447	1.059526e-08
1448	1.048133e-08
1449	1.036867e-08
1450	1.025704e-08
1451	1.014656e-08
1452	1.003730e-08
1453	9.929401e-09
1454	9.822632e-09
1455	9.716939e-09
1456	9.612235e-09
1457	9.508758e-09
1458	9.406477e-09
1459	9.305379e-09
1460	9.205216e-09
1461	9.106074e-09
1462	9.007985e-09
1463	8.911121e-09
1464	8.815301e-09
1465	8.720470e-09
1466	8.626505e-09
1467	8.533614e-09
1468	8.441790e-09
1469	8.351060e-09
1470	8.261187e-09
1471	8.172222e-09
1472	8.084166e-09
1473	7.997207e-09
1474	7.911207e-09
1475	7.826121e-09
1476	7.741801e-09
1477	7.658419e-09
1478	7.575981e-09
1479	7.494549e-09
1480	7.413907e-09
1481	7.334078e-09
1482	7.255036e-09
1483	7.176969e-09
1484	7.099777e-09
1485	7.023432e-09
1486	6.947770e-09
1487	6.872929e-09
1488	6.798918e-09
1489	6.725826e-09
1490	6.653465e-09
1491	6.581838e-09
1492	6.510893e-09
1493	6.440808e-09
1494	6.371517e-09
1495	6.303012e-09
1496	6.235123e-09
1497	6.167954e-09
1498	6.101509e-09
1499	6.035899e-09
1500	5.970965e-09
1501	5.906699e-09
1502	5.843027e-09
1503	5.780111e-09
1504	5.717909e-09
1505	5.656435e-09
1506	5.595522e-09
1507	5.535243e-09
1508	5.475594e-09
1509	5.416696e-09
1510	5.358423e-09
1511	5.300762e-09
1512	5.243623e-09
1513	5.187145e-09
1514	5.131305e-09
1515	5.076136e-09
1516	5.021482e-09
1517	4.967391e-09
1518	4.913846e-09
1519	4.860973e-09
1520	4.808674e-09
1521	4.756939e-09
1522	4.705665e-09
1523	4.654970e-09
1524	4.604840e-09
1525	4.555326e-09
1526	4.506288e-09
1527	4.457752e-09
1528	4.409690e-09
1529	4.362225e-09
1530	4.315284e-09
1531	4.268864e-09
1532	4.222857e-09
1533	4.177356e-09
1534	4.132353e-09
1535	4.087911e-09
1536	4.043910e-09
1537	4.000361e-09
1538	3.957225e-09
1539	3.914614e-09
1540	3.872481e-09
1541	3.830828e-09
1542	3.789549e-09
1543	3.748713e-09
1544	3.708313e-09
1545	3.668422e-09
1546	3.628938e-09
1547	3.589865e-09
1548	3.551153e-09
1549	3.512902e-09
1550	3.475081e-09
1551	3.437704e-09
1552	3.400668e-09
1553	3.364022e-09
1554	3.327756e-09
1555	3.291947e-09
1556	3.256515e-09
1557	3.221459e-09
1558	3.186719e-09
1559	3.152384e-09
1560	3.118434e-09
1561	3.084891e-09
1562	3.051662e-09
1563	3.018778e-09
1564	2.986225e-09
1565	2.954080e-09
1566	2.922283e-09
1567	2.890830e-09
1568	2.859658e-09
1569	2.828839e-09
1570	2.798362e-09
1571	2.768259e-09
1572	2.738445e-09
1573	2.708939e-09
1574	2.679722e-09
1575	2.650866e-09
1576	2.622328e-09
1577	2.594106e-09
1578	2.566138e-09
1579	2.538477e-09
1580	2.511119e-09
1581	2.484101e-09
1582	2.457351e-09
1583	2.430877e-09
1584	2.404655e-09
1585	2.378751e-09
1586	2.353137e-09
1587	2.327815e-09
1588	2.302722e-09
1589	2.277898e-09
1590	2.253340e-09
1591	2.229089e-09
1592	2.205086e-09
1593	2.181334e-09
1594	2.157802e-09
1595	2.134550e-09
1596	2.111560e-09
1597	2.088837e-09
1598	2.066324e-09
1599	2.044048e-09
1600	2.022005e-09
1601	2.000236e-09
1602	1.978698e-09
1603	1.957388e-09
1604	1.936272e-09
1605	1.915401e-09
1606	1.894765e-09
1607	1.874374e-09
1608	1.854176e-09
1609	1.834188e-09
1610	1.814402e-09
1611	1.794862e-09
1612	1.775534e-09
1613	1.756414e-09
1614	1.737469e-09
1615	1.718736e-09
1616	1.700212e-09
1617	1.681913e-09
1618	1.663792e-09
1619	1.645857e-09
1620	1.628100e-09
1621	1.610560e-09
1622	1.593214e-09
1623	1.576060e-09
1624	1.559062e-09
1625	1.542250e-09
1626	1.525622e-09
1627	1.509199e-09
1628	1.492941e-09
1629	1.476850e-09
1630	1.460914e-09
1631	1.445169e-09
1632	1.429602e-09
1633	1.414210e-09
1634	1.398961e-09
1635	1.383873e-09
1636	1.368949e-09
1637	1.354208e-09
1638	1.339621e-09
1639	1.325184e-09
1640	1.310884e-09
1641	1.296752e-09
1642	1.282780e-09
1643	1.268969e-09
1644	1.255288e-09
1645	1.241749e-09
1646	1.228354e-09
1647	1.215123e-09
1648	1.202034e-09
1649	1.189082e-09
1650	1.176251e-09
1651	1.163567e-09
1652	1.151026e-09
1653	1.138633e-09
1654	1.126359e-09
1655	1.114211e-09
1656	1.102189e-09
1657	1.090313e-09
1658	1.078568e-09
1659	1.066948e-09
1660	1.055436e-09
1661	1.044052e-09
1662	1.032796e-09
1663	1.021674e-09
1664	1.010663e-09
1665	9.997637e-10
1666	9.889747e-10
1667	9.783149e-10
1668	9.677752e-10
1669	9.573495e-10
1670	9.470219e-10
1671	9.368049e-10
1672	9.267024e-10
1673	9.167211e-10
1674	9.068427e-10
1675	8.970639e-10
1676	8.873822e-10
1677	8.778141e-10
1678	8.683556e-10
1679	8.590015e-10
1680	8.497365e-10
1681	8.405680e-10
1682	8.315008e-10
1683	8.225426e-10
1684	8.136798e-10
1685	8.049068e-10
1686	7.962196e-10
1687	7.876317e-10
1688	7.791430e-10
1689	7.707499e-10
1690	7.624384e-10
1691	7.542115e-10
1692	7.460738e-10
1693	7.380336e-10
1694	7.300816e-10
1695	7.222110e-10
1696	7.144167e-10
1697	7.067089e-10
1698	6.990904e-10
1699	6.915593e-10
1700	6.841032e-10
1701	6.767217e-10
1702	6.694186e-10
1703	6.622022e-10
1704	6.550670e-10
1705	6.480060e-10
1706	6.410133e-10
1707	6.340959e-10
1708	6.272584e-10
1709	6.205002e-10
1710	6.138114e-10
1711	6.071889e-10
1712	6.006353e-10
1713	5.941582e-10
1714	5.877556e-10
1715	5.814208e-10
1716	5.751476e-10
1717	5.689399e-10
1718	5.628033e-10
1719	5.567385e-10
1720	5.507379e-10
1721	5.447965e-10
1722	5.389160e-10
1723	5.331025e-10
1724	5.273570e-10
1725	5.216735e-10
1726	5.160460e-10
1727	5.104757e-10
1728	5.049683e-10
1729	4.995254e-10
1730	4.941421e-10
1731	4.888120e-10
1732	4.835357e-10
1733	4.783181e-10
1734	4.731621e-10
1735	4.680627e-10
1736	4.630146e-10
1737	4.580165e-10
1738	4.530740e-10
1739	4.481891e-10
1740	4.433592e-10
1741	4.385776e-10
1742	4.338439e-10
1743	4.291613e-10
1744	4.245340e-10
1745	4.199585e-10
1746	4.154301e-10
1747	4.109459e-10
1748	4.065106e-10
1749	4.021264e-10
1750	3.977929e-10
1751	3.935032e-10
1752	3.892565e-10
1753	3.850543e-10
1754	3.809017e-10
1755	3.767960e-10
1756	3.727338e-10
1757	3.687108e-10
1758	3.647308e-10
1759	3.607960e-10
1760	3.569076e-10
1761	3.530593e-10
1762	3.492497e-10
1763	3.454789e-10
1764	3.417521e-10
1765	3.380678e-10
1766	3.344237e-10
1767	3.308146e-10
1768	3.272436e-10
1769	3.237122e-10
1770	3.202230e-10
1771	3.167705e-10
1772	3.133531e-10
1773	3.099696e-10
1774	3.066252e-10
1775	3.033188e-10
1776	3.000497e-10
1777	2.968121e-10
1778	2.936081e-10
1779	2.904389e-10
1780	2.873077e-10
1781	2.842102e-10
1782	2.811448e-10
1783	2.781091e-10
1784	2.751078e-10
1785	2.721406e-10
1786	2.692076e-10
1787	2.663033e-10
1788	2.634289e-10
1789	2.605848e-10
1790	2.577749e-10
1791	2.549957e-10
1792	2.522460e-10
1793	2.495225e-10
1794	2.468293e-10
1795	2.441664e-10
1796	2.415349e-10
1797	2.389295e-10
1798	2.363510e-10
1799	2.337988e-10
1800	2.312772e-10
1801	2.287835e-10
1802	2.263169e-10
1803	2.238736e-10
1804	2.214571e-10
1805	2.190672e-10
1806	2.167061e-10
1807	2.143689e-10
1808	2.120558e-10
1809	2.097657e-10
1810	2.075029e-10
1811	2.052652e-10
1812	2.030525e-10
1813	2.008607e-10
1814	1.986925e-10
1815	1.965478e-10
1816	1.944292e-10
1817	1.923324e-10
1818	1.902576e-10
1819	1.882028e-10
1820	1.861722e-10
1821	1.841642e-10
1822	1.821792e-10
1823	1.802130e-10
1824	1.782678e-10
1825	1.763432e-10
1826	1.744420e-10
1827	1.725609e-10
1828	1.706998e-10
1829	1.688563e-10
1830	1.670341e-10
1831	1.652321e-10
1832	1.634513e-10
1833	1.616876e-10
1834	1.599426e-10
1835	1.582154e-10
1836	1.565094e-10
1837	1.548217e-10
1838	1.531523e-10
1839	1.514984e-10
1840	1.498633e-10
1841	1.482463e-10
1842	1.466486e-10
1843	1.450665e-10
1844	1.435010e-10
1845	1.419512e-10
1846	1.404203e-10
1847	1.389060e-10
1848	1.374085e-10
1849	1.359249e-10
1850	1.344578e-10
1851	1.330066e-10
1852	1.315731e-10
1853	1.301539e-10
1854	1.287496e-10
1855	1.273591e-10
1856	1.259852e-10
1857	1.246265e-10
1858	1.232831e-10
1859	1.219523e-10
1860	1.206360e-10
1861	1.193337e-10
1862	1.180475e-10
1863	1.167743e-10
1864	1.155147e-10
1865	1.142671e-10
1866	1.130343e-10
1867	1.118150e-10
1868	1.106099e-10
1869	1.094162e-10
1870	1.082353e-10
1871	1.070666e-10
1872	1.059124e-10
1873	1.047703e-10
1874	1.036404e-10
1875	1.025211e-10
1876	1.014149e-10
1877	1.003208e-10
1878	9.923967e-11
1879	9.816885e-11
1880	9.710948e-11
1881	9.606084e-11
1882	9.502511e-11
1883	9.400038e-11
1884	9.298692e-11
1885	9.198282e-11
1886	9.099021e-11
1887	9.000838e-11
1888	8.903843e-11
1889	8.807788e-11
1890	8.712758e-11
1891	8.618665e-11
1892	8.525723e-11
1893	8.433782e-11
1894	8.342873e-11
1895	8.252802e-11
1896	8.163741e-11
1897	8.075634e-11
1898	7.988606e-11
1899	7.902443e-11
1900	7.817198e-11
1901	7.732776e-11
1902	7.649374e-11
1903	7.566878e-11
1904	7.485329e-11
1905	7.404534e-11
1906	7.324629e-11
1907	7.245566e-11
1908	7.167477e-11
1909	7.090183e-11
1910	7.013719e-11
1911	6.937978e-11
1912	6.863137e-11
1913	6.789113e-11
1914	6.715956e-11
1915	6.643485e-11
1916	6.571798e-11
1917	6.500852e-11
1918	6.430781e-11
1919	6.361440e-11
1920	6.292852e-11
1921	6.224905e-11
1922	6.157748e-11
1923	6.091325e-11
1924	6.025692e-11
1925	5.960687e-11
1926	5.896377e-11
1927	5.832717e-11
1928	5.769839e-11
1929	5.707629e-11
1930	5.646106e-11
1931	5.585153e-11
1932	5.524894e-11
1933	5.465289e-11
1934	5.406404e-11
1935	5.348094e-11
1936	5.290405e-11
1937	5.233286e-11
1938	5.176862e-11
1939	5.121047e-11
1940	5.065859e-11
1941	5.011183e-11
1942	4.957116e-11
1943	4.903629e-11
1944	4.850795e-11
1945	4.798490e-11
1946	4.746742e-11
1947	4.695494e-11
1948	4.644861e-11
1949	4.594781e-11
1950	4.545274e-11
1951	4.496230e-11
1952	4.447721e-11
1953	4.399725e-11
1954	4.352318e-11
1955	4.305397e-11
1956	4.258978e-11
1957	4.213001e-11
1958	4.167565e-11
1959	4.122629e-11
1960	4.078217e-11
1961	4.034225e-11
1962	3.990705e-11
1963	3.947638e-11
1964	3.905097e-11
1965	3.863005e-11
1966	3.821367e-11
1967	3.780121e-11
1968	3.739350e-11
1969	3.699028e-11
1970	3.659183e-11
1971	3.619723e-11
1972	3.580681e-11
1973	3.542038e-11
1974	3.503863e-11
1975	3.466100e-11
1976	3.428750e-11
1977	3.391750e-11
1978	3.355166e-11
1979	3.318984e-11
1980	3.283234e-11
1981	3.247839e-11
1982	3.212816e-11
1983	3.178143e-11
1984	3.143886e-11
1985	3.110005e-11
1986	3.076500e-11
1987	3.043310e-11
1988	3.010486e-11
1989	2.978017e-11
1990	2.945940e-11
1991	2.914190e-11
1992	2.882773e-11
1993	2.851664e-11
1994	2.820923e-11
1995	2.790523e-11
1996	2.760466e-11
1997	2.730695e-11
1998	2.701244e-11
1999	2.672109e-11
2000	2.643326e-11
2001	2.614844e-11
2002	2.586662e-11
2003	2.558753e-11
2004	2.531166e-11
2005	2.503888e-11
2006	2.476923e-11
2007	2.450219e-11
2008	2.423797e-11
2009	2.397653e-11
2010	2.371824e-11
2011	2.346273e-11
2012	2.320993e-11
2013	2.295955e-11
2014	2.271201e-11
2015	2.246723e-11
2016	2.222531e-11
2017	2.198578e-11
2018	2.174873e-11
2019	2.151415e-11
2020	2.128236e-11
2021	2.105312e-11
2022	2.082635e-11
2023	2.060175e-11
2024	2.037962e-11
2025	2.015997e-11
2026	1.994290e-11
2027	1.972804e-11
2028	1.951539e-11
2029	1.930491e-11
2030	1.909690e-11
2031	1.889123e-11
2032	1.868779e-11
2033	1.848632e-11
2034	1.828701e-11
2035	1.808990e-11
2036	1.789513e-11
2037	1.770239e-11
2038	1.751162e-11
2039	1.732278e-11
2040	1.713611e-11
2041	1.695156e-11
2042	1.676905e-11
2043	1.658833e-11
2044	1.640950e-11
2045	1.623263e-11
2046	1.605785e-11
2047	1.588494e-11
2048	1.571381e-11
2049	1.554439e-11
2050	1.537687e-11
2051	1.521127e-11
2052	1.504753e-11
2053	1.488542e-11
2054	1.472497e-11
2055	1.456626e-11
2056	1.440941e-11
2057	1.425429e-11
2058	1.410078e-11
2059	1.394878e-11
2060	1.379846e-11
2061	1.364985e-11
2062	1.350294e-11
2063	1.335753e-11
2064	1.321358e-11
2065	1.307116e-11
2066	1.293040e-11
2067	1.279123e-11
2068	1.265352e-11
2069	1.251716e-11
2070	1.238226e-11
2071	1.224891e-11
2072	1.211709e-11
2073	1.198665e-11
2074	1.185751e-11
2075	1.172972e-11
2076	1.160339e-11
2077	1.147852e-11
2078	1.135497e-11
2079	1.123265e-11
2080	1.111161e-11
2081	1.099194e-11
2082	1.087365e-11
2083	1.075663e-11
2084	1.064078e-11
2085	1.052612e-11
2086	1.041275e-11
2087	1.030070e-11
2088	1.018986e-11
2089	1.008013e-11
2090	9.971520e-12
2091	9.864128e-12
2092	9.757976e-12
2093	9.652994e-12
2094	9.549061e-12
2095	9.446190e-12
2096	9.344447e-12
2097	9.243896e-12
2098	9.144448e-12
2099	9.046018e-12
2100	8.948568e-12
2101	8.852196e-12
2102	8.756930e-12
2103	8.662742e-12
2104	8.569503e-12
2105	8.477210e-12
2106	8.385903e-12
2107	8.295668e-12
2108	8.206436e-12
2109	8.118138e-12
2110	8.030705e-12
2111	7.944224e-12
2112	7.858726e-12
2113	7.774215e-12
2114	7.690567e-12
2115	7.607768e-12
2116	7.525829e-12
2117	7.444850e-12
2118	7.364778e-12
2119	7.285566e-12
2120	7.207123e-12
2121	7.129521e-12
2122	7.052787e-12
2123	6.976955e-12
2124	6.901908e-12
2125	6.827627e-12
2126	6.754098e-12
2127	6.681423e-12
2128	6.609567e-12
2129	6.538503e-12
2130	6.468127e-12
2131	6.398495e-12
2132	6.329626e-12
2133	6.261576e-12
2134	6.194243e-12
2135	6.127605e-12
2136	6.061625e-12
2137	5.996403e-12
2138	5.931916e-12
2139	5.868157e-12
2140	5.805019e-12
2141	5.742541e-12
2142	5.680731e-12
2143	5.619662e-12
2144	5.559245e-12
2145	5.499463e-12
2146	5.440260e-12
2147	5.381727e-12
2148	5.323851e-12
2149	5.266643e-12
2150	5.209996e-12
2151	5.153940e-12
2152	5.098467e-12
2153	5.043658e-12
2154	4.989445e-12
2155	4.935813e-12
2156	4.882692e-12
2157	4.830163e-12
2158	4.778217e-12
2159	4.726883e-12
2160	4.676060e-12
2161	4.625766e-12
2162	4.575982e-12
2163	4.526791e-12
2164	4.478140e-12
2165	4.430023e-12
2166	4.382361e-12
2167	4.335222e-12
2168	4.288598e-12
2169	4.242531e-12
2170	4.196932e-12
2171	4.151808e-12
2172	4.107130e-12
2173	4.062981e-12
2174	4.019319e-12
2175	3.976147e-12
2176	3.933384e-12
2177	3.891083e-12
2178	3.849235e-12
2179	3.807893e-12
2180	3.766977e-12
2181	3.726493e-12
2182	3.686399e-12
2183	3.646774e-12
2184	3.607587e-12
2185	3.568850e-12
2186	3.530482e-12
2187	3.492524e-12
2188	3.454963e-12
2189	3.417858e-12
2190	3.381143e-12
2191	3.344821e-12
2192	3.308843e-12
2193	3.273279e-12
2194	3.238106e-12
2195	3.203345e-12
2196	3.168920e-12
2197	3.134860e-12
2198	3.101147e-12
2199	3.067844e-12
2200	3.034895e-12
2201	3.002307e-12
2202	2.970023e-12
2203	2.938104e-12
2204	2.906533e-12
2205	2.875339e-12
2206	2.844450e-12
2207	2.813888e-12
2208	2.783630e-12
2209	2.753738e-12
2210	2.724168e-12
2211	2.694927e-12
2212	2.665959e-12
2213	2.637313e-12
2214	2.608974e-12
2215	2.580978e-12
2216	2.553261e-12
2217	2.525839e-12
2218	2.498683e-12
2219	2.471851e-12
2220	2.445311e-12
2221	2.419073e-12
2222	2.393080e-12
2223	2.367372e-12
2224	2.341934e-12
2225	2.316806e-12
2226	2.291935e-12
2227	2.267329e-12
2228	2.242958e-12
2229	2.218874e-12
2230	2.195052e-12
2231	2.171507e-12
2232	2.148183e-12
2233	2.125112e-12
2234	2.102278e-12
2235	2.079723e-12
2236	2.057403e-12
2237	2.035325e-12
2238	2.013454e-12
2239	1.991836e-12
2240	1.970452e-12
2241	1.949322e-12
2242	1.928393e-12
2243	1.907689e-12
2244	1.887193e-12
2245	1.866947e-12
2246	1.846915e-12
2247	1.827104e-12
2248	1.807477e-12
2249	1.788073e-12
2250	1.768877e-12
2251	1.749913e-12
2252	1.731133e-12
2253	1.712553e-12
2254	1.694156e-12
2255	1.675982e-12
2256	1.658002e-12
2257	1.640225e-12
2258	1.622612e-12
2259	1.605195e-12
2260	1.587963e-12
2261	1.570941e-12
2262	1.554088e-12
2263	1.537415e-12
2264	1.520903e-12
2265	1.504587e-12
2266	1.488449e-12
2267	1.472495e-12
2268	1.456689e-12
2269	1.441057e-12
2270	1.425588e-12
2271	1.410308e-12
2272	1.395183e-12
2273	1.380222e-12
2274	1.365401e-12
2275	1.350755e-12
2276	1.336268e-12
2277	1.321949e-12
2278	1.307766e-12
2279	1.293736e-12
2280	1.279849e-12
2281	1.266132e-12
2282	1.252558e-12
2283	1.239131e-12
2284	1.225830e-12
2285	1.212682e-12
2286	1.199676e-12
2287	1.186825e-12
2288	1.174097e-12
2289	1.161505e-12
2290	1.149038e-12
2291	1.136724e-12
2292	1.124540e-12
2293	1.112491e-12
2294	1.100553e-12
2295	1.088750e-12
2296	1.077074e-12
2297	1.065538e-12
2298	1.054116e-12
2299	1.042815e-12
2300	1.031624e-12
2301	1.020568e-12
2302	1.009631e-12
2303	9.988177e-13
Solution time:	1.582600e+01
