LOS_LLT...
1	2.457612e-01
2	1.873742e-01
3	1.719333e-01
4	1.412639e-01
5	1.323766e-01
6	1.216630e-01
7	1.176987e-01
8	1.123071e-01
9	1.098979e-01
10	1.065441e-01
11	1.047260e-01
12	1.023023e-01
13	1.007449e-01
14	9.886317e-02
15	9.742047e-02
16	9.586001e-02
17	9.451279e-02
18	9.309871e-02
19	9.184641e-02
20	9.050807e-02
21	8.928728e-02
22	8.803145e-02
23	8.679189e-02
24	8.557520e-02
25	8.433546e-02
26	8.310027e-02
27	8.182582e-02
28	8.057741e-02
29	7.920922e-02
30	7.791946e-02
31	7.645324e-02
32	7.511138e-02
33	7.357359e-02
34	7.226199e-02
35	7.074863e-02
36	6.954968e-02
37	6.815063e-02
38	6.707056e-02
39	6.577955e-02
40	6.480904e-02
41	6.360707e-02
42	6.272284e-02
43	6.159643e-02
44	6.077890e-02
45	5.971379e-02
46	5.895274e-02
47	5.793558e-02
48	5.722214e-02
49	5.625141e-02
50	5.557033e-02
51	5.464642e-02
52	5.399390e-02
53	5.310966e-02
54	5.248486e-02
55	5.163469e-02
56	5.103615e-02
57	5.021727e-02
58	4.964055e-02
59	4.885494e-02
60	4.829453e-02
61	4.754288e-02
62	4.699651e-02
63	4.627633e-02
64	4.574574e-02
65	4.505246e-02
66	4.453776e-02
67	4.387025e-02
68	4.336948e-02
69	4.272848e-02
70	4.223936e-02
71	4.162466e-02
72	4.114612e-02
73	4.055620e-02
74	4.008889e-02
75	3.952168e-02
76	3.906549e-02
77	3.851951e-02
78	3.807390e-02
79	3.754927e-02
80	3.711321e-02
81	3.660905e-02
82	3.618194e-02
83	3.569723e-02
84	3.527939e-02
85	3.481298e-02
86	3.440397e-02
87	3.395475e-02
88	3.355435e-02
89	3.312210e-02
90	3.273007e-02
91	3.231372e-02
92	3.192949e-02
93	3.152836e-02
94	3.115221e-02
95	3.076564e-02
96	3.039709e-02
97	3.002404e-02
98	2.966300e-02
99	2.930335e-02
100	2.894984e-02
101	2.860259e-02
102	2.825605e-02
103	2.792067e-02
104	2.758144e-02
105	2.725762e-02
106	2.692524e-02
107	2.661197e-02
108	2.628637e-02
109	2.598366e-02
110	2.566504e-02
111	2.537209e-02
112	2.505979e-02
113	2.477612e-02
114	2.447058e-02
115	2.419611e-02
116	2.389694e-02
117	2.363071e-02
118	2.333773e-02
119	2.307989e-02
120	2.279345e-02
121	2.254336e-02
122	2.226276e-02
123	2.201993e-02
124	2.174560e-02
125	2.151019e-02
126	2.124183e-02
127	2.101291e-02
128	2.075024e-02
129	2.052800e-02
130	2.027146e-02
131	2.005548e-02
132	1.980435e-02
133	1.959409e-02
134	1.934874e-02
135	1.914453e-02
136	1.890480e-02
137	1.870577e-02
138	1.847122e-02
139	1.827755e-02
140	1.804873e-02
141	1.786020e-02
142	1.763639e-02
143	1.745240e-02
144	1.723386e-02
145	1.705486e-02
146	1.684157e-02
147	1.666679e-02
148	1.645821e-02
149	1.628776e-02
150	1.608444e-02
151	1.591831e-02
152	1.571961e-02
153	1.555713e-02
154	1.536318e-02
155	1.520486e-02
156	1.501578e-02
157	1.486098e-02
158	1.467613e-02
159	1.452487e-02
160	1.434480e-02
161	1.419723e-02
162	1.402140e-02
163	1.387683e-02
164	1.370522e-02
165	1.356415e-02
166	1.339701e-02
167	1.325896e-02
168	1.309561e-02
169	1.296047e-02
170	1.280139e-02
171	1.266947e-02
172	1.251426e-02
173	1.238487e-02
174	1.223336e-02
175	1.210695e-02
176	1.195949e-02
177	1.183574e-02
178	1.169166e-02
179	1.157034e-02
180	1.143003e-02
181	1.131155e-02
182	1.117476e-02
183	1.105846e-02
184	1.092489e-02
185	1.081115e-02
186	1.068121e-02
187	1.056987e-02
188	1.044293e-02
189	1.033366e-02
190	1.021000e-02
191	1.010325e-02
192	9.982773e-03
193	9.877972e-03
194	9.760288e-03
195	9.657686e-03
196	9.543219e-03
197	9.442808e-03
198	9.331014e-03
199	9.232403e-03
200	9.123436e-03
201	9.027071e-03
202	8.920963e-03
203	8.826384e-03
204	8.722685e-03
205	8.630015e-03
206	8.529135e-03
207	8.438488e-03
208	8.339991e-03
209	8.250936e-03
210	8.154856e-03
211	8.067807e-03
212	7.974282e-03
213	7.888894e-03
214	7.797454e-03
215	7.713731e-03
216	7.624738e-03
217	7.542887e-03
218	7.456025e-03
219	7.375610e-03
220	7.290802e-03
221	7.212175e-03
222	7.129637e-03
223	7.052571e-03
224	6.971847e-03
225	6.896244e-03
226	6.817626e-03
227	6.743749e-03
228	6.667041e-03
229	6.594481e-03
230	6.519516e-03
231	6.448545e-03
232	6.375584e-03
233	6.306085e-03
234	6.234716e-03
235	6.166510e-03
236	6.096940e-03
237	6.030319e-03
238	5.962463e-03
239	5.897065e-03
240	5.830692e-03
241	5.766698e-03
242	5.702085e-03
243	5.639478e-03
244	5.576274e-03
245	5.514820e-03
246	5.453145e-03
247	5.393133e-03
248	5.332997e-03
249	5.274130e-03
250	5.215264e-03
251	5.157634e-03
252	5.100303e-03
253	5.043974e-03
254	4.987902e-03
255	4.932609e-03
256	4.877835e-03
257	4.823842e-03
258	4.770447e-03
259	4.717530e-03
260	4.665234e-03
261	4.613405e-03
262	4.562439e-03
263	4.511820e-03
264	4.461989e-03
265	4.412310e-03
266	4.363580e-03
267	4.315061e-03
268	4.267565e-03
269	4.220059e-03
270	4.173525e-03
271	4.126974e-03
272	4.081589e-03
273	4.036151e-03
274	3.991796e-03
275	3.947218e-03
276	3.903800e-03
277	3.860249e-03
278	3.817931e-03
279	3.775330e-03
280	3.733866e-03
281	3.692105e-03
282	3.651628e-03
283	3.610882e-03
284	3.571343e-03
285	3.531388e-03
286	3.492654e-03
287	3.453600e-03
288	3.415841e-03
289	3.377675e-03
290	3.340684e-03
291	3.303259e-03
292	3.267114e-03
293	3.230606e-03
294	3.195316e-03
295	3.159539e-03
296	3.124946e-03
297	3.089956e-03
298	3.056224e-03
299	3.022056e-03
300	2.989022e-03
301	2.955513e-03
302	2.923205e-03
303	2.890513e-03
304	2.858983e-03
305	2.826970e-03
306	2.796053e-03
307	2.764724e-03
308	2.734562e-03
309	2.703988e-03
310	2.674467e-03
311	2.644484e-03
312	2.615585e-03
313	2.586323e-03
314	2.558131e-03
315	2.529500e-03
316	2.501853e-03
317	2.473815e-03
318	2.446827e-03
319	2.419478e-03
320	2.393081e-03
321	2.366265e-03
322	2.340405e-03
323	2.314221e-03
324	2.288998e-03
325	2.263399e-03
326	2.238668e-03
327	2.213586e-03
328	2.189426e-03
329	2.164966e-03
330	2.141352e-03
331	2.117377e-03
332	2.094230e-03
333	2.070804e-03
334	2.048228e-03
335	2.025343e-03
336	2.003216e-03
337	1.980783e-03
338	1.959151e-03
339	1.937273e-03
340	1.916145e-03
341	1.894712e-03
342	1.873993e-03
343	1.853035e-03
344	1.832825e-03
345	1.812364e-03
346	1.792566e-03
347	1.772504e-03
348	1.753135e-03
349	1.733564e-03
350	1.714658e-03
351	1.695497e-03
352	1.676953e-03
353	1.658203e-03
354	1.640108e-03
355	1.621812e-03
356	1.604100e-03
357	1.586158e-03
358	1.568816e-03
359	1.551306e-03
360	1.534387e-03
361	1.517255e-03
362	1.500662e-03
363	1.483885e-03
364	1.467685e-03
365	1.451320e-03
366	1.435475e-03
367	1.419429e-03
368	1.403905e-03
369	1.388236e-03
370	1.373095e-03
371	1.357775e-03
372	1.342929e-03
373	1.327917e-03
374	1.313415e-03
375	1.298773e-03
376	1.284600e-03
377	1.270248e-03
378	1.256355e-03
379	1.242329e-03
380	1.228780e-03
381	1.215077e-03
382	1.201799e-03
383	1.188364e-03
384	1.175384e-03
385	1.162280e-03
386	1.149604e-03
387	1.136764e-03
388	1.124335e-03
389	1.111778e-03
390	1.099655e-03
391	1.087394e-03
392	1.075520e-03
393	1.063496e-03
394	1.051881e-03
395	1.040149e-03
396	1.028813e-03
397	1.017325e-03
398	1.006208e-03
399	9.949638e-04
400	9.841173e-04
401	9.731440e-04
402	9.625285e-04
403	9.517660e-04
404	9.413737e-04
405	9.308681e-04
406	9.207305e-04
407	9.104506e-04
408	9.005097e-04
409	8.904405e-04
410	8.807368e-04
411	8.709132e-04
412	8.614236e-04
413	8.517899e-04
414	8.424939e-04
415	8.330844e-04
416	8.240188e-04
417	8.148182e-04
418	8.059310e-04
419	7.969135e-04
420	7.882326e-04
421	7.794363e-04
422	7.709538e-04
423	7.623302e-04
424	7.540163e-04
425	7.455875e-04
426	7.374803e-04
427	7.292446e-04
428	7.213004e-04
429	7.132249e-04
430	7.054595e-04
431	6.975816e-04
432	6.899990e-04
433	6.822797e-04
434	6.748453e-04
435	6.672946e-04
436	6.600440e-04
437	6.526709e-04
438	6.455703e-04
439	6.383388e-04
440	6.313926e-04
441	6.243363e-04
442	6.175577e-04
443	6.106479e-04
444	6.040007e-04
445	5.972367e-04
446	5.907515e-04
447	5.841500e-04
448	5.778034e-04
449	5.713285e-04
450	5.651152e-04
451	5.587943e-04
452	5.527337e-04
453	5.465486e-04
454	5.406056e-04
455	5.345469e-04
456	5.287456e-04
457	5.228346e-04
458	5.171615e-04
459	5.113648e-04
460	5.058071e-04
461	5.001451e-04
462	4.947252e-04
463	4.891890e-04
464	4.838757e-04
465	4.784496e-04
466	4.732593e-04
467	4.679664e-04
468	4.628946e-04
469	4.577059e-04
470	4.527346e-04
471	4.476630e-04
472	4.428151e-04
473	4.378599e-04
474	4.331093e-04
475	4.282507e-04
476	4.236065e-04
477	4.188669e-04
478	4.143318e-04
479	4.096881e-04
480	4.052412e-04
481	4.006990e-04
482	3.963615e-04
483	3.919266e-04
484	3.876786e-04
485	3.833291e-04
486	3.791730e-04
487	3.749291e-04
488	3.708729e-04
489	3.667176e-04
490	3.627395e-04
491	3.586721e-04
492	3.547905e-04
493	3.508212e-04
494	3.470222e-04
495	3.431294e-04
496	3.394096e-04
497	3.356097e-04
498	3.319809e-04
499	3.282632e-04
500	3.247043e-04
501	3.210628e-04
502	3.175882e-04
503	3.140359e-04
504	3.106377e-04
505	3.071545e-04
506	3.038249e-04
507	3.004229e-04
508	2.971753e-04
509	2.938495e-04
510	2.906653e-04
511	2.874059e-04
512	2.842949e-04
513	2.811159e-04
514	2.780755e-04
515	2.749596e-04
516	2.719789e-04
517	2.689336e-04
518	2.660263e-04
519	2.630514e-04
520	2.602021e-04
521	2.572855e-04
522	2.544994e-04
523	2.516547e-04
524	2.489337e-04
525	2.461469e-04
526	2.434783e-04
527	2.407527e-04
528	2.381493e-04
529	2.354885e-04
530	2.329384e-04
531	2.303292e-04
532	2.278338e-04
533	2.252882e-04
534	2.228524e-04
535	2.203604e-04
536	2.179710e-04
537	2.155320e-04
538	2.132001e-04
539	2.108204e-04
540	2.085377e-04
541	2.062041e-04
542	2.039686e-04
543	2.016910e-04
544	1.995098e-04
545	1.972817e-04
546	1.951422e-04
547	1.929601e-04
548	1.908708e-04
549	1.887425e-04
550	1.866989e-04
551	1.846122e-04
552	1.826094e-04
553	1.805716e-04
554	1.786178e-04
555	1.766260e-04
556	1.747100e-04
557	1.727582e-04
558	1.708859e-04
559	1.689824e-04
560	1.671524e-04
561	1.652869e-04
562	1.634925e-04
563	1.616695e-04
564	1.599189e-04
565	1.581383e-04
566	1.564224e-04
567	1.546769e-04
568	1.529988e-04
569	1.512964e-04
570	1.496573e-04
571	1.479898e-04
572	1.463820e-04
573	1.447513e-04
574	1.431824e-04
575	1.415908e-04
576	1.400538e-04
577	1.384932e-04
578	1.369888e-04
579	1.354664e-04
580	1.339979e-04
581	1.325076e-04
582	1.310669e-04
583	1.296084e-04
584	1.282021e-04
585	1.267793e-04
586	1.254025e-04
587	1.240073e-04
588	1.226587e-04
589	1.212972e-04
590	1.199812e-04
591	1.186494e-04
592	1.173584e-04
593	1.160542e-04
594	1.147933e-04
595	1.135213e-04
596	1.122878e-04
597	1.110409e-04
598	1.098318e-04
599	1.086142e-04
600	1.074346e-04
601	1.062445e-04
602	1.050876e-04
603	1.039215e-04
604	1.027908e-04
605	1.016537e-04
606	1.005484e-04
607	9.943406e-05
608	9.835010e-05
609	9.726119e-05
610	9.620364e-05
611	9.514016e-05
612	9.410342e-05
613	9.306092e-05
614	9.204687e-05
615	9.103024e-05
616	9.003965e-05
617	8.904391e-05
618	8.807212e-05
619	8.709837e-05
620	8.615005e-05
621	8.519966e-05
622	8.427056e-05
623	8.333870e-05
624	8.242922e-05
625	8.152023e-05
626	8.063230e-05
627	7.974259e-05
628	7.887138e-05
629	7.800066e-05
630	7.715016e-05
631	7.630075e-05
632	7.546808e-05
633	7.463521e-05
634	7.381952e-05
635	7.300672e-05
636	7.221066e-05
637	7.141569e-05
638	7.063469e-05
639	6.985615e-05
640	6.909329e-05
641	6.833405e-05
642	6.758774e-05
643	6.684342e-05
644	6.611185e-05
645	6.538502e-05
646	6.467122e-05
647	6.396087e-05
648	6.326076e-05
649	6.256470e-05
650	6.188038e-05
651	6.120166e-05
652	6.053269e-05
653	5.986755e-05
654	5.921146e-05
655	5.856149e-05
656	5.792134e-05
657	5.728656e-05
658	5.665899e-05
659	5.603671e-05
660	5.542282e-05
661	5.481600e-05
662	5.421629e-05
663	5.362193e-05
664	5.303357e-05
665	5.245232e-05
666	5.187814e-05
667	5.131083e-05
668	5.074828e-05
669	5.019201e-05
670	4.964130e-05
671	4.909869e-05
672	4.856101e-05
673	4.802988e-05
674	4.750232e-05
675	4.698251e-05
676	4.646746e-05
677	4.596037e-05
678	4.545610e-05
679	4.495886e-05
680	4.446486e-05
681	4.397959e-05
682	4.349746e-05
683	4.302283e-05
684	4.254981e-05
685	4.208496e-05
686	4.162291e-05
687	4.116958e-05
688	4.071754e-05
689	4.027309e-05
690	3.982997e-05
691	3.939595e-05
692	3.896359e-05
693	3.853939e-05
694	3.811532e-05
695	3.769962e-05
696	3.728510e-05
697	3.687975e-05
698	3.647452e-05
699	3.607726e-05
700	3.567983e-05
701	3.529160e-05
702	3.490382e-05
703	3.452465e-05
704	3.414449e-05
705	3.377276e-05
706	3.340088e-05
707	3.303837e-05
708	3.267507e-05
709	3.231998e-05
710	3.196357e-05
711	3.161628e-05
712	3.126845e-05
713	3.092948e-05
714	3.058869e-05
715	3.025629e-05
716	2.992268e-05
717	2.959841e-05
718	2.927269e-05
719	2.895527e-05
720	2.863568e-05
721	2.832500e-05
722	2.801299e-05
723	2.770989e-05
724	2.740442e-05
725	2.710717e-05
726	2.680792e-05
727	2.651782e-05
728	2.622576e-05
729	2.594199e-05
730	2.565545e-05
731	2.537750e-05
732	2.509762e-05
733	2.482654e-05
734	2.455272e-05
735	2.428692e-05
736	2.401851e-05
737	2.375893e-05
738	2.349704e-05
739	2.324331e-05
740	2.298644e-05
741	2.273777e-05
742	2.248670e-05
743	2.224420e-05
744	2.199876e-05
745	2.176107e-05
746	2.152036e-05
747	2.128805e-05
748	2.105319e-05
749	2.082629e-05
750	2.059604e-05
751	2.037356e-05
752	2.014834e-05
753	1.993136e-05
754	1.971135e-05
755	1.949878e-05
756	1.928294e-05
757	1.907502e-05
758	1.886439e-05
759	1.866143e-05
760	1.845507e-05
761	1.825601e-05
762	1.805401e-05
763	1.785981e-05
764	1.766258e-05
765	1.747246e-05
766	1.727895e-05
767	1.709285e-05
768	1.690394e-05
769	1.672235e-05
770	1.653741e-05
771	1.635931e-05
772	1.617813e-05
773	1.600430e-05
774	1.582748e-05
775	1.565742e-05
776	1.548396e-05
777	1.531736e-05
778	1.514793e-05
779	1.498543e-05
780	1.481968e-05
781	1.466033e-05
782	1.449786e-05
783	1.434222e-05
784	1.418370e-05
785	1.403154e-05
786	1.387608e-05
787	1.372694e-05
788	1.357498e-05
789	1.342952e-05
790	1.328099e-05
791	1.313839e-05
792	1.299273e-05
793	1.285334e-05
794	1.271122e-05
795	1.257506e-05
796	1.243574e-05
797	1.230222e-05
798	1.216595e-05
799	1.203571e-05
800	1.190259e-05
801	1.177498e-05
802	1.164440e-05
803	1.151957e-05
804	1.139214e-05
805	1.127026e-05
806	1.114543e-05
807	1.102588e-05
808	1.090369e-05
809	1.078704e-05
810	1.066775e-05
811	1.055353e-05
812	1.043649e-05
813	1.032467e-05
814	1.021042e-05
815	1.010130e-05
816	9.989453e-06
817	9.882412e-06
818	9.772855e-06
819	9.668360e-06
820	9.561445e-06
821	9.459200e-06
822	9.354319e-06
823	9.254146e-06
824	9.151709e-06
825	9.053986e-06
826	8.953779e-06
827	8.857931e-06
828	8.759717e-06
829	8.666088e-06
830	8.570266e-06
831	8.478719e-06
832	8.384748e-06
833	8.295002e-06
834	8.203161e-06
835	8.115618e-06
836	8.025844e-06
837	7.940011e-06
838	7.851981e-06
839	7.768071e-06
840	7.682187e-06
841	7.600202e-06
842	7.516017e-06
843	7.435607e-06
844	7.353272e-06
845	7.274827e-06
846	7.194401e-06
847	7.117527e-06
848	7.038638e-06
849	6.963427e-06
850	6.886450e-06
851	6.813008e-06
852	6.737599e-06
853	6.665549e-06
854	6.591744e-06
855	6.521432e-06
856	6.449380e-06
857	6.380520e-06
858	6.309837e-06
859	6.242413e-06
860	6.173418e-06
861	6.107612e-06
862	6.040071e-06
863	5.975508e-06
864	5.909357e-06
865	5.846320e-06
866	5.781767e-06
867	5.720076e-06
868	5.656756e-06
869	5.596307e-06
870	5.534468e-06
871	5.475486e-06
872	5.414996e-06
873	5.357137e-06
874	5.297855e-06
875	5.241328e-06
876	5.183492e-06
877	5.128212e-06
878	5.071498e-06
879	5.017297e-06
880	4.961874e-06
881	4.908994e-06
882	4.854821e-06
883	4.802965e-06
884	4.749848e-06
885	4.699148e-06
886	4.647330e-06
887	4.597783e-06
888	4.546992e-06
889	4.498391e-06
890	4.448721e-06
891	4.401299e-06
892	4.352783e-06
893	4.306303e-06
894	4.258718e-06
895	4.213237e-06
896	4.166808e-06
897	4.122390e-06
898	4.076909e-06
899	4.033326e-06
900	3.988816e-06
901	3.946278e-06
902	3.902827e-06
903	3.861160e-06
904	3.818538e-06
905	3.777735e-06
906	3.736134e-06
907	3.696303e-06
908	3.655580e-06
909	3.616495e-06
910	3.576614e-06
911	3.538448e-06
912	3.499532e-06
913	3.462173e-06
914	3.424004e-06
915	3.387393e-06
916	3.350119e-06
917	3.314391e-06
918	3.277930e-06
919	3.242877e-06
920	3.207149e-06
921	3.172897e-06
922	3.138042e-06
923	3.104540e-06
924	3.070363e-06
925	3.037511e-06
926	3.004114e-06
927	2.972059e-06
928	2.939415e-06
929	2.907976e-06
930	2.875972e-06
931	2.845229e-06
932	2.814009e-06
933	2.783960e-06
934	2.753360e-06
935	2.723881e-06
936	2.693960e-06
937	2.665192e-06
938	2.635965e-06
939	2.607764e-06
940	2.579101e-06
941	2.551504e-06
942	2.523539e-06
943	2.496580e-06
944	2.469187e-06
945	2.442733e-06
946	2.415927e-06
947	2.390103e-06
948	2.363936e-06
949	2.338637e-06
950	2.312970e-06
951	2.288193e-06
952	2.263143e-06
953	2.238952e-06
954	2.214430e-06
955	2.190690e-06
956	2.166678e-06
957	2.143492e-06
958	2.120061e-06
959	2.097363e-06
960	2.074382e-06
961	2.052137e-06
962	2.029697e-06
963	2.007984e-06
964	1.986034e-06
965	1.964729e-06
966	1.943221e-06
967	1.922401e-06
968	1.901419e-06
969	1.881051e-06
970	1.860478e-06
971	1.840504e-06
972	1.820402e-06
973	1.800909e-06
974	1.781261e-06
975	1.762140e-06
976	1.742878e-06
977	1.724179e-06
978	1.705390e-06
979	1.687110e-06
980	1.668693e-06
981	1.650759e-06
982	1.632752e-06
983	1.615248e-06
984	1.597660e-06
985	1.580499e-06
986	1.563250e-06
987	1.546455e-06
988	1.529626e-06
989	1.513218e-06
990	1.496733e-06
991	1.480631e-06
992	1.464501e-06
993	1.448780e-06
994	1.433034e-06
995	1.417631e-06
996	1.402186e-06
997	1.387100e-06
998	1.372028e-06
999	1.357296e-06
1000	1.342541e-06
1001	1.328083e-06
1002	1.313635e-06
1003	1.299514e-06
1004	1.285416e-06
1005	1.271589e-06
1006	1.257762e-06
1007	1.244211e-06
1008	1.230710e-06
1009	1.217481e-06
1010	1.204275e-06
1011	1.191293e-06
1012	1.178353e-06
1013	1.165667e-06
1014	1.153043e-06
1015	1.140631e-06
1016	1.128253e-06
1017	1.116080e-06
1018	1.103987e-06
1019	1.092105e-06
1020	1.080284e-06
1021	1.068628e-06
1022	1.057040e-06
1023	1.045641e-06
1024	1.034337e-06
1025	1.023192e-06
1026	1.012112e-06
1027	1.001178e-06
1028	9.903449e-07
1029	9.796719e-07
1030	9.690896e-07
1031	9.586249e-07
1032	9.482475e-07
1033	9.380058e-07
1034	9.278812e-07
1035	9.178737e-07
1036	9.079557e-07
1037	8.981349e-07
1038	8.884306e-07
1039	8.788418e-07
1040	8.693677e-07
1041	8.599718e-07
1042	8.506796e-07
1043	8.414772e-07
1044	8.324084e-07
1045	8.234208e-07
1046	8.145429e-07
1047	8.057223e-07
1048	7.970295e-07
1049	7.884138e-07
1050	7.799308e-07
1051	7.714942e-07
1052	7.631743e-07
1053	7.549058e-07
1054	7.467819e-07
1055	7.387092e-07
1056	7.307619e-07
1057	7.228403e-07
1058	7.150538e-07
1059	7.073118e-07
1060	6.997151e-07
1061	6.921395e-07
1062	6.846904e-07
1063	6.772615e-07
1064	6.699834e-07
1065	6.627316e-07
1066	6.556168e-07
1067	6.485029e-07
1068	6.415284e-07
1069	6.345712e-07
1070	6.277671e-07
1071	6.209642e-07
1072	6.142949e-07
1073	6.076209e-07
1074	6.011002e-07
1075	5.945850e-07
1076	5.882147e-07
1077	5.818265e-07
1078	5.755795e-07
1079	5.693276e-07
1080	5.632325e-07
1081	5.571230e-07
1082	5.511518e-07
1083	5.451565e-07
1084	5.393140e-07
1085	5.334601e-07
1086	5.277556e-07
1087	5.220193e-07
1088	5.164241e-07
1089	5.108062e-07
1090	5.053453e-07
1091	4.998581e-07
1092	4.945116e-07
1093	4.891267e-07
1094	4.838917e-07
1095	4.786317e-07
1096	4.735224e-07
1097	4.683716e-07
1098	4.633603e-07
1099	4.583125e-07
1100	4.534191e-07
1101	4.484904e-07
1102	4.437029e-07
1103	4.388666e-07
1104	4.341759e-07
1105	4.294494e-07
1106	4.248725e-07
1107	4.202473e-07
1108	4.157590e-07
1109	4.112239e-07
1110	4.068385e-07
1111	4.024111e-07
1112	3.981235e-07
1113	3.937805e-07
1114	3.895774e-07
1115	3.853303e-07
1116	3.812295e-07
1117	3.770763e-07
1118	3.730563e-07
1119	3.689823e-07
1120	3.650517e-07
1121	3.610744e-07
1122	3.572340e-07
1123	3.533344e-07
1124	3.495682e-07
1125	3.457520e-07
1126	3.420770e-07
1127	3.383475e-07
1128	3.347468e-07
1129	3.310875e-07
1130	3.275642e-07
1131	3.239911e-07
1132	3.205506e-07
1133	3.170493e-07
1134	3.136746e-07
1135	3.102459e-07
1136	3.069518e-07
1137	3.036028e-07
1138	3.003773e-07
1139	2.970910e-07
1140	2.939326e-07
1141	2.907226e-07
1142	2.876397e-07
1143	2.844963e-07
1144	2.814722e-07
1145	2.783921e-07
1146	2.754389e-07
1147	2.724314e-07
1148	2.695416e-07
1149	2.665908e-07
1150	2.637593e-07
1151	2.608756e-07
1152	2.581124e-07
1153	2.552905e-07
1154	2.525806e-07
1155	2.498139e-07
1156	2.471660e-07
1157	2.444650e-07
1158	2.418756e-07
1159	2.392264e-07
1160	2.366879e-07
1161	2.340974e-07
1162	2.316203e-07
1163	2.290870e-07
1164	2.266585e-07
1165	2.241738e-07
1166	2.217991e-07
1167	2.193735e-07
1168	2.170528e-07
1169	2.146747e-07
1170	2.123988e-07
1171	2.100718e-07
1172	2.078506e-07
1173	2.055765e-07
1174	2.033999e-07
1175	2.011689e-07
1176	1.990391e-07
1177	1.968607e-07
1178	1.947804e-07
1179	1.926459e-07
1180	1.906053e-07
1181	1.885153e-07
1182	1.865232e-07
1183	1.844817e-07
1184	1.825308e-07
1185	1.805278e-07
1186	1.786174e-07
1187	1.766611e-07
1188	1.747959e-07
1189	1.728802e-07
1190	1.710505e-07
1191	1.691737e-07
1192	1.673866e-07
1193	1.655540e-07
1194	1.638050e-07
1195	1.620072e-07
1196	1.602934e-07
1197	1.585366e-07
1198	1.568638e-07
1199	1.551447e-07
1200	1.535040e-07
1201	1.518189e-07
1202	1.502154e-07
1203	1.485703e-07
1204	1.470021e-07
1205	1.453887e-07
1206	1.438512e-07
1207	1.422737e-07
1208	1.407730e-07
1209	1.392305e-07
1210	1.377591e-07
1211	1.362464e-07
1212	1.348074e-07
1213	1.333307e-07
1214	1.319242e-07
1215	1.304766e-07
1216	1.290971e-07
1217	1.276808e-07
1218	1.263343e-07
1219	1.249501e-07
1220	1.236304e-07
1221	1.222728e-07
1222	1.209813e-07
1223	1.196557e-07
1224	1.183940e-07
1225	1.170953e-07
1226	1.158576e-07
1227	1.145861e-07
1228	1.133776e-07
1229	1.121357e-07
1230	1.109519e-07
1231	1.097337e-07
1232	1.085744e-07
1233	1.073846e-07
1234	1.062525e-07
1235	1.050875e-07
1236	1.039768e-07
1237	1.028356e-07
1238	1.017507e-07
1239	1.006364e-07
1240	9.957442e-08
1241	9.848147e-08
1242	9.744077e-08
1243	9.637286e-08
1244	9.535681e-08
1245	9.431187e-08
1246	9.331521e-08
1247	9.229112e-08
1248	9.131698e-08
1249	9.031724e-08
1250	8.936427e-08
1251	8.838393e-08
1252	8.744959e-08
1253	8.649119e-08
1254	8.557906e-08
1255	8.464189e-08
1256	8.374743e-08
1257	8.282859e-08
1258	8.195377e-08
1259	8.105683e-08
1260	8.020153e-08
1261	7.932236e-08
1262	7.848345e-08
1263	7.762344e-08
1264	7.680439e-08
1265	7.596394e-08
1266	7.516111e-08
1267	7.433688e-08
1268	7.355114e-08
1269	7.274645e-08
1270	7.197865e-08
1271	7.119032e-08
1272	7.043705e-08
1273	6.966543e-08
1274	6.892980e-08
1275	6.817611e-08
1276	6.745543e-08
1277	6.671623e-08
1278	6.601042e-08
1279	6.528854e-08
1280	6.459911e-08
1281	6.389233e-08
1282	6.321593e-08
1283	6.252373e-08
1284	6.186288e-08
1285	6.118702e-08
1286	6.053999e-08
1287	5.987718e-08
1288	5.924311e-08
1289	5.859555e-08
1290	5.797635e-08
1291	5.734276e-08
1292	5.673533e-08
1293	5.611449e-08
1294	5.552071e-08
1295	5.491466e-08
1296	5.433366e-08
1297	5.373945e-08
1298	5.316979e-08
1299	5.258896e-08
1300	5.203271e-08
1301	5.146477e-08
1302	5.091924e-08
1303	5.036251e-08
1304	4.982891e-08
1305	4.928547e-08
1306	4.876367e-08
1307	4.823105e-08
1308	4.771923e-08
1309	4.719830e-08
1310	4.669849e-08
1311	4.618943e-08
1312	4.569946e-08
1313	4.520031e-08
1314	4.472074e-08
1315	4.423345e-08
1316	4.376472e-08
1317	4.328738e-08
1318	4.282752e-08
1319	4.236037e-08
1320	4.191118e-08
1321	4.145490e-08
1322	4.101479e-08
1323	4.056736e-08
1324	4.013630e-08
1325	3.969938e-08
1326	3.927824e-08
1327	3.885050e-08
1328	3.843730e-08
1329	3.801844e-08
1330	3.761468e-08
1331	3.720572e-08
1332	3.681035e-08
1333	3.640934e-08
1334	3.602187e-08
1335	3.563013e-08
1336	3.525167e-08
1337	3.486840e-08
1338	3.449712e-08
1339	3.412162e-08
1340	3.375864e-08
1341	3.339209e-08
1342	3.303686e-08
1343	3.267753e-08
1344	3.232923e-08
1345	3.197802e-08
1346	3.163785e-08
1347	3.129444e-08
1348	3.096082e-08
1349	3.062425e-08
1350	3.029788e-08
1351	2.996935e-08
1352	2.965015e-08
1353	2.932820e-08
1354	2.901511e-08
1355	2.870026e-08
1356	2.839445e-08
1357	2.808677e-08
1358	2.778698e-08
1359	2.748534e-08
1360	2.719189e-08
1361	2.689743e-08
1362	2.661055e-08
1363	2.632213e-08
1364	2.604068e-08
1365	2.575846e-08
1366	2.548350e-08
1367	2.520784e-08
1368	2.493842e-08
1369	2.466814e-08
1370	2.440426e-08
1371	2.414034e-08
1372	2.388248e-08
1373	2.362412e-08
1374	2.337113e-08
1375	2.311817e-08
1376	2.287092e-08
1377	2.262393e-08
1378	2.238181e-08
1379	2.213965e-08
1380	2.190237e-08
1381	2.166582e-08
1382	2.143401e-08
1383	2.120258e-08
1384	2.097517e-08
1385	2.074847e-08
1386	2.052613e-08
1387	2.030482e-08
1388	2.008720e-08
1389	1.987028e-08
1390	1.965691e-08
1391	1.944490e-08
1392	1.923648e-08
1393	1.902918e-08
1394	1.882478e-08
1395	1.862163e-08
1396	1.842166e-08
1397	1.822336e-08
1398	1.802776e-08
1399	1.783345e-08
1400	1.764160e-08
1401	1.745158e-08
1402	1.726418e-08
1403	1.707849e-08
1404	1.689476e-08
1405	1.671274e-08
1406	1.653290e-08
1407	1.635520e-08
1408	1.617937e-08
1409	1.600533e-08
1410	1.583284e-08
1411	1.566255e-08
1412	1.549402e-08
1413	1.532768e-08
1414	1.516254e-08
1415	1.499946e-08
1416	1.483772e-08
1417	1.467849e-08
1418	1.452042e-08
1419	1.436453e-08
1420	1.420946e-08
1421	1.405685e-08
1422	1.390529e-08
1423	1.375627e-08
1424	1.360784e-08
1425	1.346175e-08
1426	1.331630e-08
1427	1.317359e-08
1428	1.303148e-08
1429	1.289186e-08
1430	1.275246e-08
1431	1.261570e-08
1432	1.247939e-08
1433	1.234588e-08
1434	1.221247e-08
1435	1.208161e-08
1436	1.195081e-08
1437	1.182292e-08
1438	1.169514e-08
1439	1.157009e-08
1440	1.144478e-08
1441	1.132224e-08
1442	1.119965e-08
1443	1.108003e-08
1444	1.096011e-08
1445	1.084289e-08
1446	1.072529e-08
1447	1.061067e-08
1448	1.049578e-08
1449	1.038375e-08
1450	1.027113e-08
1451	1.016133e-08
1452	1.005109e-08
1453	9.943887e-09
1454	9.836099e-09
1455	9.731104e-09
1456	9.625376e-09
1457	9.522645e-09
1458	9.419340e-09
1459	9.318985e-09
1460	9.217763e-09
1461	9.119384e-09
1462	9.020252e-09
1463	8.924181e-09
1464	8.827293e-09
1465	8.733243e-09
1466	8.638204e-09
1467	8.546131e-09
1468	8.453243e-09
1469	8.363328e-09
1470	8.272362e-09
1471	8.184219e-09
1472	8.095088e-09
1473	8.008978e-09
1474	7.921890e-09
1475	7.837637e-09
1476	7.752220e-09
1477	7.669698e-09
1478	7.586180e-09
1479	7.505607e-09
1480	7.423864e-09
1481	7.344890e-09
1482	7.264762e-09
1483	7.187575e-09
1484	7.109294e-09
1485	7.033812e-09
1486	6.957053e-09
1487	6.883090e-09
1488	6.808003e-09
1489	6.735791e-09
1490	6.662339e-09
1491	6.591580e-09
1492	6.519557e-09
1493	6.450361e-09
1494	6.379999e-09
1495	6.312365e-09
1496	6.243397e-09
1497	6.177105e-09
1498	6.109604e-09
1499	6.044875e-09
1500	5.978876e-09
1501	5.915474e-09
1502	5.850749e-09
1503	5.788712e-09
1504	5.725470e-09
1505	5.664859e-09
1506	5.602899e-09
1507	5.543482e-09
1508	5.482809e-09
1509	5.424778e-09
1510	5.365479e-09
1511	5.308665e-09
1512	5.250508e-09
1513	5.194886e-09
1514	5.138048e-09
1515	5.083721e-09
1516	5.028064e-09
1517	4.974806e-09
1518	4.920280e-09
1519	4.868246e-09
1520	4.814970e-09
1521	4.764052e-09
1522	4.711808e-09
1523	4.661934e-09
1524	4.610855e-09
1525	4.562152e-09
1526	4.512162e-09
1527	4.464423e-09
1528	4.415431e-09
1529	4.368766e-09
1530	4.320904e-09
1531	4.275264e-09
1532	4.228341e-09
1533	4.183619e-09
1534	4.137722e-09
1535	4.094050e-09
1536	4.049156e-09
1537	4.006361e-09
1538	3.962350e-09
1539	3.920495e-09
1540	3.877500e-09
1541	3.836584e-09
1542	3.794447e-09
1543	3.754342e-09
1544	3.713108e-09
1545	3.673940e-09
1546	3.633626e-09
1547	3.595259e-09
1548	3.555731e-09
1549	3.518186e-09
1550	3.479566e-09
1551	3.442877e-09
1552	3.405046e-09
1553	3.369079e-09
1554	3.332040e-09
1555	3.296905e-09
1556	3.260707e-09
1557	3.226305e-09
1558	3.190812e-09
1559	3.157129e-09
1560	3.122443e-09
1561	3.089538e-09
1562	3.055578e-09
1563	3.023319e-09
1564	2.990055e-09
1565	2.958532e-09
1566	2.926032e-09
1567	2.895182e-09
1568	2.863319e-09
1569	2.833098e-09
1570	2.801949e-09
1571	2.772431e-09
1572	2.741950e-09
1573	2.713015e-09
1574	2.683148e-09
1575	2.654860e-09
1576	2.625684e-09
1577	2.598012e-09
1578	2.569415e-09
1579	2.542298e-09
1580	2.514329e-09
1581	2.487844e-09
1582	2.460489e-09
1583	2.434533e-09
1584	2.407723e-09
1585	2.382334e-09
1586	2.356143e-09
1587	2.331319e-09
1588	2.305657e-09
1589	2.281323e-09
1590	2.256215e-09
1591	2.232445e-09
1592	2.207899e-09
1593	2.184612e-09
1594	2.160551e-09
1595	2.137761e-09
1596	2.114254e-09
1597	2.091978e-09
1598	2.068956e-09
1599	2.047118e-09
1600	2.024581e-09
1601	2.003243e-09
1602	1.981221e-09
1603	1.960326e-09
1604	1.938737e-09
1605	1.918277e-09
1606	1.897181e-09
1607	1.877188e-09
1608	1.856537e-09
1609	1.836936e-09
1610	1.816713e-09
1611	1.797555e-09
1612	1.777798e-09
1613	1.759046e-09
1614	1.739681e-09
1615	1.721310e-09
1616	1.702380e-09
1617	1.684433e-09
1618	1.665912e-09
1619	1.648318e-09
1620	1.630174e-09
1621	1.612970e-09
1622	1.595247e-09
1623	1.578415e-09
1624	1.561048e-09
1625	1.544552e-09
1626	1.527569e-09
1627	1.511453e-09
1628	1.494846e-09
1629	1.479051e-09
1630	1.462777e-09
1631	1.447325e-09
1632	1.431429e-09
1633	1.416317e-09
1634	1.400745e-09
1635	1.385932e-09
1636	1.370698e-09
1637	1.356224e-09
1638	1.341333e-09
1639	1.327152e-09
1640	1.312559e-09
1641	1.298678e-09
1642	1.284422e-09
1643	1.270852e-09
1644	1.256893e-09
1645	1.243589e-09
1646	1.229926e-09
1647	1.216924e-09
1648	1.203574e-09
1649	1.190841e-09
1650	1.177757e-09
1651	1.165287e-09
1652	1.152503e-09
1653	1.140316e-09
1654	1.127804e-09
1655	1.115854e-09
1656	1.103604e-09
1657	1.091922e-09
1658	1.079955e-09
1659	1.068519e-09
1660	1.056792e-09
1661	1.045588e-09
1662	1.034125e-09
1663	1.023177e-09
1664	1.011964e-09
1665	1.001231e-09
1666	9.902483e-10
1667	9.797507e-10
1668	9.690239e-10
1669	9.587522e-10
1670	9.482429e-10
1671	9.381755e-10
1672	9.278998e-10
1673	9.180623e-10
1674	9.080149e-10
1675	8.983729e-10
1676	8.885295e-10
1677	8.790950e-10
1678	8.694808e-10
1679	8.602531e-10
1680	8.508369e-10
1681	8.417904e-10
1682	8.325796e-10
1683	8.237389e-10
1684	8.147366e-10
1685	8.060744e-10
1686	7.972536e-10
1687	7.887736e-10
1688	7.801574e-10
1689	7.718662e-10
1690	7.634307e-10
1691	7.553013e-10
1692	7.470463e-10
1693	7.391001e-10
1694	7.310347e-10
1695	7.232520e-10
1696	7.153492e-10
1697	7.077267e-10
1698	7.000053e-10
1699	6.925544e-10
1700	6.849984e-10
1701	6.776929e-10
1702	6.702958e-10
1703	6.631525e-10
1704	6.559271e-10
1705	6.489339e-10
1706	6.418546e-10
1707	6.350025e-10
1708	6.280838e-10
1709	6.213869e-10
1710	6.146195e-10
1711	6.080541e-10
1712	6.014267e-10
1713	5.950047e-10
1714	5.885319e-10
1715	5.822474e-10
1716	5.759070e-10
1717	5.697473e-10
1718	5.635483e-10
1719	5.575283e-10
1720	5.514675e-10
1721	5.455671e-10
1722	5.396304e-10
1723	5.338562e-10
1724	5.280579e-10
1725	5.224098e-10
1726	5.167318e-10
1727	5.111945e-10
1728	5.056408e-10
1729	5.002287e-10
1730	4.948011e-10
1731	4.894981e-10
1732	4.841808e-10
1733	4.789890e-10
1734	4.737950e-10
1735	4.687182e-10
1736	4.636340e-10
1737	4.586563e-10
1738	4.536813e-10
1739	4.488151e-10
1740	4.439546e-10
1741	4.391884e-10
1742	4.344265e-10
1743	4.297582e-10
1744	4.251058e-10
1745	4.205421e-10
1746	4.159898e-10
1747	4.115153e-10
1748	4.070591e-10
1749	4.026835e-10
1750	3.983308e-10
1751	3.940470e-10
1752	3.897829e-10
1753	3.855855e-10
1754	3.814182e-10
1755	3.773153e-10
1756	3.732395e-10
1757	3.692174e-10
1758	3.652263e-10
1759	3.612917e-10
1760	3.573936e-10
1761	3.535432e-10
1762	3.497253e-10
1763	3.459514e-10
1764	3.422187e-10
1765	3.385300e-10
1766	3.348808e-10
1767	3.312655e-10
1768	3.276912e-10
1769	3.241531e-10
1770	3.206622e-10
1771	3.172011e-10
1772	3.137830e-10
1773	3.103900e-10
1774	3.070467e-10
1775	3.037301e-10
1776	3.004628e-10
1777	2.972133e-10
1778	2.940126e-10
1779	2.908311e-10
1780	2.877046e-10
1781	2.845935e-10
1782	2.815332e-10
1783	2.784831e-10
1784	2.754886e-10
1785	2.725065e-10
1786	2.695810e-10
1787	2.666603e-10
1788	2.637943e-10
1789	2.609337e-10
1790	2.581335e-10
1791	2.553368e-10
1792	2.525970e-10
1793	2.498552e-10
1794	2.471733e-10
1795	2.444920e-10
1796	2.418723e-10
1797	2.392473e-10
1798	2.366811e-10
1799	2.341092e-10
1800	2.316011e-10
1801	2.290870e-10
1802	2.266341e-10
1803	2.241697e-10
1804	2.217678e-10
1805	2.193569e-10
1806	2.170109e-10
1807	2.146518e-10
1808	2.123541e-10
1809	2.100419e-10
1810	2.077954e-10
1811	2.055354e-10
1812	2.033391e-10
1813	2.011243e-10
1814	1.989731e-10
1815	1.968057e-10
1816	1.947045e-10
1817	1.925843e-10
1818	1.905269e-10
1819	1.884487e-10
1820	1.864363e-10
1821	1.844047e-10
1822	1.824380e-10
1823	1.804478e-10
1824	1.785212e-10
1825	1.765727e-10
1826	1.746906e-10
1827	1.727852e-10
1828	1.709430e-10
1829	1.690752e-10
1830	1.672725e-10
1831	1.654463e-10
1832	1.636850e-10
1833	1.618967e-10
1834	1.601713e-10
1835	1.584198e-10
1836	1.567337e-10
1837	1.550215e-10
1838	1.533718e-10
1839	1.516934e-10
1840	1.500785e-10
1841	1.484371e-10
1842	1.468595e-10
1843	1.452528e-10
1844	1.437074e-10
1845	1.421333e-10
1846	1.406227e-10
1847	1.390841e-10
1848	1.376066e-10
1849	1.360987e-10
1850	1.346518e-10
1851	1.331767e-10
1852	1.317634e-10
1853	1.303200e-10
1854	1.289358e-10
1855	1.275213e-10
1856	1.261678e-10
1857	1.247853e-10
1858	1.234619e-10
1859	1.221073e-10
1860	1.208110e-10
1861	1.194854e-10
1862	1.182190e-10
1863	1.169225e-10
1864	1.156826e-10
1865	1.144118e-10
1866	1.131988e-10
1867	1.119567e-10
1868	1.107711e-10
1869	1.095544e-10
1870	1.083930e-10
1871	1.072019e-10
1872	1.060671e-10
1873	1.049025e-10
1874	1.037917e-10
1875	1.026503e-10
1876	1.015631e-10
1877	1.004472e-10
1878	9.938488e-11
1879	9.829230e-11
1880	9.725152e-11
1881	9.618155e-11
1882	9.516439e-11
1883	9.411847e-11
1884	9.312319e-11
1885	9.209813e-11
1886	9.112366e-11
1887	9.012126e-11
1888	8.916920e-11
1889	8.818817e-11
1890	8.725547e-11
1891	8.629446e-11
1892	8.538261e-11
1893	8.444334e-11
1894	8.355142e-11
1895	8.263105e-11
1896	8.175750e-11
1897	8.085720e-11
1898	8.000376e-11
1899	7.912301e-11
1900	7.828708e-11
1901	7.742411e-11
1902	7.660653e-11
1903	7.576312e-11
1904	7.496369e-11
1905	7.413747e-11
1906	7.335431e-11
1907	7.254583e-11
1908	7.178064e-11
1909	7.099001e-11
1910	7.024071e-11
1911	6.946595e-11
1912	6.873278e-11
1913	6.797553e-11
1914	6.725884e-11
1915	6.651729e-11
1916	6.581508e-11
1917	6.508920e-11
1918	6.440298e-11
1919	6.369334e-11
1920	6.302158e-11
1921	6.232617e-11
1922	6.166860e-11
1923	6.098879e-11
1924	6.034615e-11
1925	5.968069e-11
1926	5.905101e-11
1927	5.839940e-11
1928	5.778387e-11
1929	5.714701e-11
1930	5.654466e-11
1931	5.592062e-11
1932	5.533076e-11
1933	5.472057e-11
1934	5.414418e-11
1935	5.354711e-11
1936	5.298238e-11
1937	5.239758e-11
1938	5.184535e-11
1939	5.127386e-11
1940	5.073364e-11
1941	5.017377e-11
1942	4.964458e-11
1943	4.909697e-11
1944	4.857987e-11
1945	4.804425e-11
1946	4.753770e-11
1947	4.701298e-11
1948	4.651744e-11
1949	4.600468e-11
1950	4.552008e-11
1951	4.501787e-11
1952	4.454306e-11
1953	4.405169e-11
1954	4.358768e-11
1955	4.310724e-11
1956	4.265281e-11
1957	4.218210e-11
1958	4.173736e-11
1959	4.127734e-11
1960	4.084254e-11
1961	4.039215e-11
1962	3.996607e-11
1963	3.952525e-11
1964	3.910878e-11
1965	3.867790e-11
1966	3.827016e-11
1967	3.784800e-11
1968	3.744878e-11
1969	3.703614e-11
1970	3.664593e-11
1971	3.624208e-11
1972	3.585968e-11
1973	3.546428e-11
1974	3.509040e-11
1975	3.470401e-11
1976	3.433810e-11
1977	3.395956e-11
1978	3.360116e-11
1979	3.323106e-11
1980	3.288078e-11
1981	3.251872e-11
1982	3.217548e-11
1983	3.182091e-11
1984	3.148520e-11
1985	3.113874e-11
1986	3.081029e-11
1987	3.047094e-11
1988	3.014914e-11
1989	2.981726e-11
1990	2.950275e-11
1991	2.917820e-11
1992	2.887007e-11
1993	2.855217e-11
1994	2.825067e-11
1995	2.794006e-11
1996	2.764518e-11
1997	2.734101e-11
1998	2.705204e-11
1999	2.675447e-11
2000	2.647202e-11
2001	2.618113e-11
2002	2.590448e-11
2003	2.561952e-11
2004	2.534871e-11
2005	2.507025e-11
2006	2.480546e-11
2007	2.453288e-11
2008	2.427336e-11
2009	2.400661e-11
2010	2.375289e-11
2011	2.349219e-11
2012	2.324377e-11
2013	2.298838e-11
2014	2.274510e-11
2015	2.249551e-11
2016	2.225768e-11
2017	2.201344e-11
2018	2.178035e-11
2019	2.154125e-11
2020	2.131331e-11
2021	2.107969e-11
2022	2.085658e-11
2023	2.062774e-11
2024	2.040917e-11
2025	2.018547e-11
2026	1.997181e-11
2027	1.975300e-11
2028	1.954362e-11
2029	1.932936e-11
2030	1.912453e-11
2031	1.891520e-11
2032	1.871478e-11
2033	1.850977e-11
2034	1.831338e-11
2035	1.811290e-11
2036	1.792093e-11
2037	1.772492e-11
2038	1.753682e-11
2039	1.734484e-11
2040	1.716076e-11
2041	1.697320e-11
2042	1.679314e-11
2043	1.660950e-11
2044	1.643302e-11
2045	1.625339e-11
2046	1.608087e-11
2047	1.590529e-11
2048	1.573629e-11
2049	1.556431e-11
2050	1.539885e-11
2051	1.523081e-11
2052	1.506902e-11
2053	1.490455e-11
2054	1.474595e-11
2055	1.458501e-11
2056	1.442994e-11
2057	1.427267e-11
2058	1.412082e-11
2059	1.396677e-11
2060	1.381805e-11
2061	1.366751e-11
2062	1.352210e-11
2063	1.337481e-11
2064	1.323228e-11
2065	1.308810e-11
2066	1.294870e-11
2067	1.280784e-11
2068	1.267138e-11
2069	1.253342e-11
2070	1.239972e-11
2071	1.226486e-11
2072	1.213416e-11
2073	1.200227e-11
2074	1.187417e-11
2075	1.174502e-11
2076	1.161969e-11
2077	1.149354e-11
2078	1.137089e-11
2079	1.124735e-11
2080	1.112716e-11
2081	1.100636e-11
2082	1.088886e-11
2083	1.077076e-11
2084	1.065562e-11
2085	1.053996e-11
2086	1.042727e-11
2087	1.031428e-11
2088	1.020404e-11
2089	1.009342e-11
2090	9.985371e-12
2091	9.877165e-12
2092	9.771526e-12
2093	9.665773e-12
2094	9.562286e-12
2095	9.458704e-12
2096	9.357376e-12
2097	9.256177e-12
2098	9.157084e-12
2099	9.058042e-12
2100	8.960902e-12
2101	8.863985e-12
2102	8.768997e-12
2103	8.674303e-12
2104	8.581281e-12
2105	8.488528e-12
2106	8.397414e-12
2107	8.306776e-12
2108	8.217689e-12
2109	8.129015e-12
2110	8.041687e-12
2111	7.954887e-12
2112	7.869470e-12
2113	7.784674e-12
2114	7.701057e-12
2115	7.618006e-12
2116	7.536077e-12
2117	7.454896e-12
2118	7.374799e-12
2119	7.295408e-12
2120	7.216902e-12
2121	7.139165e-12
2122	7.062352e-12
2123	6.986416e-12
2124	6.911249e-12
2125	6.836889e-12
2126	6.763221e-12
2127	6.690510e-12
2128	6.618490e-12
2129	6.547408e-12
2130	6.476834e-12
2131	6.407218e-12
2132	6.338141e-12
2133	6.270135e-12
2134	6.202561e-12
2135	6.135984e-12
2136	6.069747e-12
2137	6.004622e-12
2138	5.939861e-12
2139	5.876214e-12
2140	5.812772e-12
2141	5.750430e-12
2142	5.688311e-12
2143	5.627404e-12
2144	5.566654e-12
2145	5.507044e-12
2146	5.447492e-12
2147	5.389159e-12
2148	5.330925e-12
2149	5.273930e-12
2150	5.216902e-12
2151	5.161075e-12
2152	5.105216e-12
2153	5.050660e-12
2154	4.996043e-12
2155	4.942669e-12
2156	4.889132e-12
2157	4.836883e-12
2158	4.784517e-12
2159	4.733474e-12
2160	4.682212e-12
2161	4.632218e-12
2162	4.581992e-12
2163	4.533122e-12
2164	4.484018e-12
2165	4.436224e-12
2166	4.388097e-12
2167	4.341297e-12
2168	4.294209e-12
2169	4.248491e-12
2170	4.202413e-12
2171	4.157641e-12
2172	4.112484e-12
2173	4.068703e-12
2174	4.024556e-12
2175	3.981753e-12
2176	3.938495e-12
2177	3.896573e-12
2178	3.854233e-12
2179	3.813279e-12
2180	3.771862e-12
2181	3.731765e-12
2182	3.691169e-12
2183	3.651945e-12
2184	3.612254e-12
2185	3.573917e-12
2186	3.535038e-12
2187	3.497484e-12
2188	3.459417e-12
2189	3.422725e-12
2190	3.385498e-12
2191	3.349585e-12
2192	3.313094e-12
2193	3.277948e-12
2194	3.242266e-12
2195	3.207923e-12
2196	3.172983e-12
2197	3.139341e-12
2198	3.105118e-12
2199	3.072239e-12
2200	3.038780e-12
2201	3.006610e-12
2202	2.973814e-12
2203	2.942320e-12
2204	2.910243e-12
2205	2.879473e-12
2206	2.848075e-12
2207	2.817934e-12
2208	2.787172e-12
2209	2.757706e-12
2210	2.727634e-12
2211	2.698813e-12
2212	2.669342e-12
2213	2.641118e-12
2214	2.612284e-12
2215	2.584709e-12
2216	2.556496e-12
2217	2.529490e-12
2218	2.501844e-12
2219	2.475432e-12
2220	2.448405e-12
2221	2.422580e-12
2222	2.396101e-12
2223	2.370804e-12
2224	2.344889e-12
2225	2.320173e-12
2226	2.294824e-12
2227	2.270623e-12
2228	2.245780e-12
2229	2.222102e-12
2230	2.197815e-12
2231	2.174670e-12
2232	2.150881e-12
2233	2.128207e-12
2234	2.104917e-12
2235	2.082759e-12
2236	2.059985e-12
2237	2.038296e-12
2238	2.015975e-12
2239	1.994746e-12
2240	1.972921e-12
2241	1.952173e-12
2242	1.930805e-12
2243	1.910479e-12
2244	1.889552e-12
2245	1.869683e-12
2246	1.849223e-12
2247	1.829781e-12
2248	1.809731e-12
2249	1.790694e-12
2250	1.771084e-12
2251	1.752482e-12
2252	1.733290e-12
2253	1.715066e-12
2254	1.696265e-12
2255	1.678445e-12
2256	1.660067e-12
2257	1.642636e-12
2258	1.624628e-12
2259	1.607555e-12
2260	1.589937e-12
2261	1.573254e-12
2262	1.556018e-12
2263	1.539677e-12
2264	1.522790e-12
2265	1.506804e-12
2266	1.490297e-12
2267	1.474665e-12
2268	1.458495e-12
2269	1.443181e-12
2270	1.427355e-12
2271	1.412389e-12
2272	1.396913e-12
2273	1.382257e-12
2274	1.367091e-12
2275	1.352749e-12
2276	1.337923e-12
2277	1.323902e-12
2278	1.309384e-12
2279	1.295645e-12
2280	1.281432e-12
2281	1.268004e-12
2282	1.254107e-12
2283	1.240962e-12
2284	1.227344e-12
2285	1.214474e-12
2286	1.201160e-12
2287	1.188580e-12
2288	1.175547e-12
2289	1.163221e-12
2290	1.150458e-12
2291	1.138406e-12
2292	1.125930e-12
2293	1.114136e-12
2294	1.101911e-12
2295	1.090360e-12
2296	1.078405e-12
2297	1.067116e-12
2298	1.055417e-12
2299	1.044356e-12
2300	1.032897e-12
2301	1.022079e-12
2302	1.010879e-12
2303	1.000295e-12
2304	9.893234e-13
Solution time:	1.322700e+01
