LOSCx_Diag_Smooth...
1	5.915865e-01
2	5.161724e-01
3	4.369562e-01
4	3.781301e-01
5	3.099992e-01
6	2.989312e-01
7	2.765573e-01
8	2.614239e-01
9	2.593559e-01
10	2.593559e-01
11	2.400276e-01
12	2.391808e-01
13	2.391808e-01
14	2.138734e-01
15	2.118301e-01
16	2.118301e-01
17	2.097422e-01
18	1.876964e-01
19	1.876622e-01
20	1.871185e-01
21	1.783686e-01
22	1.783686e-01
23	1.780327e-01
24	1.780327e-01
25	1.780267e-01
26	1.780267e-01
27	1.673602e-01
28	1.532116e-01
29	1.450283e-01
30	1.441722e-01
31	1.441722e-01
32	1.413670e-01
33	1.409237e-01
34	1.409237e-01
35	1.409237e-01
36	1.404780e-01
37	1.403401e-01
38	1.385062e-01
39	1.385062e-01
40	1.385062e-01
41	1.385062e-01
42	1.385062e-01
43	1.385062e-01
44	1.385062e-01
45	1.385062e-01
46	1.384829e-01
47	1.384631e-01
48	1.384123e-01
49	1.383422e-01
50	1.377734e-01
51	1.368723e-01
52	1.368723e-01
53	1.368723e-01
54	1.362412e-01
55	1.297926e-01
56	1.220636e-01
57	1.219536e-01
58	1.194337e-01
59	1.130688e-01
60	1.078852e-01
61	1.078852e-01
62	1.078746e-01
63	1.069241e-01
64	1.062296e-01
65	1.032920e-01
66	1.032707e-01
67	1.032420e-01
68	9.906054e-02
69	9.905766e-02
70	9.905752e-02
71	9.845758e-02
72	9.845758e-02
73	9.627942e-02
74	9.602461e-02
75	9.492123e-02
76	9.474528e-02
77	9.148747e-02
78	8.793359e-02
79	8.793359e-02
80	8.680927e-02
81	8.536507e-02
82	8.061000e-02
83	8.011421e-02
84	7.980301e-02
85	7.952500e-02
86	7.945033e-02
87	7.859179e-02
88	7.747109e-02
89	7.694175e-02
90	7.621905e-02
91	7.600265e-02
92	7.600265e-02
93	7.600265e-02
94	7.570902e-02
95	7.567245e-02
96	7.566827e-02
97	7.566827e-02
98	7.566827e-02
99	7.566827e-02
100	7.566827e-02
101	7.566827e-02
102	7.566827e-02
103	7.566827e-02
104	7.566827e-02
105	7.566827e-02
106	7.566827e-02
107	7.566827e-02
108	7.564049e-02
109	7.562260e-02
110	7.561479e-02
111	7.528035e-02
112	7.527370e-02
113	7.490479e-02
114	7.416886e-02
115	7.412675e-02
116	7.412675e-02
117	7.404619e-02
118	7.404619e-02
119	7.404619e-02
120	7.404619e-02
121	7.365680e-02
122	7.331405e-02
123	7.021552e-02
124	7.020210e-02
125	7.020210e-02
126	6.682577e-02
127	6.681586e-02
128	6.669554e-02
129	6.227768e-02
130	6.080336e-02
131	5.931512e-02
132	5.662871e-02
133	5.624548e-02
134	5.590729e-02
135	5.556387e-02
136	5.340309e-02
137	5.340309e-02
138	5.339452e-02
139	5.339452e-02
140	5.306039e-02
141	5.154517e-02
142	4.736741e-02
143	4.592243e-02
144	4.522782e-02
145	4.460278e-02
146	4.445341e-02
147	4.445341e-02
148	4.443444e-02
149	4.432732e-02
150	4.424112e-02
151	4.384432e-02
152	4.367175e-02
153	4.366986e-02
154	4.364558e-02
155	4.335419e-02
156	4.239872e-02
157	4.239872e-02
158	4.228053e-02
159	4.084946e-02
160	4.041737e-02
161	4.041440e-02
162	4.031141e-02
163	4.027251e-02
164	3.991047e-02
165	3.943302e-02
166	3.943302e-02
167	3.942994e-02
168	3.942994e-02
169	3.942994e-02
170	3.872403e-02
171	3.872403e-02
172	3.872403e-02
173	3.872403e-02
174	3.872403e-02
175	3.389005e-02
176	3.125046e-02
177	2.974762e-02
178	2.968262e-02
179	2.968262e-02
180	2.926107e-02
181	2.926107e-02
182	2.891906e-02
183	2.839438e-02
184	2.839438e-02
185	2.839438e-02
186	2.839438e-02
187	2.838793e-02
188	2.831596e-02
189	2.831468e-02
190	2.831028e-02
191	2.831027e-02
192	2.831027e-02
193	2.831027e-02
194	2.831027e-02
195	2.831027e-02
196	2.831027e-02
197	2.831027e-02
198	2.831027e-02
199	2.745570e-02
200	2.673548e-02
201	2.527771e-02
202	2.499640e-02
203	2.499640e-02
204	2.494587e-02
205	2.473999e-02
206	2.398000e-02
207	2.314304e-02
208	2.226287e-02
209	2.226033e-02
210	2.184570e-02
211	2.168332e-02
212	2.162824e-02
213	2.147091e-02
214	2.126903e-02
215	2.062924e-02
216	1.996987e-02
217	1.981438e-02
218	1.981438e-02
219	1.981438e-02
220	1.981142e-02
221	1.981142e-02
222	1.944247e-02
223	1.942295e-02
224	1.942295e-02
225	1.857191e-02
226	1.857060e-02
227	1.857060e-02
228	1.856623e-02
229	1.830351e-02
230	1.829319e-02
231	1.826653e-02
232	1.824695e-02
233	1.823021e-02
234	1.817126e-02
235	1.817126e-02
236	1.817126e-02
237	1.817126e-02
238	1.817126e-02
239	1.817126e-02
240	1.817126e-02
241	1.817126e-02
242	1.817126e-02
243	1.817126e-02
244	1.817126e-02
245	1.815486e-02
246	1.805286e-02
247	1.756286e-02
248	1.752397e-02
249	1.696585e-02
250	1.611274e-02
251	1.527337e-02
252	1.508766e-02
253	1.503314e-02
254	1.500850e-02
255	1.500724e-02
256	1.500724e-02
257	1.500724e-02
258	1.500724e-02
259	1.439695e-02
260	1.425034e-02
261	1.413331e-02
262	1.408301e-02
263	1.408301e-02
264	1.408301e-02
265	1.408301e-02
266	1.408301e-02
267	1.408301e-02
268	1.196515e-02
269	1.189604e-02
270	1.031431e-02
271	1.028352e-02
272	1.028062e-02
273	1.026355e-02
274	1.025767e-02
275	1.025767e-02
276	1.025767e-02
277	1.022366e-02
278	1.022366e-02
279	1.022366e-02
280	1.001127e-02
281	9.740137e-03
282	9.709627e-03
283	9.648239e-03
284	9.648239e-03
285	9.296993e-03
286	9.273021e-03
287	9.273021e-03
288	9.273021e-03
289	9.273021e-03
290	9.273021e-03
291	9.273021e-03
292	9.273021e-03
293	9.273021e-03
294	9.273021e-03
295	9.273021e-03
296	9.273021e-03
297	9.273021e-03
298	9.248476e-03
299	7.867949e-03
300	7.687010e-03
301	7.582581e-03
302	7.582581e-03
303	7.553324e-03
304	7.553324e-03
305	7.553324e-03
306	7.533281e-03
307	7.529784e-03
308	7.521055e-03
309	7.457894e-03
310	7.427717e-03
311	7.367405e-03
312	6.722588e-03
313	6.242855e-03
314	6.242855e-03
315	6.242855e-03
316	6.242855e-03
317	6.242855e-03
318	6.242855e-03
319	6.242855e-03
320	5.985654e-03
321	5.869564e-03
322	5.869564e-03
323	5.811084e-03
324	5.797154e-03
325	5.789672e-03
326	5.789672e-03
327	5.732268e-03
328	5.700805e-03
329	5.372024e-03
330	5.371142e-03
331	5.194679e-03
332	5.047256e-03
333	4.965474e-03
334	4.920323e-03
335	4.911728e-03
336	4.909395e-03
337	4.909028e-03
338	4.902437e-03
339	4.893852e-03
340	4.893852e-03
341	4.863957e-03
342	4.863058e-03
343	4.863058e-03
344	4.863058e-03
345	4.634882e-03
346	4.633141e-03
347	4.630655e-03
348	4.630655e-03
349	4.600884e-03
350	4.600884e-03
351	4.600884e-03
352	4.600884e-03
353	4.600884e-03
354	4.600884e-03
355	4.600884e-03
356	4.600884e-03
357	4.600884e-03
358	4.600884e-03
359	4.600884e-03
360	4.600884e-03
361	4.600884e-03
362	4.600884e-03
363	4.600884e-03
364	4.600884e-03
365	4.555099e-03
366	4.555099e-03
367	4.555099e-03
368	4.555099e-03
369	4.555099e-03
370	4.550122e-03
371	4.550122e-03
372	4.550122e-03
373	4.550122e-03
374	4.550122e-03
375	4.550122e-03
376	4.550122e-03
377	4.550122e-03
378	4.550122e-03
379	4.550122e-03
380	4.550122e-03
381	4.550122e-03
382	4.550122e-03
383	4.550122e-03
384	4.550122e-03
385	4.550122e-03
386	4.550122e-03
387	4.550122e-03
388	4.540462e-03
389	3.927859e-03
390	3.927859e-03
391	3.917611e-03
392	3.890811e-03
393	3.890811e-03
394	3.890811e-03
395	3.890811e-03
396	3.877548e-03
397	3.877548e-03
398	3.835068e-03
399	3.774332e-03
400	3.611356e-03
401	3.527449e-03
402	3.527449e-03
403	3.527449e-03
404	3.526575e-03
405	3.526575e-03
406	3.526575e-03
407	3.526575e-03
408	3.526575e-03
409	3.456651e-03
410	3.456651e-03
411	3.456651e-03
412	3.456651e-03
413	3.456651e-03
414	3.456651e-03
415	3.456651e-03
416	3.456651e-03
417	3.437392e-03
418	3.324810e-03
419	3.132932e-03
420	2.550735e-03
421	2.550735e-03
422	2.550735e-03
423	2.550735e-03
424	2.550735e-03
425	2.435117e-03
426	2.408269e-03
427	2.407854e-03
428	2.407693e-03
429	2.339165e-03
430	2.247103e-03
431	2.245506e-03
432	2.190710e-03
433	2.177698e-03
434	2.177698e-03
435	2.176578e-03
436	1.848815e-03
437	1.848815e-03
438	1.848815e-03
439	1.848815e-03
440	1.845218e-03
441	1.844221e-03
442	1.844221e-03
443	1.784103e-03
444	1.518828e-03
445	1.518827e-03
446	1.518827e-03
447	1.518397e-03
448	1.518328e-03
449	1.518328e-03
450	1.518328e-03
451	1.518328e-03
452	1.518328e-03
453	1.518328e-03
454	1.451390e-03
455	1.376683e-03
456	1.370904e-03
457	1.370904e-03
458	1.370904e-03
459	1.369894e-03
460	1.369325e-03
461	1.369325e-03
462	1.369325e-03
463	1.369070e-03
464	1.367992e-03
465	1.358412e-03
466	1.322074e-03
467	1.293640e-03
468	1.293640e-03
469	1.293640e-03
470	1.291447e-03
471	1.291447e-03
472	1.276233e-03
473	1.276233e-03
474	1.275254e-03
475	1.275205e-03
476	1.275205e-03
477	1.275205e-03
478	1.275205e-03
479	1.275205e-03
480	1.275205e-03
481	1.260000e-03
482	1.260000e-03
483	1.260000e-03
484	1.260000e-03
485	1.251048e-03
486	1.152666e-03
487	1.151442e-03
488	1.144993e-03
489	1.140888e-03
490	1.138377e-03
491	1.138377e-03
492	1.138377e-03
493	1.138110e-03
494	1.106248e-03
495	1.094292e-03
496	1.094254e-03
497	1.094254e-03
498	1.092089e-03
499	1.091641e-03
500	1.091330e-03
501	1.089868e-03
502	1.089795e-03
503	1.088884e-03
504	1.084030e-03
505	1.084030e-03
506	1.084030e-03
507	1.084030e-03
508	1.076106e-03
509	1.071231e-03
510	1.071174e-03
511	1.071174e-03
512	1.071174e-03
513	1.071174e-03
514	1.071174e-03
515	1.071174e-03
516	1.071174e-03
517	1.071174e-03
518	1.071174e-03
519	1.068452e-03
520	1.068452e-03
521	1.068452e-03
522	1.068452e-03
523	1.068452e-03
524	1.068452e-03
525	1.068452e-03
526	1.068452e-03
527	1.068452e-03
528	1.068452e-03
529	1.068452e-03
530	1.068452e-03
531	1.068452e-03
532	1.068452e-03
533	1.068452e-03
534	1.068452e-03
535	1.068452e-03
536	1.068452e-03
537	1.068452e-03
538	1.068452e-03
539	1.068452e-03
540	1.068452e-03
541	1.068452e-03
542	1.068452e-03
543	1.068452e-03
544	1.068452e-03
545	1.066659e-03
546	1.066659e-03
547	1.066659e-03
548	1.066659e-03
549	1.063495e-03
550	1.062837e-03
551	1.062174e-03
552	1.062174e-03
553	1.053637e-03
554	1.053529e-03
555	1.053529e-03
556	1.049457e-03
557	8.750090e-04
558	8.747893e-04
559	8.332873e-04
560	8.300412e-04
561	8.196605e-04
562	8.074799e-04
563	8.058146e-04
564	8.058146e-04
565	7.241020e-04
566	7.161997e-04
567	7.161997e-04
568	7.161997e-04
569	7.113681e-04
570	7.113681e-04
571	6.868101e-04
572	6.861341e-04
573	6.856037e-04
574	6.816852e-04
575	6.815429e-04
576	6.796933e-04
577	6.796933e-04
578	6.796933e-04
579	6.679611e-04
580	6.612245e-04
581	6.490332e-04
582	6.463834e-04
583	6.447048e-04
584	6.107085e-04
585	6.069938e-04
586	6.069938e-04
587	6.069938e-04
588	6.031199e-04
589	5.873439e-04
590	5.865189e-04
591	5.865189e-04
592	5.781464e-04
593	5.289426e-04
594	5.231778e-04
595	5.161581e-04
596	5.155360e-04
597	5.094788e-04
598	4.993375e-04
599	4.949592e-04
600	4.947829e-04
601	4.936326e-04
602	4.931518e-04
603	4.929410e-04
604	4.873154e-04
605	4.753356e-04
606	4.691619e-04
607	4.691147e-04
608	4.603114e-04
609	4.602648e-04
610	4.602648e-04
611	4.583109e-04
612	4.458950e-04
613	4.458950e-04
614	4.458950e-04
615	4.426056e-04
616	4.133126e-04
617	4.133126e-04
618	3.791231e-04
619	3.752250e-04
620	3.737736e-04
621	3.661030e-04
622	3.641777e-04
623	3.430313e-04
624	3.290451e-04
625	3.178561e-04
626	3.122197e-04
627	3.122197e-04
628	3.121593e-04
629	3.031130e-04
630	2.863293e-04
631	2.830733e-04
632	2.827217e-04
633	2.607840e-04
634	2.507751e-04
635	2.507751e-04
636	2.384879e-04
637	2.384879e-04
638	2.384879e-04
639	2.363931e-04
640	2.358454e-04
641	2.314174e-04
642	2.293781e-04
643	2.293781e-04
644	2.293781e-04
645	2.293781e-04
646	2.293781e-04
647	2.293781e-04
648	2.293781e-04
649	2.293781e-04
650	2.293781e-04
651	2.293781e-04
652	2.293781e-04
653	2.293159e-04
654	2.261121e-04
655	2.261121e-04
656	2.155465e-04
657	2.152844e-04
658	2.152844e-04
659	2.152844e-04
660	2.141519e-04
661	2.141519e-04
662	2.141519e-04
663	2.141519e-04
664	2.141519e-04
665	2.141087e-04
666	2.141087e-04
667	2.140899e-04
668	2.130980e-04
669	2.122133e-04
670	2.082829e-04
671	2.018513e-04
672	1.968765e-04
673	1.965751e-04
674	1.911212e-04
675	1.908651e-04
676	1.843293e-04
677	1.843293e-04
678	1.843293e-04
679	1.835298e-04
680	1.834354e-04
681	1.834349e-04
682	1.833949e-04
683	1.833949e-04
684	1.833949e-04
685	1.833755e-04
686	1.833755e-04
687	1.825005e-04
688	1.825005e-04
689	1.825005e-04
690	1.825005e-04
691	1.825005e-04
692	1.825005e-04
693	1.825005e-04
694	1.825005e-04
695	1.825005e-04
696	1.825005e-04
697	1.825005e-04
698	1.825005e-04
699	1.825005e-04
700	1.825005e-04
701	1.789019e-04
702	1.699982e-04
703	1.690372e-04
704	1.690331e-04
705	1.681627e-04
706	1.681627e-04
707	1.681627e-04
708	1.678294e-04
709	1.678294e-04
710	1.672590e-04
711	1.659912e-04
712	1.652562e-04
713	1.565720e-04
714	1.565267e-04
715	1.565267e-04
716	1.565267e-04
717	1.526796e-04
718	1.493798e-04
719	1.480601e-04
720	1.478732e-04
721	1.478717e-04
722	1.478717e-04
723	1.478717e-04
724	1.478546e-04
725	1.478546e-04
726	1.478545e-04
727	1.478518e-04
728	1.478241e-04
729	1.478241e-04
730	1.478241e-04
731	1.478241e-04
732	1.478241e-04
733	1.478241e-04
734	1.465919e-04
735	1.465919e-04
736	1.465902e-04
737	1.457202e-04
738	1.441150e-04
739	1.441150e-04
740	1.382052e-04
741	1.276076e-04
742	1.276076e-04
743	1.275611e-04
744	1.275611e-04
745	1.275611e-04
746	1.275611e-04
747	1.275611e-04
748	1.275611e-04
749	1.275611e-04
750	1.275611e-04
751	1.275611e-04
752	1.275611e-04
753	1.275611e-04
754	1.275611e-04
755	1.275611e-04
756	1.275611e-04
757	1.275611e-04
758	1.275611e-04
759	1.275611e-04
760	1.275611e-04
761	1.275611e-04
762	1.275611e-04
763	1.275611e-04
764	1.151238e-04
765	1.149209e-04
766	1.121521e-04
767	1.113454e-04
768	1.038631e-04
769	1.017245e-04
770	1.017245e-04
771	1.017245e-04
772	1.017245e-04
773	1.017245e-04
774	1.017245e-04
775	1.017245e-04
776	1.017245e-04
777	1.017245e-04
778	1.017245e-04
779	1.017245e-04
780	1.017245e-04
781	1.017245e-04
782	1.017245e-04
783	1.017245e-04
784	1.017245e-04
785	1.017245e-04
786	1.017245e-04
787	1.017245e-04
788	1.017245e-04
789	1.017245e-04
790	1.017245e-04
791	1.017245e-04
792	1.017245e-04
793	1.017245e-04
794	1.017245e-04
795	1.017245e-04
796	1.017245e-04
797	1.017245e-04
798	9.486566e-05
799	9.486566e-05
800	9.486566e-05
801	9.486566e-05
802	9.486566e-05
803	9.486566e-05
804	9.486566e-05
805	9.486566e-05
806	9.486566e-05
807	9.486566e-05
808	9.486566e-05
809	9.486566e-05
810	9.486566e-05
811	9.486566e-05
812	9.486566e-05
813	9.486566e-05
814	9.486566e-05
815	9.486566e-05
816	9.486566e-05
817	9.486566e-05
818	9.486566e-05
819	9.486566e-05
820	9.346324e-05
821	9.331758e-05
822	9.036303e-05
823	9.036303e-05
824	9.036303e-05
825	9.036303e-05
826	9.036303e-05
827	9.036303e-05
828	9.036303e-05
829	9.036303e-05
830	9.036303e-05
831	9.036303e-05
832	9.036303e-05
833	9.036303e-05
834	9.036303e-05
835	9.036303e-05
836	9.036303e-05
837	9.036303e-05
838	9.036303e-05
839	9.036303e-05
840	9.036303e-05
841	9.036303e-05
842	5.943148e-05
843	3.735094e-05
844	3.683384e-05
845	3.676382e-05
846	3.563418e-05
847	3.563418e-05
848	3.561006e-05
849	3.545209e-05
850	3.545209e-05
851	3.545209e-05
852	3.545209e-05
853	3.545209e-05
854	3.545209e-05
855	3.545191e-05
856	3.543859e-05
857	3.543315e-05
858	3.531086e-05
859	3.531086e-05
860	3.531086e-05
861	3.531086e-05
862	3.531086e-05
863	3.531086e-05
864	3.531086e-05
865	3.531086e-05
866	3.531086e-05
867	3.531086e-05
868	3.531086e-05
869	3.531086e-05
870	3.531086e-05
871	3.531086e-05
872	3.531086e-05
873	3.225914e-05
874	3.147659e-05
875	3.147659e-05
876	3.147659e-05
877	3.147349e-05
878	3.093129e-05
879	3.082343e-05
880	3.082343e-05
881	3.082343e-05
882	3.082343e-05
883	3.082343e-05
884	3.082343e-05
885	3.082343e-05
886	3.082343e-05
887	3.082343e-05
888	3.082343e-05
889	3.082343e-05
890	3.082343e-05
891	3.082343e-05
892	3.082343e-05
893	3.082343e-05
894	2.992543e-05
895	2.992543e-05
896	2.992543e-05
897	2.898983e-05
898	2.897870e-05
899	2.555593e-05
900	2.354719e-05
901	2.354719e-05
902	2.087610e-05
903	2.087610e-05
904	2.087610e-05
905	2.087610e-05
906	2.087610e-05
907	2.087610e-05
908	2.087610e-05
909	2.087610e-05
910	2.087610e-05
911	2.087610e-05
912	2.087610e-05
913	2.087610e-05
914	2.087610e-05
915	2.065380e-05
916	2.022345e-05
917	1.886095e-05
918	1.710381e-05
919	1.687518e-05
920	1.687518e-05
921	1.687518e-05
922	1.687518e-05
923	1.687518e-05
924	1.599843e-05
925	1.599808e-05
926	1.599808e-05
927	1.599808e-05
928	1.598757e-05
929	1.598125e-05
930	1.596879e-05
931	1.596011e-05
932	1.596011e-05
933	1.596011e-05
934	1.596006e-05
935	1.595411e-05
936	1.595411e-05
937	1.595175e-05
938	1.595175e-05
939	1.595175e-05
940	1.595175e-05
941	1.595175e-05
942	1.593594e-05
943	1.593594e-05
944	1.538269e-05
945	1.538269e-05
946	1.538269e-05
947	1.538269e-05
948	1.538269e-05
949	1.538269e-05
950	1.538269e-05
951	1.538269e-05
952	1.538269e-05
953	1.538269e-05
954	1.538269e-05
955	1.537301e-05
956	1.531956e-05
957	1.531849e-05
958	1.531070e-05
959	1.531070e-05
960	1.531070e-05
961	1.531070e-05
962	1.531070e-05
963	1.531070e-05
964	1.522171e-05
965	1.522171e-05
966	1.522171e-05
967	1.522171e-05
968	1.522171e-05
969	1.522171e-05
970	1.522171e-05
971	1.522171e-05
972	1.522171e-05
973	1.522171e-05
974	1.522171e-05
975	1.522171e-05
976	1.522171e-05
977	1.522171e-05
978	1.522171e-05
979	1.522171e-05
980	1.522171e-05
981	1.522171e-05
982	1.482859e-05
983	1.279016e-05
984	1.279016e-05
985	1.279016e-05
986	1.145036e-05
987	9.778055e-06
988	9.731947e-06
989	9.493213e-06
990	8.751350e-06
991	8.727792e-06
992	7.952896e-06
993	7.909304e-06
994	7.896277e-06
995	7.896277e-06
996	7.896277e-06
997	7.896277e-06
998	7.896277e-06
999	7.870058e-06
1000	7.843355e-06
1001	7.831401e-06
1002	7.815591e-06
1003	7.763155e-06
1004	7.723622e-06
1005	7.723622e-06
1006	7.723622e-06
1007	7.717073e-06
1008	7.717073e-06
1009	7.717073e-06
1010	7.717073e-06
1011	7.717073e-06
1012	7.662469e-06
1013	7.662469e-06
1014	7.662469e-06
1015	7.662469e-06
1016	7.659124e-06
1017	7.659124e-06
1018	7.659124e-06
1019	7.659124e-06
1020	7.659124e-06
1021	7.659124e-06
1022	7.659124e-06
1023	7.659124e-06
1024	7.659124e-06
1025	7.659124e-06
1026	7.659124e-06
1027	7.659124e-06
1028	7.659124e-06
1029	7.659124e-06
1030	7.659124e-06
1031	7.659124e-06
1032	7.659124e-06
1033	7.659124e-06
1034	7.659124e-06
1035	7.659124e-06
1036	7.659124e-06
1037	7.659124e-06
1038	7.659124e-06
1039	7.659124e-06
1040	7.659124e-06
1041	7.659124e-06
1042	7.659124e-06
1043	7.659124e-06
1044	7.659124e-06
1045	7.659124e-06
1046	7.659124e-06
1047	7.553416e-06
1048	7.553416e-06
1049	7.219951e-06
1050	7.219951e-06
1051	7.219951e-06
1052	7.219179e-06
1053	7.045231e-06
1054	7.045231e-06
1055	6.264700e-06
1056	5.379031e-06
1057	5.379031e-06
1058	4.361884e-06
1059	4.150035e-06
1060	3.909528e-06
1061	3.909528e-06
1062	3.499760e-06
1063	3.072413e-06
1064	2.575066e-06
1065	2.462921e-06
1066	2.462921e-06
1067	2.457832e-06
1068	2.457832e-06
1069	2.457114e-06
1070	2.457114e-06
1071	2.457114e-06
1072	2.457114e-06
1073	2.457114e-06
1074	2.455979e-06
1075	2.446925e-06
1076	2.446925e-06
1077	2.446925e-06
1078	2.425180e-06
1079	2.354603e-06
1080	2.354551e-06
1081	2.354551e-06
1082	2.350097e-06
1083	2.345882e-06
1084	2.345857e-06
1085	2.345857e-06
1086	2.345857e-06
1087	2.345857e-06
1088	2.341614e-06
1089	2.341535e-06
1090	2.341535e-06
1091	2.339227e-06
1092	2.327849e-06
1093	2.327849e-06
1094	2.327849e-06
1095	2.327849e-06
1096	2.327849e-06
1097	2.327849e-06
1098	2.327849e-06
1099	2.327849e-06
1100	2.318286e-06
1101	2.318286e-06
1102	2.306436e-06
1103	2.302462e-06
1104	2.299158e-06
1105	2.299158e-06
1106	2.299158e-06
1107	2.299158e-06
1108	2.299018e-06
1109	2.299018e-06
1110	2.298915e-06
1111	2.298915e-06
1112	2.298915e-06
1113	2.298915e-06
1114	2.298706e-06
1115	2.298706e-06
1116	2.294688e-06
1117	2.273611e-06
1118	2.273555e-06
1119	2.268114e-06
1120	2.266984e-06
1121	2.266983e-06
1122	2.265657e-06
1123	2.265084e-06
1124	2.263638e-06
1125	2.263638e-06
1126	2.263638e-06
1127	2.263638e-06
1128	2.263638e-06
1129	2.263638e-06
1130	2.263638e-06
1131	2.263638e-06
1132	2.263638e-06
1133	2.263638e-06
1134	2.263638e-06
1135	2.263638e-06
1136	2.263638e-06
1137	2.263638e-06
1138	2.263620e-06
1139	2.263619e-06
1140	2.263619e-06
1141	2.263302e-06
1142	2.263302e-06
1143	2.263302e-06
1144	2.263302e-06
1145	2.260863e-06
1146	2.252477e-06
1147	2.252477e-06
1148	2.252380e-06
1149	2.252380e-06
1150	2.249457e-06
1151	2.248753e-06
1152	2.245081e-06
1153	2.244313e-06
1154	2.244313e-06
1155	2.244313e-06
1156	2.244313e-06
1157	2.244313e-06
1158	2.244313e-06
1159	2.235468e-06
1160	2.235468e-06
1161	2.231153e-06
1162	2.231140e-06
1163	2.196425e-06
1164	2.187132e-06
1165	2.114019e-06
1166	2.092084e-06
1167	2.083088e-06
1168	2.083088e-06
1169	2.079171e-06
1170	2.067804e-06
1171	2.050260e-06
1172	1.979575e-06
1173	1.979575e-06
1174	1.979452e-06
1175	1.979416e-06
1176	1.974384e-06
1177	1.962951e-06
1178	1.881358e-06
1179	1.872172e-06
1180	1.872172e-06
1181	1.872172e-06
1182	1.872172e-06
1183	1.872172e-06
1184	1.872172e-06
1185	1.872172e-06
1186	1.872172e-06
1187	1.871994e-06
1188	1.824566e-06
1189	1.824566e-06
1190	1.820300e-06
1191	1.812285e-06
1192	1.791486e-06
1193	1.788317e-06
1194	1.788317e-06
1195	1.788317e-06
1196	1.783355e-06
1197	1.783355e-06
1198	1.783355e-06
1199	1.777753e-06
1200	1.777087e-06
1201	1.500461e-06
1202	1.493477e-06
1203	1.383449e-06
1204	1.383449e-06
1205	1.383449e-06
1206	1.383449e-06
1207	1.383449e-06
1208	1.383449e-06
1209	1.383449e-06
1210	1.383449e-06
1211	1.383449e-06
1212	1.383449e-06
1213	1.383449e-06
1214	1.383449e-06
1215	1.383449e-06
1216	1.383449e-06
1217	1.383449e-06
1218	1.369721e-06
1219	1.369540e-06
1220	1.369540e-06
1221	1.348181e-06
1222	1.348181e-06
1223	1.348181e-06
1224	1.223640e-06
1225	1.092563e-06
1226	1.092451e-06
1227	1.092451e-06
1228	1.092451e-06
1229	1.092451e-06
1230	1.086732e-06
1231	1.086732e-06
1232	9.808276e-07
1233	9.808276e-07
1234	9.703889e-07
1235	9.703889e-07
1236	9.703889e-07
1237	9.703889e-07
1238	9.703889e-07
1239	9.703889e-07
1240	9.703889e-07
1241	8.171780e-07
1242	7.615254e-07
1243	6.605286e-07
1244	6.589280e-07
1245	5.766161e-07
1246	5.766161e-07
1247	5.766161e-07
1248	5.766161e-07
1249	5.766161e-07
1250	5.756010e-07
1251	5.668558e-07
1252	5.667975e-07
1253	5.667975e-07
1254	5.667975e-07
1255	5.665928e-07
1256	5.645947e-07
1257	5.641804e-07
1258	5.509445e-07
1259	5.442121e-07
1260	5.409278e-07
1261	5.224367e-07
1262	5.221992e-07
1263	5.185697e-07
1264	5.171949e-07
1265	5.043313e-07
1266	4.879065e-07
1267	4.879065e-07
1268	4.754842e-07
1269	4.713925e-07
1270	4.713925e-07
1271	4.713925e-07
1272	4.713925e-07
1273	4.713925e-07
1274	4.713317e-07
1275	4.713317e-07
1276	4.713317e-07
1277	4.713317e-07
1278	4.713317e-07
1279	4.691893e-07
1280	4.658793e-07
1281	4.658793e-07
1282	4.658793e-07
1283	4.658793e-07
1284	4.658793e-07
1285	4.658793e-07
1286	4.658793e-07
1287	4.658227e-07
1288	4.656706e-07
1289	4.656695e-07
1290	4.655348e-07
1291	4.655348e-07
1292	4.655348e-07
1293	4.655348e-07
1294	4.655348e-07
1295	4.655348e-07
1296	4.655348e-07
1297	4.655348e-07
1298	4.651868e-07
1299	4.651868e-07
1300	4.651868e-07
1301	4.646575e-07
1302	4.633697e-07
1303	4.624979e-07
1304	4.618409e-07
1305	4.618409e-07
1306	4.618409e-07
1307	4.618409e-07
1308	4.618042e-07
1309	4.611359e-07
1310	4.611359e-07
1311	4.611342e-07
1312	4.611167e-07
1313	4.604893e-07
1314	4.604817e-07
1315	4.604817e-07
1316	4.604817e-07
1317	4.600611e-07
1318	4.600560e-07
1319	4.600560e-07
1320	4.592688e-07
1321	4.567939e-07
1322	4.567939e-07
1323	4.556295e-07
1324	4.545875e-07
1325	4.545875e-07
1326	4.484261e-07
1327	4.472642e-07
1328	4.470231e-07
1329	4.470231e-07
1330	4.465543e-07
1331	4.434554e-07
1332	4.429750e-07
1333	4.429750e-07
1334	4.421778e-07
1335	4.421778e-07
1336	4.398144e-07
1337	4.398144e-07
1338	4.360298e-07
1339	4.275349e-07
1340	4.268556e-07
1341	4.259272e-07
1342	4.255446e-07
1343	4.255312e-07
1344	4.237046e-07
1345	4.230838e-07
1346	4.230838e-07
1347	4.230838e-07
1348	4.230838e-07
1349	4.183764e-07
1350	4.183764e-07
1351	4.183764e-07
1352	4.183764e-07
1353	4.183764e-07
1354	4.183764e-07
1355	3.244526e-07
1356	3.191608e-07
1357	3.191608e-07
1358	3.191608e-07
1359	3.191608e-07
1360	3.191608e-07
1361	3.191608e-07
1362	3.191608e-07
1363	3.191608e-07
1364	3.191608e-07
1365	3.191608e-07
1366	3.191608e-07
1367	3.191608e-07
1368	3.191608e-07
1369	3.191608e-07
1370	3.191601e-07
1371	3.191601e-07
1372	3.191601e-07
1373	3.191601e-07
1374	3.091632e-07
1375	3.090789e-07
1376	3.034175e-07
1377	3.034175e-07
1378	3.034175e-07
1379	2.904161e-07
1380	2.253156e-07
1381	2.201600e-07
1382	2.107234e-07
1383	2.107234e-07
1384	2.107234e-07
1385	1.918415e-07
1386	1.908550e-07
1387	1.908550e-07
1388	1.908550e-07
1389	1.908550e-07
1390	1.908550e-07
1391	1.908550e-07
1392	1.908550e-07
1393	1.908550e-07
1394	1.908502e-07
1395	1.899763e-07
1396	1.899763e-07
1397	1.886567e-07
1398	1.882986e-07
1399	1.879819e-07
1400	1.875610e-07
1401	1.875394e-07
1402	1.875394e-07
1403	1.875394e-07
1404	1.875394e-07
1405	1.875394e-07
1406	1.875394e-07
1407	1.875298e-07
1408	1.852792e-07
1409	1.852792e-07
1410	1.852792e-07
1411	1.852792e-07
1412	1.766592e-07
1413	1.737076e-07
1414	1.737076e-07
1415	1.732903e-07
1416	1.681897e-07
1417	1.656586e-07
1418	1.652285e-07
1419	1.652285e-07
1420	1.652285e-07
1421	1.650825e-07
1422	1.650825e-07
1423	1.631438e-07
1424	1.627236e-07
1425	1.625502e-07
1426	1.625196e-07
1427	1.625196e-07
1428	1.625196e-07
1429	1.625196e-07
1430	1.625196e-07
1431	1.625196e-07
1432	1.625196e-07
1433	1.625196e-07
1434	1.625196e-07
1435	1.625196e-07
1436	1.625196e-07
1437	1.625071e-07
1438	1.520220e-07
1439	1.197538e-07
1440	1.145771e-07
1441	1.099226e-07
1442	1.097292e-07
1443	1.071774e-07
1444	1.071266e-07
1445	1.071266e-07
1446	1.071266e-07
1447	1.071200e-07
1448	1.071167e-07
1449	1.071167e-07
1450	1.071019e-07
1451	1.070404e-07
1452	1.066660e-07
1453	1.066660e-07
1454	1.066660e-07
1455	1.066631e-07
1456	1.066622e-07
1457	1.053833e-07
1458	1.052844e-07
1459	1.052844e-07
1460	1.052844e-07
1461	1.052844e-07
1462	1.052844e-07
1463	1.029091e-07
1464	1.029091e-07
1465	9.347263e-08
1466	9.347263e-08
1467	9.347263e-08
1468	9.319209e-08
1469	9.213344e-08
1470	9.213344e-08
1471	9.213344e-08
1472	9.213344e-08
1473	8.888149e-08
1474	8.888149e-08
1475	8.888149e-08
1476	8.888149e-08
1477	8.888149e-08
1478	8.651708e-08
1479	8.141487e-08
1480	8.080490e-08
1481	8.080490e-08
1482	8.080490e-08
1483	8.028898e-08
1484	8.028898e-08
1485	8.028898e-08
1486	8.028898e-08
1487	8.028898e-08
1488	8.028606e-08
1489	7.999953e-08
1490	7.999953e-08
1491	7.999953e-08
1492	7.999953e-08
1493	7.999953e-08
1494	7.999953e-08
1495	7.999953e-08
1496	7.999953e-08
1497	7.999953e-08
1498	7.999949e-08
1499	7.989111e-08
1500	7.987360e-08
1501	7.987356e-08
1502	7.987354e-08
1503	7.987354e-08
1504	7.986980e-08
1505	7.981474e-08
1506	7.981358e-08
1507	7.981358e-08
1508	7.981358e-08
1509	7.981358e-08
1510	7.981358e-08
1511	7.981358e-08
1512	7.981358e-08
1513	7.981358e-08
1514	7.981358e-08
1515	7.981167e-08
1516	7.980222e-08
1517	7.980222e-08
1518	7.980222e-08
1519	7.980222e-08
1520	7.980222e-08
1521	7.980222e-08
1522	7.980222e-08
1523	7.980222e-08
1524	7.980222e-08
1525	7.980222e-08
1526	7.980222e-08
1527	7.980222e-08
1528	7.980222e-08
1529	7.978825e-08
1530	7.978016e-08
1531	7.962840e-08
1532	7.916695e-08
1533	7.916695e-08
1534	7.916695e-08
1535	7.916695e-08
1536	7.399706e-08
1537	7.399706e-08
1538	7.399706e-08
1539	7.399706e-08
1540	7.399611e-08
1541	7.399482e-08
1542	7.399482e-08
1543	7.399482e-08
1544	7.399482e-08
1545	7.399482e-08
1546	7.399482e-08
1547	7.399482e-08
1548	7.399482e-08
1549	7.399482e-08
1550	7.391646e-08
1551	7.387749e-08
1552	7.387749e-08
1553	7.387460e-08
1554	7.387460e-08
1555	7.387460e-08
1556	7.078784e-08
1557	6.520404e-08
1558	6.520404e-08
1559	6.520404e-08
1560	6.520404e-08
1561	6.520404e-08
1562	6.520404e-08
1563	6.520404e-08
1564	6.520404e-08
1565	6.520404e-08
1566	6.520404e-08
1567	6.520404e-08
1568	6.520404e-08
1569	6.520404e-08
1570	6.520404e-08
1571	6.520404e-08
1572	6.520404e-08
1573	6.520404e-08
1574	6.520404e-08
1575	6.520404e-08
1576	6.520404e-08
1577	6.520404e-08
1578	6.520404e-08
1579	6.520404e-08
1580	6.520404e-08
1581	6.520404e-08
1582	6.520404e-08
1583	6.520404e-08
1584	6.520404e-08
1585	6.520404e-08
1586	6.520404e-08
1587	6.520404e-08
1588	6.520404e-08
1589	6.520404e-08
1590	6.520404e-08
1591	6.520404e-08
1592	6.520404e-08
1593	6.520404e-08
1594	6.520404e-08
1595	6.520404e-08
1596	6.520404e-08
1597	6.520404e-08
1598	6.506121e-08
1599	6.506121e-08
1600	6.506093e-08
1601	6.495774e-08
1602	6.495774e-08
1603	6.495774e-08
1604	6.495774e-08
1605	6.495774e-08
1606	6.495774e-08
1607	6.495774e-08
1608	6.495774e-08
1609	6.495774e-08
1610	6.495774e-08
1611	6.495774e-08
1612	6.495774e-08
1613	6.495774e-08
1614	6.495774e-08
1615	6.495774e-08
1616	6.495774e-08
1617	6.495774e-08
1618	6.495774e-08
1619	6.495774e-08
1620	6.495774e-08
1621	6.495774e-08
1622	6.495774e-08
1623	6.495774e-08
1624	6.495774e-08
1625	6.192203e-08
1626	5.921470e-08
1627	5.529554e-08
1628	4.930086e-08
1629	4.930086e-08
1630	4.027376e-08
1631	3.435781e-08
1632	3.333315e-08
1633	3.130999e-08
1634	3.130999e-08
1635	3.130999e-08
1636	3.130999e-08
1637	3.130999e-08
1638	3.101744e-08
1639	3.046317e-08
1640	3.039366e-08
1641	3.039366e-08
1642	3.039366e-08
1643	3.039366e-08
1644	3.039366e-08
1645	3.032562e-08
1646	2.994103e-08
1647	2.903190e-08
1648	2.882861e-08
1649	2.868406e-08
1650	2.814385e-08
1651	2.811190e-08
1652	2.810992e-08
1653	2.739620e-08
1654	2.739620e-08
1655	2.739620e-08
1656	2.506572e-08
1657	2.414468e-08
1658	2.342586e-08
1659	2.276577e-08
1660	2.276310e-08
1661	2.274305e-08
1662	2.210108e-08
1663	2.206794e-08
1664	2.206794e-08
1665	2.206794e-08
1666	2.206794e-08
1667	2.206794e-08
1668	2.206794e-08
1669	2.206794e-08
1670	2.206794e-08
1671	2.206794e-08
1672	2.206794e-08
1673	2.206794e-08
1674	2.206794e-08
1675	2.206794e-08
1676	2.206794e-08
1677	2.206794e-08
1678	2.204157e-08
1679	2.204157e-08
1680	2.194671e-08
1681	2.194666e-08
1682	2.194666e-08
1683	2.194666e-08
1684	2.194207e-08
1685	2.185730e-08
1686	2.173496e-08
1687	2.172913e-08
1688	2.172913e-08
1689	2.172913e-08
1690	2.138276e-08
1691	2.116929e-08
1692	2.115481e-08
1693	2.113288e-08
1694	2.106207e-08
1695	2.103416e-08
1696	2.101384e-08
1697	2.101384e-08
1698	2.101384e-08
1699	2.101384e-08
1700	2.101384e-08
1701	2.101384e-08
1702	2.101308e-08
1703	2.099382e-08
1704	2.099382e-08
1705	2.099382e-08
1706	2.098138e-08
1707	2.081868e-08
1708	2.068200e-08
1709	2.065885e-08
1710	2.054073e-08
1711	2.050963e-08
1712	2.050963e-08
1713	2.045496e-08
1714	2.041367e-08
1715	2.032183e-08
1716	2.032183e-08
1717	2.031155e-08
1718	2.029975e-08
1719	2.029973e-08
1720	2.029973e-08
1721	2.029973e-08
1722	2.015708e-08
1723	2.014838e-08
1724	2.013649e-08
1725	2.000426e-08
1726	1.987116e-08
1727	1.972670e-08
1728	1.972670e-08
1729	1.941976e-08
1730	1.941970e-08
1731	1.941970e-08
1732	1.941970e-08
1733	1.941970e-08
1734	1.941970e-08
1735	1.941970e-08
1736	1.941970e-08
1737	1.941970e-08
1738	1.941970e-08
1739	1.941970e-08
1740	1.941970e-08
1741	1.941970e-08
1742	1.941970e-08
1743	1.941970e-08
1744	1.941970e-08
1745	1.941970e-08
1746	1.941970e-08
1747	1.941970e-08
1748	1.941970e-08
1749	1.941970e-08
1750	1.941970e-08
1751	1.941970e-08
1752	1.941970e-08
1753	1.941970e-08
1754	1.941970e-08
1755	1.941970e-08
1756	1.941970e-08
1757	1.941970e-08
1758	1.941970e-08
1759	1.941970e-08
1760	1.941970e-08
1761	1.941970e-08
1762	1.941970e-08
1763	1.941970e-08
1764	1.941970e-08
1765	1.941970e-08
1766	1.941970e-08
1767	1.662701e-08
1768	1.646952e-08
1769	1.646952e-08
1770	1.646952e-08
1771	1.644650e-08
1772	1.644650e-08
1773	1.640617e-08
1774	1.640617e-08
1775	1.640617e-08
1776	1.640617e-08
1777	1.615014e-08
1778	1.593558e-08
1779	1.593462e-08
1780	1.593462e-08
1781	1.593462e-08
1782	1.593462e-08
1783	1.593462e-08
1784	1.593462e-08
1785	1.583106e-08
1786	1.583106e-08
1787	1.583106e-08
1788	1.583106e-08
1789	1.583106e-08
1790	1.548324e-08
1791	1.544593e-08
1792	1.544593e-08
1793	1.544593e-08
1794	1.544593e-08
1795	1.544593e-08
1796	1.544593e-08
1797	1.544593e-08
1798	1.544593e-08
1799	1.336078e-08
1800	1.111162e-08
1801	9.670396e-09
1802	7.633969e-09
1803	7.440739e-09
1804	7.396306e-09
1805	7.291768e-09
1806	6.918738e-09
1807	6.481616e-09
1808	6.481616e-09
1809	6.141208e-09
1810	6.108568e-09
1811	6.108568e-09
1812	5.884815e-09
1813	5.778320e-09
1814	5.778320e-09
1815	5.778320e-09
1816	5.778320e-09
1817	5.774183e-09
1818	5.773507e-09
1819	5.773507e-09
1820	5.773507e-09
1821	5.773507e-09
1822	5.773507e-09
1823	5.768240e-09
1824	5.768105e-09
1825	5.767520e-09
1826	5.767520e-09
1827	5.767520e-09
1828	5.767520e-09
1829	5.767520e-09
1830	5.767520e-09
1831	5.767520e-09
1832	5.767520e-09
1833	5.767520e-09
1834	5.767520e-09
1835	5.767520e-09
1836	5.767520e-09
1837	5.767520e-09
1838	5.767520e-09
1839	5.767520e-09
1840	5.767520e-09
1841	5.767520e-09
1842	5.767520e-09
1843	5.767520e-09
1844	5.767520e-09
1845	5.763794e-09
1846	5.763794e-09
1847	5.763794e-09
1848	5.763794e-09
1849	5.763794e-09
1850	5.763794e-09
1851	5.763794e-09
1852	5.763794e-09
1853	5.763794e-09
1854	5.763794e-09
1855	5.763794e-09
1856	5.763794e-09
1857	5.763794e-09
1858	5.763794e-09
1859	5.763794e-09
1860	5.763794e-09
1861	5.763794e-09
1862	5.763794e-09
1863	5.763794e-09
1864	5.763794e-09
1865	5.763794e-09
1866	5.763794e-09
1867	5.763794e-09
1868	5.763794e-09
1869	5.763794e-09
1870	5.763794e-09
1871	5.763794e-09
1872	5.763794e-09
1873	5.763794e-09
1874	5.763747e-09
1875	5.763747e-09
1876	5.763747e-09
1877	5.763747e-09
1878	5.763747e-09
1879	5.763747e-09
1880	5.763747e-09
1881	5.763747e-09
1882	5.763747e-09
1883	5.763747e-09
1884	5.763709e-09
1885	5.763626e-09
1886	5.763626e-09
1887	5.763626e-09
1888	5.763626e-09
1889	5.605382e-09
1890	5.605382e-09
1891	5.605382e-09
1892	5.605382e-09
1893	5.605382e-09
1894	5.605382e-09
1895	5.605382e-09
1896	5.605382e-09
1897	5.605382e-09
1898	5.605382e-09
1899	5.605382e-09
1900	5.605382e-09
1901	5.605382e-09
1902	5.605382e-09
1903	5.569059e-09
1904	4.204477e-09
1905	4.204477e-09
1906	4.199073e-09
1907	3.926068e-09
1908	3.907178e-09
1909	3.907178e-09
1910	3.888973e-09
1911	3.133478e-09
1912	2.852877e-09
1913	2.845194e-09
1914	2.837336e-09
1915	2.837336e-09
1916	2.837336e-09
1917	2.745318e-09
1918	2.664586e-09
1919	2.664555e-09
1920	2.664555e-09
1921	2.625121e-09
1922	2.618944e-09
1923	2.577313e-09
1924	2.574684e-09
1925	2.574684e-09
1926	2.522452e-09
1927	2.466777e-09
1928	2.466777e-09
1929	2.466139e-09
1930	2.451322e-09
1931	2.451322e-09
1932	2.448377e-09
1933	2.447366e-09
1934	2.447366e-09
1935	2.447366e-09
1936	2.361817e-09
1937	2.327808e-09
1938	2.310735e-09
1939	2.309365e-09
1940	2.309009e-09
1941	2.302808e-09
1942	2.302808e-09
1943	2.302808e-09
1944	2.302808e-09
1945	2.181009e-09
1946	2.179426e-09
1947	2.116352e-09
1948	2.116352e-09
1949	2.110299e-09
1950	2.108143e-09
1951	2.107869e-09
1952	2.107869e-09
1953	2.107869e-09
1954	2.107869e-09
1955	2.107611e-09
1956	2.107605e-09
1957	2.107605e-09
1958	2.104910e-09
1959	2.098006e-09
1960	1.870518e-09
1961	1.868360e-09
1962	1.868360e-09
1963	1.868360e-09
1964	1.868360e-09
1965	1.868360e-09
1966	1.866255e-09
1967	1.866255e-09
1968	1.866255e-09
1969	1.866255e-09
1970	1.866255e-09
1971	1.866255e-09
1972	1.866255e-09
1973	1.866253e-09
1974	1.866122e-09
1975	1.866122e-09
1976	1.866122e-09
1977	1.825199e-09
1978	1.825199e-09
1979	1.825199e-09
1980	1.825199e-09
1981	1.825199e-09
1982	1.825199e-09
1983	1.825199e-09
1984	1.825199e-09
1985	1.825199e-09
1986	1.825199e-09
1987	1.825049e-09
1988	1.825032e-09
1989	1.825032e-09
1990	1.825032e-09
1991	1.825032e-09
1992	1.825032e-09
1993	1.825032e-09
1994	1.825032e-09
1995	1.825032e-09
1996	1.825032e-09
1997	1.825032e-09
1998	1.784734e-09
1999	1.784656e-09
2000	1.784656e-09
2001	1.768055e-09
2002	1.768055e-09
2003	1.768055e-09
2004	1.768055e-09
2005	1.768055e-09
2006	1.768055e-09
2007	1.768055e-09
2008	1.768055e-09
2009	1.768055e-09
2010	1.768055e-09
2011	1.768055e-09
2012	1.768055e-09
2013	1.768055e-09
2014	1.768055e-09
2015	1.768055e-09
2016	1.764927e-09
2017	1.764921e-09
2018	1.753420e-09
2019	1.750779e-09
2020	1.741247e-09
2021	1.741247e-09
2022	1.741247e-09
2023	1.727085e-09
2024	1.709371e-09
2025	1.633993e-09
2026	1.630302e-09
2027	1.592852e-09
2028	1.586629e-09
2029	1.575976e-09
2030	1.518722e-09
2031	1.518722e-09
2032	1.518722e-09
2033	1.518722e-09
2034	1.453099e-09
2035	1.236066e-09
2036	1.220258e-09
2037	1.220258e-09
2038	1.202820e-09
2039	1.202536e-09
2040	1.202536e-09
2041	1.202536e-09
2042	1.197902e-09
2043	1.197902e-09
2044	1.197878e-09
2045	1.197878e-09
2046	1.197878e-09
2047	1.197798e-09
2048	1.182026e-09
2049	1.137568e-09
2050	1.129868e-09
2051	1.122521e-09
2052	1.040204e-09
2053	1.021777e-09
2054	1.008152e-09
2055	9.818775e-10
2056	9.792444e-10
2057	9.792444e-10
2058	9.792444e-10
2059	9.792444e-10
2060	9.115366e-10
2061	8.543120e-10
2062	8.350602e-10
2063	8.096227e-10
2064	8.067664e-10
2065	8.067664e-10
2066	7.567753e-10
2067	7.564382e-10
2068	7.564173e-10
2069	7.231789e-10
2070	7.006988e-10
2071	6.973849e-10
2072	6.929829e-10
2073	6.929829e-10
2074	6.908976e-10
2075	6.205377e-10
2076	6.205377e-10
2077	6.205377e-10
2078	6.205377e-10
2079	6.205377e-10
2080	6.205377e-10
2081	6.205377e-10
2082	6.205377e-10
2083	6.205377e-10
2084	6.205377e-10
2085	6.205377e-10
2086	6.205377e-10
2087	6.205377e-10
2088	6.202441e-10
2089	6.202441e-10
2090	6.202441e-10
2091	6.202441e-10
2092	6.202441e-10
2093	6.202441e-10
2094	6.197921e-10
2095	6.197921e-10
2096	6.197921e-10
2097	6.197921e-10
2098	6.197921e-10
2099	6.197921e-10
2100	6.197921e-10
2101	6.197921e-10
2102	6.197921e-10
2103	6.185227e-10
2104	6.138808e-10
2105	6.138808e-10
2106	6.138517e-10
2107	6.138516e-10
2108	6.104859e-10
2109	6.098962e-10
2110	6.098962e-10
2111	6.067076e-10
2112	6.066803e-10
2113	6.055273e-10
2114	6.055273e-10
2115	6.055273e-10
2116	6.052573e-10
2117	5.975920e-10
2118	5.975920e-10
2119	5.975920e-10
2120	5.975920e-10
2121	5.975920e-10
2122	5.975920e-10
2123	5.975920e-10
2124	5.975920e-10
2125	5.975920e-10
2126	5.975920e-10
2127	5.975920e-10
2128	5.975920e-10
2129	5.975920e-10
2130	5.975920e-10
2131	5.975920e-10
2132	5.975920e-10
2133	5.975920e-10
2134	5.973107e-10
2135	5.972405e-10
2136	5.972405e-10
2137	5.972405e-10
2138	5.950568e-10
2139	5.822881e-10
2140	5.770014e-10
2141	5.601409e-10
2142	5.562613e-10
2143	5.560460e-10
2144	5.557764e-10
2145	5.557764e-10
2146	5.557764e-10
2147	5.551374e-10
2148	5.551260e-10
2149	5.551106e-10
2150	5.550203e-10
2151	5.549504e-10
2152	5.545530e-10
2153	5.545530e-10
2154	5.545529e-10
2155	5.545424e-10
2156	5.545424e-10
2157	5.534111e-10
2158	5.534111e-10
2159	5.534111e-10
2160	5.534111e-10
2161	5.534111e-10
2162	5.511843e-10
2163	5.511843e-10
2164	5.511843e-10
2165	5.511843e-10
2166	5.511843e-10
2167	5.511843e-10
2168	5.511843e-10
2169	5.447134e-10
2170	5.370456e-10
2171	5.365538e-10
2172	5.365317e-10
2173	5.365317e-10
2174	5.353355e-10
2175	5.353355e-10
2176	5.353355e-10
2177	5.353355e-10
2178	5.353355e-10
2179	5.268454e-10
2180	5.233901e-10
2181	5.219432e-10
2182	5.132173e-10
2183	5.124769e-10
2184	4.970208e-10
2185	4.907939e-10
2186	4.742619e-10
2187	4.741279e-10
2188	4.740822e-10
2189	4.697814e-10
2190	4.697814e-10
2191	4.697814e-10
2192	4.697814e-10
2193	4.697814e-10
2194	4.697814e-10
2195	4.697814e-10
2196	4.697814e-10
2197	4.692963e-10
2198	4.692963e-10
2199	4.692963e-10
2200	4.692963e-10
2201	4.692963e-10
2202	4.692963e-10
2203	4.692963e-10
2204	4.692963e-10
2205	4.692963e-10
2206	4.692963e-10
2207	4.692963e-10
2208	4.692963e-10
2209	4.692963e-10
2210	4.692963e-10
2211	4.692963e-10
2212	4.692963e-10
2213	4.692963e-10
2214	4.692963e-10
2215	4.692963e-10
2216	4.128422e-10
2217	4.128422e-10
2218	4.128422e-10
2219	4.128422e-10
2220	4.127950e-10
2221	3.899046e-10
2222	1.765379e-10
2223	1.585825e-10
2224	1.585825e-10
2225	1.465670e-10
2226	1.430659e-10
2227	1.430167e-10
2228	1.430155e-10
2229	1.422359e-10
2230	1.422221e-10
2231	1.420865e-10
2232	1.420865e-10
2233	1.420865e-10
2234	1.420865e-10
2235	1.420865e-10
2236	1.420865e-10
2237	1.417481e-10
2238	1.417481e-10
2239	1.229010e-10
2240	1.208753e-10
2241	1.206579e-10
2242	1.205999e-10
2243	1.205999e-10
2244	1.205999e-10
2245	1.205999e-10
2246	1.205999e-10
2247	1.205999e-10
2248	1.205999e-10
2249	1.205999e-10
2250	1.205999e-10
2251	1.205999e-10
2252	1.205999e-10
2253	1.205970e-10
2254	1.203182e-10
2255	1.203182e-10
2256	1.203182e-10
2257	1.203182e-10
2258	1.203182e-10
2259	1.203182e-10
2260	1.203182e-10
2261	1.203182e-10
2262	1.203182e-10
2263	1.203182e-10
2264	1.203182e-10
2265	1.203182e-10
2266	1.203182e-10
2267	1.203182e-10
2268	1.203182e-10
2269	1.203182e-10
2270	1.203182e-10
2271	1.203182e-10
2272	1.203182e-10
2273	1.203182e-10
2274	1.203182e-10
2275	1.203182e-10
2276	1.203182e-10
2277	1.203182e-10
2278	1.203182e-10
2279	1.203182e-10
2280	1.203182e-10
2281	1.203182e-10
2282	1.203182e-10
2283	1.203182e-10
2284	1.203182e-10
2285	1.203182e-10
2286	1.203182e-10
2287	1.203182e-10
2288	1.203182e-10
2289	1.203182e-10
2290	1.203182e-10
2291	1.203182e-10
2292	1.203182e-10
2293	1.203182e-10
2294	1.203182e-10
2295	1.203182e-10
2296	1.203182e-10
2297	1.203182e-10
2298	1.203182e-10
2299	1.203182e-10
2300	1.203182e-10
2301	1.203182e-10
2302	1.203182e-10
2303	1.203182e-10
2304	1.203182e-10
2305	1.203182e-10
2306	1.203182e-10
2307	1.203182e-10
2308	1.194039e-10
2309	1.194039e-10
2310	1.194039e-10
2311	1.194039e-10
2312	1.194039e-10
2313	1.194039e-10
2314	1.194039e-10
2315	1.194039e-10
2316	1.194039e-10
2317	1.194039e-10
2318	1.157282e-10
2319	1.157282e-10
2320	1.157278e-10
2321	1.156354e-10
2322	1.156354e-10
2323	1.156354e-10
2324	1.156354e-10
2325	1.156354e-10
2326	1.156354e-10
2327	1.156354e-10
2328	1.156354e-10
2329	1.156354e-10
2330	1.156354e-10
2331	1.156354e-10
2332	1.156354e-10
2333	1.156354e-10
2334	1.156354e-10
2335	1.118800e-10
2336	1.118518e-10
2337	1.118518e-10
2338	1.118518e-10
2339	1.118518e-10
2340	1.118518e-10
2341	1.082876e-10
2342	1.082876e-10
2343	1.082876e-10
2344	1.082876e-10
2345	1.082876e-10
2346	1.082876e-10
2347	1.082876e-10
2348	1.082876e-10
2349	1.072336e-10
2350	1.072336e-10
2351	1.072336e-10
2352	1.072336e-10
2353	9.460076e-11
2354	9.460076e-11
2355	9.460076e-11
2356	9.460076e-11
2357	9.460076e-11
2358	9.460076e-11
2359	8.530243e-11
2360	5.695678e-11
2361	5.690000e-11
2362	5.690000e-11
2363	5.690000e-11
2364	5.689895e-11
2365	5.633170e-11
2366	5.633170e-11
2367	5.633170e-11
2368	5.633170e-11
2369	5.606344e-11
2370	5.061671e-11
2371	5.045403e-11
2372	4.928832e-11
2373	4.884579e-11
2374	4.883505e-11
2375	4.883505e-11
2376	4.883505e-11
2377	4.883468e-11
2378	4.883468e-11
2379	4.883468e-11
2380	4.883468e-11
2381	4.883468e-11
2382	4.883468e-11
2383	4.883468e-11
2384	4.883468e-11
2385	4.883468e-11
2386	4.883468e-11
2387	4.883468e-11
2388	4.883468e-11
2389	4.883468e-11
2390	4.883468e-11
2391	4.883468e-11
2392	4.883468e-11
2393	4.883468e-11
2394	4.883468e-11
2395	4.883468e-11
2396	4.883468e-11
2397	4.883468e-11
2398	4.883468e-11
2399	4.881127e-11
2400	4.881127e-11
2401	4.811835e-11
2402	4.399883e-11
2403	4.359715e-11
2404	3.899785e-11
2405	3.742738e-11
2406	3.489615e-11
2407	3.468828e-11
2408	3.454091e-11
2409	3.402489e-11
2410	3.375030e-11
2411	3.295313e-11
2412	3.265242e-11
2413	3.264688e-11
2414	3.258468e-11
2415	3.154152e-11
2416	3.154152e-11
2417	3.154152e-11
2418	3.154152e-11
2419	3.154152e-11
2420	3.154152e-11
2421	3.154152e-11
2422	3.154152e-11
2423	3.154152e-11
2424	3.154152e-11
2425	3.153265e-11
2426	3.153265e-11
2427	3.153265e-11
2428	3.153265e-11
2429	3.153265e-11
2430	3.153265e-11
2431	3.153265e-11
2432	3.153265e-11
2433	3.153265e-11
2434	3.153265e-11
2435	3.153265e-11
2436	3.153265e-11
2437	3.153265e-11
2438	3.153265e-11
2439	3.153265e-11
2440	3.153265e-11
2441	3.153265e-11
2442	3.153265e-11
2443	3.153265e-11
2444	3.153265e-11
2445	3.153265e-11
2446	3.148199e-11
2447	3.148199e-11
2448	3.148199e-11
2449	3.148199e-11
2450	3.148199e-11
2451	3.148199e-11
2452	3.148199e-11
2453	3.148199e-11
2454	3.148199e-11
2455	3.148199e-11
2456	3.148199e-11
2457	3.148199e-11
2458	3.148199e-11
2459	3.148199e-11
2460	3.148199e-11
2461	3.148199e-11
2462	3.148199e-11
2463	3.148199e-11
2464	3.148199e-11
2465	3.148199e-11
2466	3.148199e-11
2467	3.148199e-11
2468	3.148199e-11
2469	3.148199e-11
2470	3.148199e-11
2471	3.148199e-11
2472	3.148199e-11
2473	3.148199e-11
2474	3.148199e-11
2475	3.148199e-11
2476	3.148199e-11
2477	3.148199e-11
2478	3.148199e-11
2479	3.148199e-11
2480	3.148199e-11
2481	3.148199e-11
2482	3.148199e-11
2483	3.148199e-11
2484	3.148199e-11
2485	3.148199e-11
2486	3.148199e-11
2487	3.148199e-11
2488	3.148199e-11
2489	3.148199e-11
2490	3.148199e-11
2491	3.148199e-11
2492	3.148199e-11
2493	3.148199e-11
2494	3.148199e-11
2495	3.148199e-11
2496	3.148199e-11
2497	3.148199e-11
2498	3.148199e-11
2499	3.148199e-11
2500	3.148199e-11
2501	3.148199e-11
2502	3.148199e-11
2503	3.148199e-11
2504	3.148199e-11
2505	3.148199e-11
2506	3.148199e-11
2507	3.148199e-11
2508	3.148199e-11
2509	3.148199e-11
2510	3.148199e-11
2511	3.146199e-11
2512	3.140427e-11
2513	3.140427e-11
2514	3.140427e-11
2515	3.140427e-11
2516	3.140427e-11
2517	3.140427e-11
2518	2.915820e-11
2519	2.915820e-11
2520	2.915820e-11
2521	2.915820e-11
2522	2.915820e-11
2523	2.914407e-11
2524	2.914407e-11
2525	2.914407e-11
2526	2.914407e-11
2527	2.914407e-11
2528	2.914407e-11
2529	2.914407e-11
2530	2.914407e-11
2531	2.914407e-11
2532	2.914407e-11
2533	2.914407e-11
2534	2.914407e-11
2535	2.914407e-11
2536	2.914407e-11
2537	2.914407e-11
2538	2.914407e-11
2539	2.914407e-11
2540	2.914407e-11
2541	2.914407e-11
2542	2.914407e-11
2543	2.914407e-11
2544	2.504272e-11
2545	1.939366e-11
2546	1.650235e-11
2547	1.629439e-11
2548	1.629439e-11
2549	1.629439e-11
2550	1.629439e-11
2551	1.629439e-11
2552	1.618094e-11
2553	1.618094e-11
2554	1.614527e-11
2555	1.613301e-11
2556	1.613301e-11
2557	1.613301e-11
2558	1.613301e-11
2559	1.613301e-11
2560	1.612370e-11
2561	1.612370e-11
2562	1.612370e-11
2563	1.612370e-11
2564	1.239894e-11
2565	1.140682e-11
2566	1.093934e-11
2567	9.175931e-12
2568	9.175931e-12
2569	9.004201e-12
2570	8.962379e-12
2571	8.596438e-12
2572	8.596438e-12
2573	8.596438e-12
2574	8.596438e-12
2575	8.595320e-12
2576	8.595320e-12
2577	8.595320e-12
2578	8.589825e-12
2579	8.588707e-12
2580	8.588707e-12
2581	8.588707e-12
2582	8.588707e-12
2583	8.588707e-12
2584	8.588707e-12
2585	8.588707e-12
2586	8.587764e-12
2587	8.587764e-12
2588	8.587764e-12
2589	8.587764e-12
2590	8.587764e-12
2591	8.587764e-12
2592	8.587764e-12
2593	8.587764e-12
2594	8.587764e-12
2595	8.524474e-12
2596	8.524164e-12
2597	8.524164e-12
2598	8.517536e-12
2599	8.517536e-12
2600	8.517536e-12
2601	8.517536e-12
2602	8.496062e-12
2603	8.496062e-12
2604	8.496062e-12
2605	8.496062e-12
2606	8.496062e-12
2607	8.496062e-12
2608	8.496062e-12
2609	8.496062e-12
2610	8.496062e-12
2611	8.496062e-12
2612	8.496062e-12
2613	8.496062e-12
2614	8.495285e-12
2615	8.495285e-12
2616	8.495285e-12
2617	8.495285e-12
2618	8.495285e-12
2619	8.495285e-12
2620	8.495285e-12
2621	8.495285e-12
2622	8.495285e-12
2623	8.495285e-12
2624	8.495285e-12
2625	8.495285e-12
2626	8.495285e-12
2627	8.495285e-12
2628	8.495285e-12
2629	8.495285e-12
2630	8.495285e-12
2631	8.493970e-12
2632	8.493970e-12
2633	8.493970e-12
2634	8.493970e-12
2635	8.493970e-12
2636	8.493970e-12
2637	8.493970e-12
2638	8.493970e-12
2639	8.493970e-12
2640	8.493970e-12
2641	8.493970e-12
2642	8.493970e-12
2643	8.493970e-12
2644	8.493946e-12
2645	8.493946e-12
2646	8.493946e-12
2647	8.493946e-12
2648	8.493946e-12
2649	8.493946e-12
2650	8.493946e-12
2651	8.493946e-12
2652	8.493946e-12
2653	8.493946e-12
2654	8.493946e-12
2655	8.493946e-12
2656	8.493946e-12
2657	8.493946e-12
2658	8.493946e-12
2659	8.493946e-12
2660	8.493946e-12
2661	8.493946e-12
2662	8.493946e-12
2663	8.493946e-12
2664	8.493946e-12
2665	8.493946e-12
2666	8.493946e-12
2667	8.493946e-12
2668	8.493946e-12
2669	8.493946e-12
2670	8.493946e-12
2671	8.493946e-12
2672	8.493946e-12
2673	8.493946e-12
2674	8.493946e-12
2675	8.493946e-12
2676	8.493946e-12
2677	8.493946e-12
2678	8.493946e-12
2679	8.493946e-12
2680	8.493946e-12
2681	8.493946e-12
2682	8.493946e-12
2683	8.493946e-12
2684	8.493946e-12
2685	8.493946e-12
2686	8.493946e-12
2687	8.493946e-12
2688	8.493946e-12
2689	8.493946e-12
2690	8.493946e-12
2691	8.493946e-12
2692	8.493946e-12
2693	8.493946e-12
2694	8.493946e-12
2695	8.493946e-12
2696	8.493946e-12
2697	8.493946e-12
2698	8.493946e-12
2699	8.493946e-12
2700	8.493946e-12
2701	8.493946e-12
2702	8.493946e-12
2703	8.493946e-12
2704	8.493946e-12
2705	8.493946e-12
2706	8.493946e-12
2707	8.493946e-12
2708	8.493946e-12
2709	8.493946e-12
2710	8.493946e-12
2711	8.493946e-12
2712	8.493946e-12
2713	8.493946e-12
2714	8.493946e-12
2715	8.493946e-12
2716	8.493946e-12
2717	8.493946e-12
2718	8.493946e-12
2719	8.493946e-12
2720	8.493946e-12
2721	8.493946e-12
2722	8.493946e-12
2723	8.493946e-12
2724	8.493946e-12
2725	8.493946e-12
2726	8.493946e-12
2727	8.493946e-12
2728	8.493946e-12
2729	8.493946e-12
2730	8.493946e-12
2731	8.493946e-12
2732	8.493946e-12
2733	8.493946e-12
2734	8.493946e-12
2735	8.493946e-12
2736	8.493946e-12
2737	8.493946e-12
2738	8.493946e-12
2739	8.493946e-12
2740	8.493946e-12
2741	8.493946e-12
2742	8.493946e-12
2743	8.493946e-12
2744	8.493946e-12
2745	8.493946e-12
2746	8.493946e-12
2747	8.493946e-12
2748	8.493946e-12
2749	8.493946e-12
2750	8.493946e-12
2751	8.493946e-12
2752	8.493946e-12
Solution time:	1.263800e+01
