LOSCx_SSOR_Smooth...
1	5.414014e-01
2	4.182398e-01
3	4.175802e-01
4	2.582358e-01
5	2.471315e-01
6	2.137862e-01
7	2.045288e-01
8	2.045288e-01
9	1.765466e-01
10	1.723939e-01
11	1.721307e-01
12	1.721307e-01
13	1.711042e-01
14	1.640299e-01
15	1.531411e-01
16	1.531411e-01
17	1.531411e-01
18	1.459077e-01
19	1.188712e-01
20	1.188529e-01
21	9.017802e-02
22	8.815430e-02
23	8.637461e-02
24	8.233125e-02
25	8.168316e-02
26	8.168316e-02
27	8.148632e-02
28	8.148632e-02
29	7.483015e-02
30	7.480218e-02
31	6.847809e-02
32	6.531070e-02
33	6.364620e-02
34	6.334350e-02
35	6.229829e-02
36	6.203569e-02
37	6.196691e-02
38	5.914440e-02
39	5.420403e-02
40	5.366195e-02
41	5.195403e-02
42	4.869766e-02
43	4.869766e-02
44	4.853748e-02
45	4.853748e-02
46	4.561669e-02
47	4.412731e-02
48	4.386658e-02
49	4.225632e-02
50	4.007088e-02
51	4.006309e-02
52	3.341422e-02
53	3.324760e-02
54	3.318233e-02
55	3.224369e-02
56	3.224369e-02
57	3.030130e-02
58	2.929454e-02
59	2.929454e-02
60	2.711456e-02
61	2.706021e-02
62	2.604023e-02
63	2.446924e-02
64	2.446924e-02
65	2.349083e-02
66	2.326952e-02
67	2.326952e-02
68	2.306504e-02
69	2.306504e-02
70	2.079865e-02
71	1.817620e-02
72	1.602637e-02
73	1.573498e-02
74	1.573498e-02
75	1.564788e-02
76	1.561409e-02
77	1.557561e-02
78	1.505287e-02
79	1.500574e-02
80	1.500574e-02
81	1.470347e-02
82	1.470347e-02
83	1.455802e-02
84	1.455802e-02
85	1.455802e-02
86	1.455802e-02
87	1.455802e-02
88	1.327402e-02
89	1.317399e-02
90	1.317399e-02
91	1.274617e-02
92	1.274617e-02
93	1.270028e-02
94	1.270028e-02
95	1.209813e-02
96	1.180606e-02
97	1.148643e-02
98	1.143968e-02
99	1.117532e-02
100	1.117532e-02
101	1.116311e-02
102	1.081352e-02
103	1.054924e-02
104	1.054924e-02
105	1.054924e-02
106	1.054924e-02
107	1.054924e-02
108	1.054924e-02
109	1.054924e-02
110	1.054924e-02
111	1.054924e-02
112	1.054924e-02
113	1.054924e-02
114	1.054924e-02
115	1.054924e-02
116	1.054924e-02
117	1.054924e-02
118	1.054924e-02
119	1.054924e-02
120	1.054924e-02
121	1.054924e-02
122	1.054924e-02
123	1.054891e-02
124	1.054891e-02
125	1.054891e-02
126	1.054891e-02
127	1.054891e-02
128	1.054891e-02
129	1.054891e-02
130	8.014252e-03
131	5.423161e-03
132	4.323341e-03
133	3.361294e-03
134	3.226670e-03
135	3.167274e-03
136	3.167257e-03
137	3.041127e-03
138	3.041127e-03
139	3.041127e-03
140	3.041127e-03
141	2.903135e-03
142	2.428996e-03
143	2.082001e-03
144	2.066929e-03
145	2.066929e-03
146	2.066929e-03
147	1.856681e-03
148	1.856681e-03
149	1.852037e-03
150	1.839328e-03
151	1.649031e-03
152	1.648195e-03
153	1.634399e-03
154	1.570348e-03
155	1.568293e-03
156	1.559713e-03
157	1.559713e-03
158	1.551713e-03
159	1.548867e-03
160	1.528612e-03
161	1.502205e-03
162	1.494311e-03
163	1.494311e-03
164	1.457321e-03
165	1.370163e-03
166	1.333608e-03
167	1.305911e-03
168	1.305180e-03
169	1.302178e-03
170	1.302178e-03
171	1.236552e-03
172	1.236552e-03
173	1.141523e-03
174	1.141523e-03
175	1.141523e-03
176	1.141523e-03
177	1.141523e-03
178	1.141523e-03
179	1.002250e-03
180	1.002250e-03
181	1.002250e-03
182	1.002250e-03
183	1.002250e-03
184	1.002121e-03
185	1.002121e-03
186	1.002121e-03
187	1.002121e-03
188	1.000390e-03
189	6.258623e-04
190	6.258623e-04
191	6.258623e-04
192	6.258623e-04
193	6.249605e-04
194	6.024429e-04
195	5.072836e-04
196	4.910452e-04
197	4.910452e-04
198	4.910452e-04
199	4.910452e-04
200	4.910442e-04
201	4.908052e-04
202	4.887349e-04
203	4.887349e-04
204	4.887349e-04
205	4.555868e-04
206	4.555868e-04
207	4.555868e-04
208	4.555868e-04
209	4.243274e-04
210	4.243274e-04
211	4.243274e-04
212	4.178772e-04
213	4.072737e-04
214	3.952595e-04
215	3.698901e-04
216	3.549806e-04
217	3.549806e-04
218	3.549806e-04
219	3.549806e-04
220	3.549806e-04
221	3.549806e-04
222	3.549806e-04
223	3.549806e-04
224	3.549806e-04
225	3.549806e-04
226	3.170624e-04
227	3.170624e-04
228	3.155080e-04
229	2.998558e-04
230	2.998558e-04
231	2.998558e-04
232	2.998558e-04
233	2.998558e-04
234	2.998558e-04
235	2.853359e-04
236	2.762238e-04
237	2.711647e-04
238	2.709271e-04
239	2.703353e-04
240	2.691302e-04
241	2.691302e-04
242	1.900289e-04
243	7.943947e-05
244	7.318639e-05
245	6.530625e-05
246	4.675178e-05
247	4.440744e-05
248	4.375926e-05
249	4.375926e-05
250	4.375926e-05
251	4.375926e-05
252	4.375926e-05
253	4.375926e-05
254	4.375926e-05
255	4.375926e-05
256	4.375926e-05
257	4.375926e-05
258	4.375047e-05
259	4.375047e-05
260	4.375047e-05
261	4.375047e-05
262	4.375047e-05
263	4.375047e-05
264	4.375047e-05
265	4.375047e-05
266	4.375047e-05
267	4.375047e-05
268	4.375047e-05
269	4.375047e-05
270	4.375047e-05
271	4.375047e-05
272	4.375047e-05
273	4.375047e-05
274	4.375047e-05
275	4.375047e-05
276	4.375047e-05
277	4.375047e-05
278	4.375047e-05
279	3.567193e-05
280	3.567193e-05
281	3.567193e-05
282	3.567193e-05
283	3.567193e-05
284	3.567193e-05
285	3.567193e-05
286	3.567193e-05
287	3.567193e-05
288	3.567193e-05
289	1.449008e-05
290	1.449008e-05
291	1.449008e-05
292	1.449008e-05
293	1.449008e-05
294	1.445182e-05
295	1.379344e-05
296	1.379344e-05
297	1.379344e-05
298	1.379344e-05
299	1.338988e-05
300	1.338988e-05
301	1.323414e-05
302	1.314699e-05
303	1.314699e-05
304	9.439806e-06
305	9.288875e-06
306	9.288875e-06
307	9.288875e-06
308	9.288875e-06
309	9.288875e-06
310	9.288875e-06
311	9.288875e-06
312	9.288875e-06
313	9.288875e-06
314	9.288875e-06
315	9.250773e-06
316	9.250773e-06
317	9.250773e-06
318	9.250773e-06
319	9.250773e-06
320	9.250773e-06
321	9.250773e-06
322	9.250773e-06
323	9.250773e-06
324	7.449253e-06
325	7.170196e-06
326	7.094630e-06
327	6.720985e-06
328	6.720985e-06
329	6.720985e-06
330	6.720985e-06
331	6.720985e-06
332	6.720985e-06
333	6.720985e-06
334	6.720985e-06
335	6.720985e-06
336	6.720985e-06
337	6.720985e-06
338	6.720985e-06
339	6.720985e-06
340	6.720985e-06
341	6.720985e-06
342	6.720985e-06
343	6.720985e-06
344	6.720985e-06
345	6.720985e-06
346	5.835450e-06
347	5.835450e-06
348	5.030255e-06
349	5.030255e-06
350	5.030255e-06
351	4.710080e-06
352	4.708271e-06
353	4.697639e-06
354	4.015974e-06
355	3.050775e-06
356	2.991316e-06
357	2.991316e-06
358	2.991316e-06
359	1.988087e-06
360	1.970963e-06
361	1.960260e-06
362	1.906688e-06
363	1.906688e-06
364	1.652498e-06
365	1.652498e-06
366	1.621788e-06
367	1.621788e-06
368	1.527634e-06
369	9.320747e-07
370	9.320747e-07
371	9.176015e-07
372	9.176015e-07
373	9.176015e-07
374	9.176015e-07
375	9.072967e-07
376	9.037768e-07
377	8.817419e-07
378	8.772341e-07
379	8.772341e-07
380	8.771049e-07
381	8.589468e-07
382	8.589468e-07
383	8.589468e-07
384	8.451061e-07
385	8.405590e-07
386	8.405590e-07
387	8.405590e-07
388	8.405590e-07
389	8.198787e-07
390	8.198787e-07
391	8.198787e-07
392	7.353368e-07
393	7.043272e-07
394	6.956101e-07
395	6.956101e-07
396	6.956101e-07
397	6.956101e-07
398	6.956101e-07
399	6.956101e-07
400	6.937031e-07
401	6.349006e-07
402	6.297151e-07
403	6.296117e-07
404	6.296117e-07
405	6.296117e-07
406	5.977467e-07
407	5.835355e-07
408	5.823827e-07
409	5.803834e-07
410	5.803834e-07
411	5.671315e-07
412	5.660429e-07
413	5.631547e-07
414	5.631547e-07
415	5.575182e-07
416	5.393114e-07
417	5.347692e-07
418	5.347692e-07
419	5.347692e-07
420	5.347692e-07
421	3.684136e-07
422	3.684136e-07
423	3.257599e-07
424	3.257599e-07
425	2.227530e-07
426	2.225424e-07
427	1.491790e-07
428	1.491175e-07
429	1.491175e-07
430	1.491175e-07
431	1.491168e-07
432	1.489278e-07
433	1.489261e-07
434	1.489261e-07
435	1.489261e-07
436	1.489261e-07
437	1.489261e-07
438	1.489261e-07
439	1.489040e-07
440	1.459379e-07
441	1.191954e-07
442	8.038399e-08
443	8.038399e-08
444	8.038399e-08
445	7.890019e-08
446	7.888574e-08
447	7.888574e-08
448	7.888574e-08
449	7.845378e-08
450	7.844220e-08
451	7.844160e-08
452	7.828787e-08
453	7.822356e-08
454	7.822235e-08
455	7.822235e-08
456	7.706154e-08
457	7.706154e-08
458	7.706154e-08
459	7.706154e-08
460	7.478646e-08
461	7.397661e-08
462	7.357589e-08
463	7.292692e-08
464	6.580485e-08
465	6.580485e-08
466	6.580485e-08
467	6.580485e-08
468	6.580485e-08
469	6.580485e-08
470	6.580485e-08
471	6.580485e-08
472	6.580485e-08
473	6.580485e-08
474	6.580485e-08
475	6.580485e-08
476	6.319019e-08
477	6.319019e-08
478	6.319019e-08
479	5.642581e-08
480	4.478700e-08
481	4.175708e-08
482	4.175708e-08
483	4.096415e-08
484	4.096415e-08
485	4.096275e-08
486	4.081612e-08
487	4.041232e-08
488	3.202076e-08
489	3.067743e-08
490	2.764193e-08
491	2.633115e-08
492	2.633115e-08
493	2.633115e-08
494	2.633115e-08
495	2.633115e-08
496	2.631862e-08
497	2.597396e-08
498	2.414864e-08
499	2.414864e-08
500	2.140949e-08
501	2.121791e-08
502	2.062208e-08
503	2.062208e-08
504	2.062208e-08
505	1.418546e-08
506	9.137406e-09
507	9.122541e-09
508	9.108585e-09
509	9.064558e-09
510	7.127660e-09
511	4.818294e-09
512	4.196715e-09
513	4.191800e-09
514	4.184113e-09
515	4.153513e-09
516	3.880781e-09
517	3.880781e-09
518	3.880781e-09
519	3.507452e-09
520	3.505930e-09
521	3.500893e-09
522	3.500822e-09
523	3.498274e-09
524	3.498274e-09
525	3.498274e-09
526	3.497159e-09
527	3.497159e-09
528	3.475849e-09
529	3.431897e-09
530	3.428805e-09
531	3.427796e-09
532	3.427796e-09
533	3.424927e-09
534	3.424927e-09
535	3.414744e-09
536	3.402391e-09
537	3.402391e-09
538	3.402391e-09
539	3.402385e-09
540	3.099743e-09
541	3.041223e-09
542	3.022801e-09
543	3.022801e-09
544	3.022801e-09
545	3.022801e-09
546	3.022801e-09
547	3.022801e-09
548	2.196346e-09
549	2.196346e-09
550	2.193645e-09
551	2.188062e-09
552	2.188062e-09
553	2.188062e-09
554	1.979665e-09
555	1.966220e-09
556	1.952863e-09
557	1.946247e-09
558	1.870077e-09
559	1.827028e-09
560	1.827028e-09
561	1.801849e-09
562	1.801849e-09
563	1.647766e-09
564	1.647307e-09
565	1.604764e-09
566	1.545757e-09
567	1.545264e-09
568	1.230807e-09
569	1.166834e-09
570	1.087203e-09
571	1.056044e-09
572	1.055412e-09
573	1.001938e-09
574	9.801096e-10
575	9.801096e-10
576	8.988737e-10
577	8.970268e-10
578	8.155538e-10
579	8.143702e-10
580	7.913151e-10
581	7.908010e-10
582	7.870560e-10
583	6.548821e-10
584	5.804547e-10
585	5.283292e-10
586	5.224893e-10
587	5.224883e-10
588	5.180181e-10
589	4.894851e-10
590	4.753601e-10
591	4.123331e-10
592	3.938786e-10
593	3.938786e-10
594	3.810596e-10
595	3.630323e-10
596	3.552332e-10
597	3.546169e-10
598	3.474673e-10
599	3.411243e-10
600	3.408263e-10
601	3.403127e-10
602	3.340781e-10
603	3.281221e-10
604	3.277324e-10
605	3.277324e-10
606	3.247701e-10
607	3.175890e-10
608	3.175890e-10
609	3.175890e-10
610	3.175890e-10
611	3.175890e-10
612	3.175890e-10
613	3.175890e-10
614	2.920353e-10
615	2.920353e-10
616	2.919749e-10
617	2.611517e-10
618	2.611517e-10
619	2.611517e-10
620	2.611517e-10
621	2.611517e-10
622	2.611517e-10
623	2.611114e-10
624	2.611114e-10
625	2.611114e-10
626	2.611114e-10
627	1.543390e-10
628	1.210562e-10
629	1.201974e-10
630	8.027972e-11
631	7.884297e-11
632	7.883554e-11
633	7.883554e-11
634	7.840633e-11
635	7.840633e-11
636	7.654625e-11
637	7.654625e-11
638	7.625134e-11
639	7.625134e-11
640	7.625134e-11
641	6.661738e-11
642	6.097017e-11
643	5.237616e-11
644	5.237616e-11
645	4.671316e-11
646	4.197224e-11
647	3.971942e-11
648	3.928192e-11
649	3.928192e-11
650	3.928192e-11
651	2.786305e-11
652	2.786162e-11
653	2.786162e-11
654	2.767457e-11
655	2.499777e-11
656	2.499777e-11
657	2.499753e-11
658	2.434089e-11
659	2.434089e-11
660	2.434089e-11
661	2.434089e-11
662	2.434089e-11
663	2.427888e-11
664	2.427857e-11
665	2.325019e-11
666	2.299331e-11
667	2.299331e-11
668	2.251188e-11
669	2.251188e-11
670	2.222124e-11
671	1.698153e-11
672	1.678720e-11
673	1.661527e-11
674	1.661527e-11
675	1.645380e-11
676	1.636092e-11
677	1.632237e-11
678	1.631993e-11
679	1.626544e-11
680	1.607133e-11
681	1.601041e-11
682	1.598639e-11
683	1.533725e-11
684	1.529627e-11
685	1.500631e-11
686	1.500631e-11
687	1.358521e-11
688	1.358521e-11
689	1.358521e-11
690	1.358521e-11
691	1.213175e-11
692	1.000712e-11
693	9.721224e-12
694	9.721224e-12
695	9.721224e-12
696	9.721224e-12
697	9.721224e-12
698	9.721224e-12
699	9.721224e-12
700	8.713447e-12
701	7.685684e-12
702	7.682583e-12
703	7.384669e-12
704	7.284724e-12
705	7.268129e-12
706	7.268129e-12
707	7.268129e-12
708	7.268129e-12
709	6.670553e-12
710	6.670553e-12
711	6.595476e-12
712	6.212959e-12
713	5.255060e-12
714	5.227210e-12
715	5.227210e-12
716	5.106549e-12
717	5.100411e-12
718	5.091081e-12
719	4.896398e-12
720	4.877426e-12
721	4.875742e-12
722	4.875742e-12
723	4.875742e-12
724	4.875742e-12
725	4.875742e-12
726	4.875742e-12
727	3.801298e-12
728	3.569640e-12
729	3.563046e-12
730	3.002587e-12
731	3.002587e-12
732	2.969497e-12
733	2.666636e-12
734	2.662644e-12
735	2.658388e-12
736	2.656437e-12
737	2.656437e-12
738	2.656437e-12
739	2.655343e-12
740	2.655343e-12
741	2.377300e-12
742	2.377300e-12
743	2.291260e-12
744	1.971632e-12
745	1.970698e-12
746	1.970698e-12
747	1.969501e-12
748	1.969261e-12
749	1.969261e-12
750	1.969261e-12
751	1.968227e-12
752	1.964597e-12
753	1.956574e-12
754	1.956574e-12
755	1.942544e-12
756	1.925488e-12
757	1.925488e-12
758	1.925488e-12
759	1.925488e-12
760	1.925488e-12
761	1.925488e-12
762	1.925488e-12
763	1.925488e-12
764	1.925488e-12
765	1.925488e-12
766	1.925488e-12
767	1.925488e-12
768	1.788689e-12
769	1.788689e-12
770	1.788689e-12
771	1.788689e-12
772	1.788689e-12
773	1.788689e-12
774	1.788689e-12
775	1.788689e-12
776	1.788689e-12
777	1.597075e-12
778	1.597075e-12
779	1.597075e-12
780	1.597075e-12
781	1.597075e-12
782	1.597075e-12
783	1.597075e-12
784	1.597075e-12
785	1.597075e-12
786	1.498714e-12
787	1.498714e-12
788	1.498714e-12
789	1.498714e-12
790	1.498714e-12
791	1.498714e-12
792	1.498714e-12
793	1.498714e-12
794	1.498714e-12
795	1.498714e-12
796	1.498714e-12
797	1.498714e-12
798	1.498714e-12
799	1.498714e-12
800	1.498714e-12
801	1.498714e-12
802	1.498714e-12
803	1.498714e-12
804	1.498714e-12
805	1.498714e-12
806	1.498714e-12
807	1.498714e-12
808	1.498714e-12
809	1.498714e-12
810	1.498714e-12
811	1.498714e-12
812	1.498714e-12
813	1.498714e-12
814	1.498714e-12
815	1.498714e-12
816	1.498714e-12
817	1.498714e-12
818	1.498714e-12
819	1.498714e-12
820	1.498714e-12
821	1.498714e-12
822	1.498714e-12
823	1.498714e-12
824	1.498714e-12
825	1.498714e-12
826	1.498714e-12
827	1.498714e-12
828	1.498714e-12
829	1.498714e-12
830	1.498714e-12
831	1.498714e-12
832	1.498714e-12
833	1.498714e-12
834	1.498714e-12
835	1.498714e-12
836	1.498714e-12
837	1.498714e-12
838	1.498714e-12
839	1.498714e-12
840	1.498714e-12
841	1.498714e-12
842	1.498714e-12
843	1.498714e-12
844	1.498714e-12
845	1.498714e-12
846	1.498714e-12
847	1.498714e-12
848	1.498714e-12
849	1.498714e-12
850	1.498714e-12
851	1.498714e-12
852	1.498714e-12
853	1.498714e-12
854	1.498714e-12
855	1.498714e-12
856	1.498714e-12
857	1.498714e-12
858	1.498714e-12
859	1.498714e-12
860	1.498714e-12
861	1.498714e-12
862	1.498714e-12
863	1.498714e-12
864	1.498714e-12
865	1.498714e-12
866	1.498714e-12
867	1.498714e-12
868	1.498714e-12
869	1.498714e-12
870	1.498714e-12
871	1.498714e-12
872	1.498714e-12
873	1.498714e-12
874	1.498714e-12
875	1.498714e-12
876	1.498714e-12
877	1.498714e-12
878	1.498714e-12
879	1.498714e-12
880	1.498714e-12
881	1.498714e-12
882	1.498714e-12
883	1.498714e-12
884	1.498714e-12
885	1.498714e-12
886	1.498714e-12
887	1.498714e-12
888	1.498714e-12
889	1.498714e-12
890	1.498714e-12
891	1.498714e-12
892	1.498714e-12
893	1.498714e-12
894	1.498714e-12
895	1.498714e-12
896	1.498714e-12
897	1.498714e-12
898	1.498714e-12
899	1.498714e-12
900	1.498714e-12
901	1.498714e-12
902	1.498714e-12
903	1.498714e-12
904	1.498714e-12
905	1.498714e-12
906	1.498714e-12
907	1.498714e-12
908	1.498714e-12
909	1.498714e-12
910	1.498714e-12
911	1.498714e-12
912	1.498714e-12
913	1.498714e-12
914	1.498714e-12
915	1.498714e-12
916	1.498714e-12
917	1.498714e-12
918	1.498714e-12
919	1.498714e-12
920	1.498714e-12
921	1.498714e-12
922	1.498714e-12
923	1.498714e-12
924	1.498714e-12
925	1.498714e-12
926	1.498714e-12
927	1.498714e-12
928	1.498714e-12
929	1.498714e-12
930	1.498714e-12
931	1.498714e-12
932	1.498714e-12
933	1.498714e-12
934	1.498714e-12
935	1.498714e-12
936	1.498714e-12
937	1.498714e-12
938	1.498714e-12
939	1.498714e-12
940	1.498714e-12
941	1.498714e-12
942	1.498714e-12
943	1.498714e-12
944	1.498714e-12
945	1.498714e-12
946	1.498714e-12
947	1.498714e-12
948	1.498714e-12
949	1.498714e-12
950	1.498714e-12
951	1.498714e-12
952	1.498714e-12
953	1.498714e-12
954	1.498714e-12
955	1.498714e-12
956	1.498714e-12
957	1.498714e-12
958	1.498714e-12
959	1.498714e-12
960	1.498714e-12
961	1.498714e-12
962	1.498714e-12
963	1.498714e-12
964	1.498714e-12
965	1.498714e-12
966	1.498714e-12
967	1.498714e-12
968	1.498714e-12
969	1.498714e-12
970	1.498714e-12
971	1.498714e-12
972	1.498714e-12
973	1.498714e-12
974	1.498714e-12
975	1.498714e-12
976	1.498714e-12
977	1.498714e-12
978	1.498714e-12
979	1.498714e-12
980	1.498714e-12
981	1.498714e-12
982	1.498714e-12
983	1.498714e-12
984	1.498714e-12
985	1.498714e-12
986	1.498714e-12
987	1.498714e-12
988	1.498714e-12
989	1.498714e-12
990	1.498714e-12
991	1.498714e-12
992	1.498714e-12
993	1.498714e-12
994	1.498714e-12
995	1.498714e-12
996	1.498714e-12
997	1.498714e-12
998	1.498714e-12
999	1.498714e-12
1000	1.498714e-12
1001	1.498714e-12
1002	1.498714e-12
1003	1.498714e-12
1004	1.498714e-12
1005	1.498714e-12
1006	1.498714e-12
Solution time:	8.019000e+00
